%!PS-Adobe-3.0 EPSF-3.0
%%Title: figure_2_boxplot_model_vs_baseline.eps
%%Creator: Matplotlib v3.5.1, https://matplotlib.org/
%%CreationDate: Tue Jul 12 14:08:01 2022
%%Orientation: portrait
%%BoundingBox: 18 180 594 612
%%HiResBoundingBox: 18.000000 180.000000 594.000000 612.000000
%%EndComments
%%BeginProlog
/mpldict 11 dict def
mpldict begin
/_d { bind def } bind def
/m { moveto } _d
/l { lineto } _d
/r { rlineto } _d
/c { curveto } _d
/cl { closepath } _d
/ce { closepath eofill } _d
/box {
      m
      1 index 0 r
      0 exch r
      neg 0 r
      cl
    } _d
/clipbox {
      box
      clip
      newpath
    } _d
/sc { setcachedevice } _d
%!PS-Adobe-3.0 Resource-Font
%%Creator: Converted from TrueType to Type 3 by Matplotlib.
10 dict begin
/FontName /DejaVuSans def
/PaintType 0 def
/FontMatrix [0.00048828125 0 0 0.00048828125 0 0] def
/FontBBox [-2090 -948 3673 2524] def
/FontType 3 def
/Encoding [/minus /space /zero /one /two /three /four /five /A /B /E /M /P /R /S /a /d /e /h /i /l /m /n /o /s /t] def
/CharStrings 27 dict dup begin
/.notdef 0 def
/minus{1716 0 217 557 1499 727 sc
217 727 m
1499 727 l
1499 557 l
217 557 l
217 727 l

ce} _d
/space{651 0 0 0 0 0 sc
ce} _d
/zero{1303 0 135 -29 1167 1520 sc
651 1360 m
547 1360 469 1309 416 1206 c
364 1104 338 950 338 745 c
338 540 364 387 416 284 c
469 182 547 131 651 131 c
756 131 834 182 886 284 c
939 387 965 540 965 745 c
965 950 939 1104 886 1206 c
834 1309 756 1360 651 1360 c

651 1520 m
818 1520 946 1454 1034 1321 c
1123 1189 1167 997 1167 745 c
1167 494 1123 302 1034 169 c
946 37 818 -29 651 -29 c
484 -29 356 37 267 169 c
179 302 135 494 135 745 c
135 997 179 1189 267 1321 c
356 1454 484 1520 651 1520 c

ce} _d
/one{1303 0 225 0 1114 1493 sc
254 170 m
584 170 l
584 1309 l
225 1237 l
225 1421 l
582 1493 l
784 1493 l
784 170 l
1114 170 l
1114 0 l
254 0 l
254 170 l

ce} _d
/two{1303 0 150 0 1098 1520 sc
393 170 m
1098 170 l
1098 0 l
150 0 l
150 170 l
227 249 331 356 463 489 c
596 623 679 709 713 748 c
778 821 823 882 848 932 c
874 983 887 1032 887 1081 c
887 1160 859 1225 803 1275 c
748 1325 675 1350 586 1350 c
523 1350 456 1339 385 1317 c
315 1295 240 1262 160 1217 c
160 1421 l
241 1454 317 1478 388 1495 c
459 1512 523 1520 582 1520 c
737 1520 860 1481 952 1404 c
1044 1327 1090 1223 1090 1094 c
1090 1033 1078 974 1055 919 c
1032 864 991 800 930 725 c
913 706 860 650 771 557 c
682 465 556 336 393 170 c

ce} _d
/three{1303 0 156 -29 1139 1520 sc
831 805 m
928 784 1003 741 1057 676 c
1112 611 1139 530 1139 434 c
1139 287 1088 173 987 92 c
886 11 742 -29 555 -29 c
492 -29 428 -23 361 -10 c
295 2 227 20 156 45 c
156 240 l
212 207 273 183 340 166 c
407 149 476 141 549 141 c
676 141 772 166 838 216 c
905 266 938 339 938 434 c
938 522 907 591 845 640 c
784 690 698 715 588 715 c
414 715 l
414 881 l
596 881 l
695 881 771 901 824 940 c
877 980 903 1037 903 1112 c
903 1189 876 1247 821 1288 c
767 1329 689 1350 588 1350 c
533 1350 473 1344 410 1332 c
347 1320 277 1301 201 1276 c
201 1456 l
278 1477 349 1493 416 1504 c
483 1515 547 1520 606 1520 c
759 1520 881 1485 970 1415 c
1059 1346 1104 1252 1104 1133 c
1104 1050 1080 980 1033 923 c
986 866 918 827 831 805 c

ce} _d
/four{1303 0 100 0 1188 1493 sc
774 1317 m
264 520 l
774 520 l
774 1317 l

721 1493 m
975 1493 l
975 520 l
1188 520 l
1188 352 l
975 352 l
975 0 l
774 0 l
774 352 l
100 352 l
100 547 l
721 1493 l

ce} _d
/five{1303 0 158 -29 1124 1493 sc
221 1493 m
1014 1493 l
1014 1323 l
406 1323 l
406 957 l
435 967 465 974 494 979 c
523 984 553 987 582 987 c
749 987 881 941 978 850 c
1075 759 1124 635 1124 479 c
1124 318 1074 193 974 104 c
874 15 733 -29 551 -29 c
488 -29 424 -24 359 -13 c
294 -2 227 14 158 35 c
158 238 l
218 205 280 181 344 165 c
408 149 476 141 547 141 c
662 141 754 171 821 232 c
888 293 922 375 922 479 c
922 583 888 665 821 726 c
754 787 662 817 547 817 c
493 817 439 811 385 799 c
332 787 277 768 221 743 c
221 1493 l

ce} _d
/A{1401 0 16 0 1384 1493 sc
700 1294 m
426 551 l
975 551 l
700 1294 l

586 1493 m
815 1493 l
1384 0 l
1174 0 l
1038 383 l
365 383 l
229 0 l
16 0 l
586 1493 l

ce} _d
/B{1405 0 201 0 1260 1493 sc
403 713 m
403 166 l
727 166 l
836 166 916 188 968 233 c
1021 278 1047 347 1047 440 c
1047 533 1021 602 968 646 c
916 691 836 713 727 713 c
403 713 l

403 1327 m
403 877 l
702 877 l
801 877 874 895 922 932 c
971 969 995 1026 995 1102 c
995 1177 971 1234 922 1271 c
874 1308 801 1327 702 1327 c
403 1327 l

201 1493 m
717 1493 l
871 1493 990 1461 1073 1397 c
1156 1333 1198 1242 1198 1124 c
1198 1033 1177 960 1134 906 c
1091 852 1029 818 946 805 c
1045 784 1122 739 1177 671 c
1232 604 1260 519 1260 418 c
1260 285 1215 182 1124 109 c
1033 36 904 0 737 0 c
201 0 l
201 1493 l

ce} _d
/E{1294 0 201 0 1163 1493 sc
201 1493 m
1145 1493 l
1145 1323 l
403 1323 l
403 881 l
1114 881 l
1114 711 l
403 711 l
403 170 l
1163 170 l
1163 0 l
201 0 l
201 1493 l

ce} _d
/M{1767 0 201 0 1567 1493 sc
201 1493 m
502 1493 l
883 477 l
1266 1493 l
1567 1493 l
1567 0 l
1370 0 l
1370 1311 l
985 287 l
782 287 l
397 1311 l
397 0 l
201 0 l
201 1493 l

ce} _d
/P{1235 0 201 0 1165 1493 sc
403 1327 m
403 766 l
657 766 l
751 766 824 790 875 839 c
926 888 952 957 952 1047 c
952 1136 926 1205 875 1254 c
824 1303 751 1327 657 1327 c
403 1327 l

201 1493 m
657 1493 l
824 1493 951 1455 1036 1379 c
1122 1304 1165 1193 1165 1047 c
1165 900 1122 788 1036 713 c
951 638 824 600 657 600 c
403 600 l
403 0 l
201 0 l
201 1493 l

ce} _d
/R{1423 0 201 0 1364 1493 sc
909 700 m
952 685 994 654 1035 606 c
1076 558 1118 492 1159 408 c
1364 0 l
1147 0 l
956 383 l
907 483 859 549 812 582 c
766 615 703 631 623 631 c
403 631 l
403 0 l
201 0 l
201 1493 l
657 1493 l
828 1493 955 1457 1039 1386 c
1123 1315 1165 1207 1165 1063 c
1165 969 1143 891 1099 829 c
1056 767 992 724 909 700 c

403 1327 m
403 797 l
657 797 l
754 797 828 819 877 864 c
927 909 952 976 952 1063 c
952 1150 927 1216 877 1260 c
828 1305 754 1327 657 1327 c
403 1327 l

ce} _d
/S{1300 0 135 -29 1186 1520 sc
1096 1444 m
1096 1247 l
1019 1284 947 1311 879 1329 c
811 1347 745 1356 682 1356 c
572 1356 487 1335 427 1292 c
368 1249 338 1189 338 1110 c
338 1044 358 994 397 960 c
437 927 512 900 623 879 c
745 854 l
896 825 1007 775 1078 702 c
1150 630 1186 533 1186 412 c
1186 267 1137 158 1040 83 c
943 8 801 -29 614 -29 c
543 -29 468 -21 388 -5 c
309 11 226 35 141 66 c
141 274 l
223 228 303 193 382 170 c
461 147 538 135 614 135 c
729 135 818 158 881 203 c
944 248 975 313 975 397 c
975 470 952 528 907 569 c
862 610 789 641 686 662 c
563 686 l
412 716 303 763 236 827 c
169 891 135 980 135 1094 c
135 1226 181 1330 274 1406 c
367 1482 496 1520 659 1520 c
729 1520 800 1514 873 1501 c
946 1488 1020 1469 1096 1444 c

ce} _d
/a{1255 0 123 -29 1069 1147 sc
702 563 m
553 563 450 546 393 512 c
336 478 307 420 307 338 c
307 273 328 221 371 182 c
414 144 473 125 547 125 c
649 125 731 161 792 233 c
854 306 885 402 885 522 c
885 563 l
702 563 l

1069 639 m
1069 0 l
885 0 l
885 170 l
843 102 791 52 728 19 c
665 -13 589 -29 498 -29 c
383 -29 292 3 224 67 c
157 132 123 218 123 326 c
123 452 165 547 249 611 c
334 675 460 707 627 707 c
885 707 l
885 725 l
885 810 857 875 801 921 c
746 968 668 991 567 991 c
503 991 441 983 380 968 c
319 953 261 930 205 899 c
205 1069 l
272 1095 338 1114 401 1127 c
464 1140 526 1147 586 1147 c
748 1147 869 1105 949 1021 c
1029 937 1069 810 1069 639 c

ce} _d
/d{1300 0 113 -29 1114 1556 sc
930 950 m
930 1556 l
1114 1556 l
1114 0 l
930 0 l
930 168 l
891 101 842 52 783 19 c
724 -13 654 -29 571 -29 c
436 -29 325 25 240 133 c
155 241 113 383 113 559 c
113 735 155 877 240 985 c
325 1093 436 1147 571 1147 c
654 1147 724 1131 783 1098 c
842 1066 891 1017 930 950 c

303 559 m
303 424 331 317 386 240 c
442 163 519 125 616 125 c
713 125 790 163 846 240 c
902 317 930 424 930 559 c
930 694 902 800 846 877 c
790 954 713 993 616 993 c
519 993 442 954 386 877 c
331 800 303 694 303 559 c

ce} _d
/e{1260 0 113 -29 1151 1147 sc
1151 606 m
1151 516 l
305 516 l
313 389 351 293 419 226 c
488 160 583 127 705 127 c
776 127 844 136 910 153 c
977 170 1043 196 1108 231 c
1108 57 l
1042 29 974 8 905 -7 c
836 -22 765 -29 694 -29 c
515 -29 374 23 269 127 c
165 231 113 372 113 549 c
113 732 162 878 261 985 c
360 1093 494 1147 662 1147 c
813 1147 932 1098 1019 1001 c
1107 904 1151 773 1151 606 c

967 660 m
966 761 937 841 882 901 c
827 961 755 991 664 991 c
561 991 479 962 417 904 c
356 846 320 764 311 659 c
967 660 l

ce} _d
/h{1298 0 186 0 1124 1556 sc
1124 676 m
1124 0 l
940 0 l
940 670 l
940 776 919 855 878 908 c
837 961 775 987 692 987 c
593 987 514 955 457 892 c
400 829 371 742 371 633 c
371 0 l
186 0 l
186 1556 l
371 1556 l
371 946 l
415 1013 467 1064 526 1097 c
586 1130 655 1147 733 1147 c
862 1147 959 1107 1025 1027 c
1091 948 1124 831 1124 676 c

ce} _d
/i{569 0 193 0 377 1556 sc
193 1120 m
377 1120 l
377 0 l
193 0 l
193 1120 l

193 1556 m
377 1556 l
377 1323 l
193 1323 l
193 1556 l

ce} _d
/l{569 0 193 0 377 1556 sc
193 1556 m
377 1556 l
377 0 l
193 0 l
193 1556 l

ce} _d
/m{1995 0 186 0 1821 1147 sc
1065 905 m
1111 988 1166 1049 1230 1088 c
1294 1127 1369 1147 1456 1147 c
1573 1147 1663 1106 1726 1024 c
1789 943 1821 827 1821 676 c
1821 0 l
1636 0 l
1636 670 l
1636 777 1617 857 1579 909 c
1541 961 1483 987 1405 987 c
1310 987 1234 955 1179 892 c
1124 829 1096 742 1096 633 c
1096 0 l
911 0 l
911 670 l
911 778 892 858 854 909 c
816 961 757 987 678 987 c
584 987 509 955 454 891 c
399 828 371 742 371 633 c
371 0 l
186 0 l
186 1120 l
371 1120 l
371 946 l
413 1015 463 1065 522 1098 c
581 1131 650 1147 731 1147 c
812 1147 881 1126 938 1085 c
995 1044 1038 984 1065 905 c

ce} _d
/n{1298 0 186 0 1124 1147 sc
1124 676 m
1124 0 l
940 0 l
940 670 l
940 776 919 855 878 908 c
837 961 775 987 692 987 c
593 987 514 955 457 892 c
400 829 371 742 371 633 c
371 0 l
186 0 l
186 1120 l
371 1120 l
371 946 l
415 1013 467 1064 526 1097 c
586 1130 655 1147 733 1147 c
862 1147 959 1107 1025 1027 c
1091 948 1124 831 1124 676 c

ce} _d
/o{1253 0 113 -29 1141 1147 sc
627 991 m
528 991 450 952 393 875 c
336 798 307 693 307 559 c
307 425 335 319 392 242 c
449 165 528 127 627 127 c
725 127 803 166 860 243 c
917 320 946 426 946 559 c
946 692 917 797 860 874 c
803 952 725 991 627 991 c

627 1147 m
787 1147 913 1095 1004 991 c
1095 887 1141 743 1141 559 c
1141 376 1095 232 1004 127 c
913 23 787 -29 627 -29 c
466 -29 340 23 249 127 c
158 232 113 376 113 559 c
113 743 158 887 249 991 c
340 1095 466 1147 627 1147 c

ce} _d
/s{1067 0 111 -29 967 1147 sc
907 1087 m
907 913 l
855 940 801 960 745 973 c
689 986 631 993 571 993 c
480 993 411 979 365 951 c
320 923 297 881 297 825 c
297 782 313 749 346 724 c
379 700 444 677 543 655 c
606 641 l
737 613 829 573 884 522 c
939 471 967 400 967 309 c
967 205 926 123 843 62 c
761 1 648 -29 504 -29 c
444 -29 381 -23 316 -11 c
251 0 183 18 111 41 c
111 231 l
179 196 246 169 312 151 c
378 134 443 125 508 125 c
595 125 661 140 708 169 c
755 199 778 241 778 295 c
778 345 761 383 727 410 c
694 437 620 462 506 487 c
442 502 l
328 526 246 563 195 612 c
144 662 119 730 119 817 c
119 922 156 1004 231 1061 c
306 1118 412 1147 549 1147 c
617 1147 681 1142 741 1132 c
801 1122 856 1107 907 1087 c

ce} _d
/t{803 0 55 0 754 1438 sc
375 1438 m
375 1120 l
754 1120 l
754 977 l
375 977 l
375 369 l
375 278 387 219 412 193 c
437 167 488 154 565 154 c
754 154 l
754 0 l
565 0 l
423 0 325 26 271 79 c
217 132 190 229 190 369 c
190 977 l
55 977 l
55 1120 l
190 1120 l
190 1438 l
375 1438 l

ce} _d
end readonly def

/BuildGlyph {
 exch begin
 CharStrings exch
 2 copy known not {pop /.notdef} if
 true 3 1 roll get exec
 end
} _d

/BuildChar {
 1 index /Encoding get exch get
 1 index /BuildGlyph get exec
} _d

FontName currentdict end definefont pop
end
%%EndProlog
mpldict begin
18 180 translate
576 432 0 0 clipbox
gsave
0 0 m
576 0 l
576 432 l
0 432 l
cl
1.000 setgray
fill
grestore
gsave
52.985109 242 m
282.6 242 l
282.6 404 l
52.985109 404 l
cl
1.000 setgray
fill
grestore
1.500 setlinewidth
0 setlinejoin
0 setlinecap
[] 0 setdash
0.247 setgray
gsave
229.615 162 52.985 242 clipbox
64.925084 249.363636 m
109.929602 249.363636 l
109.929602 319.828259 l
64.925084 319.828259 l
64.925084 249.363636 l
cl
gsave
0.195 0.453 0.633 setrgbcolor
fill
grestore
stroke
grestore
gsave
229.615 162 52.985 242 clipbox
110.848062 249.363636 m
155.85258 249.363636 l
155.85258 347.209518 l
110.848062 347.209518 l
110.848062 249.363636 l
cl
gsave
0.882 0.505 0.173 setrgbcolor
fill
grestore
stroke
grestore
gsave
229.615 162 52.985 242 clipbox
179.732529 273.143909 m
224.737048 273.143909 l
224.737048 353.148552 l
179.732529 353.148552 l
179.732529 273.143909 l
cl
gsave
0.195 0.453 0.633 setrgbcolor
fill
grestore
stroke
grestore
gsave
229.615 162 52.985 242 clipbox
225.655507 273.143909 m
270.660026 273.143909 l
270.660026 367.181818 l
225.655507 367.181818 l
225.655507 273.143909 l
cl
gsave
0.882 0.505 0.173 setrgbcolor
fill
grestore
stroke
grestore
0.750 setlinewidth
gsave
229.615 162 52.985 242 clipbox
110.388832 -97596.518431 m
110.388832 -97596.518431 l
110.388832 -97596.518431 l
110.388832 -97596.518431 l
cl
gsave
0.195 0.453 0.633 setrgbcolor
fill
grestore
stroke
grestore
gsave
229.615 162 52.985 242 clipbox
110.388832 -97596.518431 m
110.388832 -97596.518431 l
110.388832 -97596.518431 l
110.388832 -97596.518431 l
cl
gsave
0.882 0.505 0.173 setrgbcolor
fill
grestore
stroke
grestore
0.800 setlinewidth
1 setlinejoin
0.000 setgray
gsave
/o {
gsave
newpath
translate
0.8 setlinewidth
1 setlinejoin

0 setlinecap

0 0 m
0 -3.5 l

gsave
0.000 setgray
fill
grestore
stroke
grestore
} bind def
110.389 242 o
grestore
/DejaVuSans 14.000 selectfont
gsave

80.990395 224.359375 translate
0.000000 rotate
0.000000 0 m /one glyphshow
8.907227 0 m /space glyphshow
13.357422 0 m /m glyphshow
26.995117 0 m /o glyphshow
35.560547 0 m /n glyphshow
44.433594 0 m /t glyphshow
49.922852 0 m /h glyphshow
grestore
gsave
/o {
gsave
newpath
translate
0.8 setlinewidth
1 setlinejoin

0 setlinecap

0 0 m
0 -3.5 l

gsave
0.000 setgray
fill
grestore
stroke
grestore
} bind def
225.196 242 o
grestore
gsave

192.149402 224.359375 translate
0.000000 rotate
0.000000 0 m /three glyphshow
8.907227 0 m /space glyphshow
13.357422 0 m /m glyphshow
26.995117 0 m /o glyphshow
35.560547 0 m /n glyphshow
44.433594 0 m /t glyphshow
49.922852 0 m /h glyphshow
58.795898 0 m /s glyphshow
grestore
gsave
/o {
gsave
newpath
translate
0.8 setlinewidth
1 setlinejoin

0 setlinecap

-0 0 m
-3.5 0 l

gsave
0.000 setgray
fill
grestore
stroke
grestore
} bind def
52.9851 249.364 o
grestore
gsave
27.985109 244.902699 translate
0.000000 rotate
/DejaVuSans 10.0 selectfont
0.000000 0.976562 moveto
/one glyphshow
6.362305 0.976562 moveto
/zero glyphshow
/DejaVuSans 7.0 selectfont
12.820312 4.804688 moveto
/zero glyphshow
grestore
gsave
/o {
gsave
newpath
translate
0.8 setlinewidth
1 setlinejoin

0 setlinecap

-0 0 m
-3.5 0 l

gsave
0.000 setgray
fill
grestore
stroke
grestore
} bind def
52.9851 347.21 o
grestore
gsave
27.985109 343.248581 translate
0.000000 rotate
/DejaVuSans 10.0 selectfont
0.000000 0.064063 moveto
/one glyphshow
6.362305 0.064063 moveto
/zero glyphshow
/DejaVuSans 7.0 selectfont
12.820312 3.892188 moveto
/one glyphshow
grestore
0.600 setlinewidth
gsave
/o {
gsave
newpath
translate
0.6 setlinewidth
1 setlinejoin

0 setlinecap

-0 0 m
-2 0 l

gsave
0.000 setgray
fill
grestore
stroke
grestore
} bind def
52.9851 244.886 o
grestore
gsave
/o {
gsave
newpath
translate
0.6 setlinewidth
1 setlinejoin

0 setlinecap

-0 0 m
-2 0 l

gsave
0.000 setgray
fill
grestore
stroke
grestore
} bind def
52.9851 278.818 o
grestore
gsave
/o {
gsave
newpath
translate
0.6 setlinewidth
1 setlinejoin

0 setlinecap

-0 0 m
-2 0 l

gsave
0.000 setgray
fill
grestore
stroke
grestore
} bind def
52.9851 296.048 o
grestore
gsave
/o {
gsave
newpath
translate
0.6 setlinewidth
1 setlinejoin

0 setlinecap

-0 0 m
-2 0 l

gsave
0.000 setgray
fill
grestore
stroke
grestore
} bind def
52.9851 308.273 o
grestore
gsave
/o {
gsave
newpath
translate
0.6 setlinewidth
1 setlinejoin

0 setlinecap

-0 0 m
-2 0 l

gsave
0.000 setgray
fill
grestore
stroke
grestore
} bind def
52.9851 317.755 o
grestore
gsave
/o {
gsave
newpath
translate
0.6 setlinewidth
1 setlinejoin

0 setlinecap

-0 0 m
-2 0 l

gsave
0.000 setgray
fill
grestore
stroke
grestore
} bind def
52.9851 325.503 o
grestore
gsave
/o {
gsave
newpath
translate
0.6 setlinewidth
1 setlinejoin

0 setlinecap

-0 0 m
-2 0 l

gsave
0.000 setgray
fill
grestore
stroke
grestore
} bind def
52.9851 332.053 o
grestore
gsave
/o {
gsave
newpath
translate
0.6 setlinewidth
1 setlinejoin

0 setlinecap

-0 0 m
-2 0 l

gsave
0.000 setgray
fill
grestore
stroke
grestore
} bind def
52.9851 337.727 o
grestore
gsave
/o {
gsave
newpath
translate
0.6 setlinewidth
1 setlinejoin

0 setlinecap

-0 0 m
-2 0 l

gsave
0.000 setgray
fill
grestore
stroke
grestore
} bind def
52.9851 342.732 o
grestore
gsave
/o {
gsave
newpath
translate
0.6 setlinewidth
1 setlinejoin

0 setlinecap

-0 0 m
-2 0 l

gsave
0.000 setgray
fill
grestore
stroke
grestore
} bind def
52.9851 376.664 o
grestore
gsave
/o {
gsave
newpath
translate
0.6 setlinewidth
1 setlinejoin

0 setlinecap

-0 0 m
-2 0 l

gsave
0.000 setgray
fill
grestore
stroke
grestore
} bind def
52.9851 393.894 o
grestore
gsave

21.078859 307.750000 translate
90.000000 rotate
0.000000 0 m /M glyphshow
12.079102 0 m /A glyphshow
21.656250 0 m /E glyphshow
grestore
1.500 setlinewidth
2 setlinecap
0.247 setgray
gsave
229.615 162 52.985 242 clipbox
87.427343 249.363636 m
87.427343 249.363636 l
stroke
grestore
gsave
229.615 162 52.985 242 clipbox
87.427343 319.828259 m
87.427343 351.259622 l
stroke
grestore
gsave
229.615 162 52.985 242 clipbox
76.176213 249.363636 m
98.678473 249.363636 l
stroke
grestore
gsave
229.615 162 52.985 242 clipbox
76.176213 351.259622 m
98.678473 351.259622 l
stroke
grestore
gsave
229.615 162 52.985 242 clipbox
133.350321 249.363636 m
133.350321 249.363636 l
stroke
grestore
gsave
229.615 162 52.985 242 clipbox
133.350321 347.209518 m
133.350321 367.181818 l
stroke
grestore
gsave
229.615 162 52.985 242 clipbox
122.099191 249.363636 m
144.601451 249.363636 l
stroke
grestore
gsave
229.615 162 52.985 242 clipbox
122.099191 367.181818 m
144.601451 367.181818 l
stroke
grestore
gsave
229.615 162 52.985 242 clipbox
202.234788 273.143909 m
202.234788 249.363636 l
stroke
grestore
gsave
229.615 162 52.985 242 clipbox
202.234788 353.148552 m
202.234788 369.757996 l
stroke
grestore
gsave
229.615 162 52.985 242 clipbox
190.983659 249.363636 m
213.485918 249.363636 l
stroke
grestore
gsave
229.615 162 52.985 242 clipbox
190.983659 369.757996 m
213.485918 369.757996 l
stroke
grestore
gsave
229.615 162 52.985 242 clipbox
248.157766 273.143909 m
248.157766 249.363636 l
stroke
grestore
gsave
229.615 162 52.985 242 clipbox
248.157766 367.181818 m
248.157766 396.636364 l
stroke
grestore
gsave
229.615 162 52.985 242 clipbox
236.906637 249.363636 m
259.408896 249.363636 l
stroke
grestore
gsave
229.615 162 52.985 242 clipbox
236.906637 396.636364 m
259.408896 396.636364 l
stroke
grestore
gsave
229.615 162 52.985 242 clipbox
64.925084 296.047986 m
109.929602 296.047986 l
stroke
grestore
gsave
229.615 162 52.985 242 clipbox
110.848062 296.047986 m
155.85258 296.047986 l
stroke
grestore
gsave
229.615 162 52.985 242 clipbox
179.732529 302.598454 m
224.737048 302.598454 l
stroke
grestore
gsave
229.615 162 52.985 242 clipbox
225.655507 313.277791 m
270.660026 313.277791 l
stroke
grestore
0.800 setlinewidth
0 setlinejoin
0.000 setgray
gsave
52.985109 242 m
52.985109 404 l
stroke
grestore
gsave
282.6 242 m
282.6 404 l
stroke
grestore
gsave
52.985109 242 m
282.6 242 l
stroke
grestore
gsave
52.985109 404 m
282.6 404 l
stroke
grestore
/DejaVuSans 15.000 selectfont
gsave

151.448805 410.000000 translate
0.000000 rotate
0.000000 0 m /M glyphshow
12.941895 0 m /A glyphshow
23.203125 0 m /E glyphshow
grestore
1.000 setlinewidth
0 setlinecap
0.800 setgray
gsave
62.785109 351.70625 m
166.944484 351.70625 l
168.811151 351.70625 169.744484 352.639583 169.744484 354.50625 c
169.744484 394.2 l
169.744484 396.066667 168.811151 397 166.944484 397 c
62.785109 397 l
60.918443 397 59.985109 396.066667 59.985109 394.2 c
59.985109 354.50625 l
59.985109 352.639583 60.918443 351.70625 62.785109 351.70625 c
cl
gsave
1.000 setgray
fill
grestore
stroke
grestore
0.750 setlinewidth
0.247 setgray
gsave
65.585109 380.759375 m
93.585109 380.759375 l
93.585109 390.559375 l
65.585109 390.559375 l
cl
gsave
0.195 0.453 0.633 setrgbcolor
fill
grestore
stroke
grestore
0.000 setgray
/DejaVuSans 14.000 selectfont
gsave

104.785109 380.759375 translate
0.000000 rotate
0.000000 0 m /M glyphshow
12.079102 0 m /o glyphshow
20.644531 0 m /d glyphshow
29.531250 0 m /e glyphshow
38.144531 0 m /l glyphshow
grestore
0.247 setgray
gsave
65.585109 360.2125 m
93.585109 360.2125 l
93.585109 370.0125 l
65.585109 370.0125 l
cl
gsave
0.882 0.505 0.173 setrgbcolor
fill
grestore
stroke
grestore
0.000 setgray
gsave

104.785109 360.212500 translate
0.000000 rotate
0.000000 0 m /B glyphshow
9.604492 0 m /a glyphshow
18.183594 0 m /s glyphshow
25.477539 0 m /e glyphshow
34.090820 0 m /l glyphshow
37.980469 0 m /i glyphshow
41.870117 0 m /n glyphshow
50.743164 0 m /e glyphshow
grestore
gsave
335.585109 242 m
565.2 242 l
565.2 404 l
335.585109 404 l
cl
1.000 setgray
fill
grestore
1.500 setlinewidth
0.247 setgray
gsave
229.615 162 335.585 242 clipbox
347.525084 268.090651 m
392.529602 268.090651 l
392.529602 328.914636 l
347.525084 328.914636 l
347.525084 268.090651 l
cl
gsave
0.195 0.453 0.633 setrgbcolor
fill
grestore
stroke
grestore
gsave
229.615 162 335.585 242 clipbox
393.448062 276.694433 m
438.45258 276.694433 l
438.45258 352.059133 l
393.448062 352.059133 l
393.448062 276.694433 l
cl
gsave
0.882 0.505 0.173 setrgbcolor
fill
grestore
stroke
grestore
gsave
229.615 162 335.585 242 clipbox
462.332529 279.045252 m
507.337048 279.045252 l
507.337048 343.417591 l
462.332529 343.417591 l
462.332529 279.045252 l
cl
gsave
0.195 0.453 0.633 setrgbcolor
fill
grestore
stroke
grestore
gsave
229.615 162 335.585 242 clipbox
508.255507 291.460607 m
553.260026 291.460607 l
553.260026 368.667591 l
508.255507 368.667591 l
508.255507 291.460607 l
cl
gsave
0.882 0.505 0.173 setrgbcolor
fill
grestore
stroke
grestore
0.750 setlinewidth
gsave
229.615 162 335.585 242 clipbox
392.988832 -61960.431674 m
392.988832 -61960.431674 l
392.988832 -61960.431674 l
392.988832 -61960.431674 l
cl
gsave
0.195 0.453 0.633 setrgbcolor
fill
grestore
stroke
grestore
gsave
229.615 162 335.585 242 clipbox
392.988832 -61960.431674 m
392.988832 -61960.431674 l
392.988832 -61960.431674 l
392.988832 -61960.431674 l
cl
gsave
0.882 0.505 0.173 setrgbcolor
fill
grestore
stroke
grestore
0.800 setlinewidth
1 setlinejoin
0.000 setgray
gsave
/o {
gsave
newpath
translate
0.8 setlinewidth
1 setlinejoin

0 setlinecap

0 0 m
0 -3.5 l

gsave
0.000 setgray
fill
grestore
stroke
grestore
} bind def
392.989 242 o
grestore
gsave

363.590395 224.359375 translate
0.000000 rotate
0.000000 0 m /one glyphshow
8.907227 0 m /space glyphshow
13.357422 0 m /m glyphshow
26.995117 0 m /o glyphshow
35.560547 0 m /n glyphshow
44.433594 0 m /t glyphshow
49.922852 0 m /h glyphshow
grestore
gsave
/o {
gsave
newpath
translate
0.8 setlinewidth
1 setlinejoin

0 setlinecap

0 0 m
0 -3.5 l

gsave
0.000 setgray
fill
grestore
stroke
grestore
} bind def
507.796 242 o
grestore
gsave

474.749402 224.359375 translate
0.000000 rotate
0.000000 0 m /three glyphshow
8.907227 0 m /space glyphshow
13.357422 0 m /m glyphshow
26.995117 0 m /o glyphshow
35.560547 0 m /n glyphshow
44.433594 0 m /t glyphshow
49.922852 0 m /h glyphshow
58.795898 0 m /s glyphshow
grestore
gsave
/o {
gsave
newpath
translate
0.8 setlinewidth
1 setlinejoin

0 setlinecap

-0 0 m
-3.5 0 l

gsave
0.000 setgray
fill
grestore
stroke
grestore
} bind def
335.585 249.364 o
grestore
gsave
310.585109 244.902699 translate
0.000000 rotate
/DejaVuSans 10.0 selectfont
0.000000 0.976562 moveto
/one glyphshow
6.362305 0.976562 moveto
/zero glyphshow
/DejaVuSans 7.0 selectfont
12.820312 4.804688 moveto
/zero glyphshow
grestore
gsave
/o {
gsave
newpath
translate
0.8 setlinewidth
1 setlinejoin

0 setlinecap

-0 0 m
-3.5 0 l

gsave
0.000 setgray
fill
grestore
stroke
grestore
} bind def
335.585 311.573 o
grestore
gsave
310.585109 307.612494 translate
0.000000 rotate
/DejaVuSans 10.0 selectfont
0.000000 0.064063 moveto
/one glyphshow
6.362305 0.064063 moveto
/zero glyphshow
/DejaVuSans 7.0 selectfont
12.820312 3.892188 moveto
/one glyphshow
grestore
gsave
/o {
gsave
newpath
translate
0.8 setlinewidth
1 setlinejoin

0 setlinecap

-0 0 m
-3.5 0 l

gsave
0.000 setgray
fill
grestore
stroke
grestore
} bind def
335.585 373.783 o
grestore
gsave
310.585109 369.322289 translate
0.000000 rotate
/DejaVuSans 10.0 selectfont
0.000000 0.976562 moveto
/one glyphshow
6.362305 0.976562 moveto
/zero glyphshow
/DejaVuSans 7.0 selectfont
12.820312 4.804688 moveto
/two glyphshow
grestore
0.600 setlinewidth
gsave
/o {
gsave
newpath
translate
0.6 setlinewidth
1 setlinejoin

0 setlinecap

-0 0 m
-2 0 l

gsave
0.000 setgray
fill
grestore
stroke
grestore
} bind def
335.585 243.335 o
grestore
gsave
/o {
gsave
newpath
translate
0.6 setlinewidth
1 setlinejoin

0 setlinecap

-0 0 m
-2 0 l

gsave
0.000 setgray
fill
grestore
stroke
grestore
} bind def
335.585 246.517 o
grestore
gsave
/o {
gsave
newpath
translate
0.6 setlinewidth
1 setlinejoin

0 setlinecap

-0 0 m
-2 0 l

gsave
0.000 setgray
fill
grestore
stroke
grestore
} bind def
335.585 268.091 o
grestore
gsave
/o {
gsave
newpath
translate
0.6 setlinewidth
1 setlinejoin

0 setlinecap

-0 0 m
-2 0 l

gsave
0.000 setgray
fill
grestore
stroke
grestore
} bind def
335.585 279.045 o
grestore
gsave
/o {
gsave
newpath
translate
0.6 setlinewidth
1 setlinejoin

0 setlinecap

-0 0 m
-2 0 l

gsave
0.000 setgray
fill
grestore
stroke
grestore
} bind def
335.585 286.818 o
grestore
gsave
/o {
gsave
newpath
translate
0.6 setlinewidth
1 setlinejoin

0 setlinecap

-0 0 m
-2 0 l

gsave
0.000 setgray
fill
grestore
stroke
grestore
} bind def
335.585 292.846 o
grestore
gsave
/o {
gsave
newpath
translate
0.6 setlinewidth
1 setlinejoin

0 setlinecap

-0 0 m
-2 0 l

gsave
0.000 setgray
fill
grestore
stroke
grestore
} bind def
335.585 297.772 o
grestore
gsave
/o {
gsave
newpath
translate
0.6 setlinewidth
1 setlinejoin

0 setlinecap

-0 0 m
-2 0 l

gsave
0.000 setgray
fill
grestore
stroke
grestore
} bind def
335.585 301.937 o
grestore
gsave
/o {
gsave
newpath
translate
0.6 setlinewidth
1 setlinejoin

0 setlinecap

-0 0 m
-2 0 l

gsave
0.000 setgray
fill
grestore
stroke
grestore
} bind def
335.585 305.545 o
grestore
gsave
/o {
gsave
newpath
translate
0.6 setlinewidth
1 setlinejoin

0 setlinecap

-0 0 m
-2 0 l

gsave
0.000 setgray
fill
grestore
stroke
grestore
} bind def
335.585 308.727 o
grestore
gsave
/o {
gsave
newpath
translate
0.6 setlinewidth
1 setlinejoin

0 setlinecap

-0 0 m
-2 0 l

gsave
0.000 setgray
fill
grestore
stroke
grestore
} bind def
335.585 330.3 o
grestore
gsave
/o {
gsave
newpath
translate
0.6 setlinewidth
1 setlinejoin

0 setlinecap

-0 0 m
-2 0 l

gsave
0.000 setgray
fill
grestore
stroke
grestore
} bind def
335.585 341.255 o
grestore
gsave
/o {
gsave
newpath
translate
0.6 setlinewidth
1 setlinejoin

0 setlinecap

-0 0 m
-2 0 l

gsave
0.000 setgray
fill
grestore
stroke
grestore
} bind def
335.585 349.027 o
grestore
gsave
/o {
gsave
newpath
translate
0.6 setlinewidth
1 setlinejoin

0 setlinecap

-0 0 m
-2 0 l

gsave
0.000 setgray
fill
grestore
stroke
grestore
} bind def
335.585 355.056 o
grestore
gsave
/o {
gsave
newpath
translate
0.6 setlinewidth
1 setlinejoin

0 setlinecap

-0 0 m
-2 0 l

gsave
0.000 setgray
fill
grestore
stroke
grestore
} bind def
335.585 359.982 o
grestore
gsave
/o {
gsave
newpath
translate
0.6 setlinewidth
1 setlinejoin

0 setlinecap

-0 0 m
-2 0 l

gsave
0.000 setgray
fill
grestore
stroke
grestore
} bind def
335.585 364.147 o
grestore
gsave
/o {
gsave
newpath
translate
0.6 setlinewidth
1 setlinejoin

0 setlinecap

-0 0 m
-2 0 l

gsave
0.000 setgray
fill
grestore
stroke
grestore
} bind def
335.585 367.754 o
grestore
gsave
/o {
gsave
newpath
translate
0.6 setlinewidth
1 setlinejoin

0 setlinecap

-0 0 m
-2 0 l

gsave
0.000 setgray
fill
grestore
stroke
grestore
} bind def
335.585 370.937 o
grestore
gsave
/o {
gsave
newpath
translate
0.6 setlinewidth
1 setlinejoin

0 setlinecap

-0 0 m
-2 0 l

gsave
0.000 setgray
fill
grestore
stroke
grestore
} bind def
335.585 392.51 o
grestore
gsave
/o {
gsave
newpath
translate
0.6 setlinewidth
1 setlinejoin

0 setlinecap

-0 0 m
-2 0 l

gsave
0.000 setgray
fill
grestore
stroke
grestore
} bind def
335.585 403.465 o
grestore
gsave

303.678859 303.226562 translate
90.000000 rotate
0.000000 0 m /R glyphshow
9.727539 0 m /M glyphshow
21.806641 0 m /S glyphshow
30.693359 0 m /E glyphshow
grestore
1.500 setlinewidth
2 setlinecap
0.247 setgray
gsave
229.615 162 335.585 242 clipbox
370.027343 268.090651 m
370.027343 249.363636 l
stroke
grestore
gsave
229.615 162 335.585 242 clipbox
370.027343 328.914636 m
370.027343 350.981375 l
stroke
grestore
gsave
229.615 162 335.585 242 clipbox
358.776213 249.363636 m
381.278473 249.363636 l
stroke
grestore
gsave
229.615 162 335.585 242 clipbox
358.776213 350.981375 m
381.278473 350.981375 l
stroke
grestore
gsave
229.615 162 335.585 242 clipbox
415.950321 276.694433 m
415.950321 268.090651 l
stroke
grestore
gsave
229.615 162 335.585 242 clipbox
415.950321 352.059133 m
415.950321 361.300244 l
stroke
grestore
gsave
229.615 162 335.585 242 clipbox
404.699191 268.090651 m
427.201451 268.090651 l
stroke
grestore
gsave
229.615 162 335.585 242 clipbox
404.699191 361.300244 m
427.201451 361.300244 l
stroke
grestore
gsave
229.615 162 335.585 242 clipbox
484.834788 279.045252 m
484.834788 268.090651 l
stroke
grestore
gsave
229.615 162 335.585 242 clipbox
484.834788 343.417591 m
484.834788 359.982062 l
stroke
grestore
gsave
229.615 162 335.585 242 clipbox
473.583659 268.090651 m
496.085918 268.090651 l
stroke
grestore
gsave
229.615 162 335.585 242 clipbox
473.583659 359.982062 m
496.085918 359.982062 l
stroke
grestore
gsave
229.615 162 335.585 242 clipbox
530.757766 291.460607 m
530.757766 279.045252 l
stroke
grestore
gsave
229.615 162 335.585 242 clipbox
530.757766 368.667591 m
530.757766 390.110256 l
stroke
grestore
gsave
229.615 162 335.585 242 clipbox
519.506637 279.045252 m
542.008896 279.045252 l
stroke
grestore
gsave
229.615 162 335.585 242 clipbox
519.506637 390.110256 m
542.008896 390.110256 l
stroke
grestore
1.000 setlinewidth
0 setlinejoin
0 setlinecap
gsave
229.615 162 335.585 242 clipbox
/o {
gsave
newpath
translate
1.0 setlinewidth
0 setlinejoin

0 setlinecap

0 -3.535534 m
2.12132 0 l
0 3.535534 l
-2.12132 0 l
cl

gsave
0.247 setgray
fill
grestore
stroke
grestore
} bind def
530.758 396.636 o
grestore
1.500 setlinewidth
1 setlinejoin
2 setlinecap
gsave
229.615 162 335.585 242 clipbox
347.525084 297.772266 m
392.529602 297.772266 l
stroke
grestore
gsave
229.615 162 335.585 242 clipbox
393.448062 305.54468 m
438.45258 305.54468 l
stroke
grestore
gsave
229.615 162 335.585 242 clipbox
462.332529 320.664027 m
507.337048 320.664027 l
stroke
grestore
gsave
229.615 162 335.585 242 clipbox
508.255507 326.692779 m
553.260026 326.692779 l
stroke
grestore
0.800 setlinewidth
0 setlinejoin
0.000 setgray
gsave
335.585109 242 m
335.585109 404 l
stroke
grestore
gsave
565.2 242 m
565.2 404 l
stroke
grestore
gsave
335.585109 242 m
565.2 242 l
stroke
grestore
gsave
335.585109 404 m
565.2 404 l
stroke
grestore
/DejaVuSans 15.000 selectfont
gsave

429.212867 410.000000 translate
0.000000 rotate
0.000000 0 m /R glyphshow
10.422363 0 m /M glyphshow
23.364258 0 m /S glyphshow
32.885742 0 m /E glyphshow
grestore
1.000 setlinewidth
0 setlinecap
0.800 setgray
gsave
345.385109 351.70625 m
449.544484 351.70625 l
451.411151 351.70625 452.344484 352.639583 452.344484 354.50625 c
452.344484 394.2 l
452.344484 396.066667 451.411151 397 449.544484 397 c
345.385109 397 l
343.518443 397 342.585109 396.066667 342.585109 394.2 c
342.585109 354.50625 l
342.585109 352.639583 343.518443 351.70625 345.385109 351.70625 c
cl
gsave
1.000 setgray
fill
grestore
stroke
grestore
0.750 setlinewidth
0.247 setgray
gsave
348.185109 380.759375 m
376.185109 380.759375 l
376.185109 390.559375 l
348.185109 390.559375 l
cl
gsave
0.195 0.453 0.633 setrgbcolor
fill
grestore
stroke
grestore
0.000 setgray
/DejaVuSans 14.000 selectfont
gsave

387.385109 380.759375 translate
0.000000 rotate
0.000000 0 m /M glyphshow
12.079102 0 m /o glyphshow
20.644531 0 m /d glyphshow
29.531250 0 m /e glyphshow
38.144531 0 m /l glyphshow
grestore
0.247 setgray
gsave
348.185109 360.2125 m
376.185109 360.2125 l
376.185109 370.0125 l
348.185109 370.0125 l
cl
gsave
0.882 0.505 0.173 setrgbcolor
fill
grestore
stroke
grestore
0.000 setgray
gsave

387.385109 360.212500 translate
0.000000 rotate
0.000000 0 m /B glyphshow
9.604492 0 m /a glyphshow
18.183594 0 m /s glyphshow
25.477539 0 m /e glyphshow
34.090820 0 m /l glyphshow
37.980469 0 m /i glyphshow
41.870117 0 m /n glyphshow
50.743164 0 m /e glyphshow
grestore
gsave
52.985109 31.4 m
282.6 31.4 l
282.6 193.4 l
52.985109 193.4 l
cl
1.000 setgray
fill
grestore
1.500 setlinewidth
0.247 setgray
gsave
229.615 162 52.985 31.4 clipbox
64.925084 57.349417 m
109.929602 57.349417 l
109.929602 85.54067 l
64.925084 85.54067 l
64.925084 57.349417 l
cl
gsave
0.195 0.453 0.633 setrgbcolor
fill
grestore
stroke
grestore
gsave
229.615 162 52.985 31.4 clipbox
110.848062 48.158156 m
155.85258 48.158156 l
155.85258 93.655749 l
110.848062 93.655749 l
110.848062 48.158156 l
cl
gsave
0.882 0.505 0.173 setrgbcolor
fill
grestore
stroke
grestore
gsave
229.615 162 52.985 31.4 clipbox
179.732529 55.911257 m
224.737048 55.911257 l
224.737048 137.924017 l
179.732529 137.924017 l
179.732529 55.911257 l
cl
gsave
0.195 0.453 0.633 setrgbcolor
fill
grestore
stroke
grestore
gsave
229.615 162 52.985 31.4 clipbox
225.655507 50.215751 m
270.660026 50.215751 l
270.660026 147.018141 l
225.655507 147.018141 l
225.655507 50.215751 l
cl
gsave
0.882 0.505 0.173 setrgbcolor
fill
grestore
stroke
grestore
0.750 setlinewidth
gsave
229.615 162 52.985 31.4 clipbox
110.388832 -114159.088815 m
110.388832 -114159.088815 l
110.388832 -114159.088815 l
110.388832 -114159.088815 l
cl
gsave
0.195 0.453 0.633 setrgbcolor
fill
grestore
stroke
grestore
gsave
229.615 162 52.985 31.4 clipbox
110.388832 -114159.088815 m
110.388832 -114159.088815 l
110.388832 -114159.088815 l
110.388832 -114159.088815 l
cl
gsave
0.882 0.505 0.173 setrgbcolor
fill
grestore
stroke
grestore
0.800 setlinewidth
1 setlinejoin
0.000 setgray
gsave
/o {
gsave
newpath
translate
0.8 setlinewidth
1 setlinejoin

0 setlinecap

0 0 m
0 -3.5 l

gsave
0.000 setgray
fill
grestore
stroke
grestore
} bind def
110.389 31.4 o
grestore
gsave

80.990395 13.759375 translate
0.000000 rotate
0.000000 0 m /one glyphshow
8.907227 0 m /space glyphshow
13.357422 0 m /m glyphshow
26.995117 0 m /o glyphshow
35.560547 0 m /n glyphshow
44.433594 0 m /t glyphshow
49.922852 0 m /h glyphshow
grestore
gsave
/o {
gsave
newpath
translate
0.8 setlinewidth
1 setlinejoin

0 setlinecap

0 0 m
0 -3.5 l

gsave
0.000 setgray
fill
grestore
stroke
grestore
} bind def
225.196 31.4 o
grestore
gsave

192.149402 13.759375 translate
0.000000 rotate
0.000000 0 m /three glyphshow
8.907227 0 m /space glyphshow
13.357422 0 m /m glyphshow
26.995117 0 m /o glyphshow
35.560547 0 m /n glyphshow
44.433594 0 m /t glyphshow
49.922852 0 m /h glyphshow
58.795898 0 m /s glyphshow
grestore
gsave
/o {
gsave
newpath
translate
0.8 setlinewidth
1 setlinejoin

0 setlinecap

-0 0 m
-3.5 0 l

gsave
0.000 setgray
fill
grestore
stroke
grestore
} bind def
52.9851 79.2359 o
grestore
gsave
27.985109 74.774941 translate
0.000000 rotate
/DejaVuSans 10.0 selectfont
0.000000 0.976562 moveto
/one glyphshow
6.362305 0.976562 moveto
/zero glyphshow
/DejaVuSans 7.0 selectfont
12.820312 4.804688 moveto
/zero glyphshow
grestore
0.600 setlinewidth
gsave
/o {
gsave
newpath
translate
0.6 setlinewidth
1 setlinejoin

0 setlinecap

-0 0 m
-2 0 l

gsave
0.000 setgray
fill
grestore
stroke
grestore
} bind def
52.9851 33.7759 o
grestore
gsave
/o {
gsave
newpath
translate
0.6 setlinewidth
1 setlinejoin

0 setlinecap

-0 0 m
-2 0 l

gsave
0.000 setgray
fill
grestore
stroke
grestore
} bind def
52.9851 44.8467 o
grestore
gsave
/o {
gsave
newpath
translate
0.6 setlinewidth
1 setlinejoin

0 setlinecap

-0 0 m
-2 0 l

gsave
0.000 setgray
fill
grestore
stroke
grestore
} bind def
52.9851 53.8922 o
grestore
gsave
/o {
gsave
newpath
translate
0.6 setlinewidth
1 setlinejoin

0 setlinecap

-0 0 m
-2 0 l

gsave
0.000 setgray
fill
grestore
stroke
grestore
} bind def
52.9851 61.5401 o
grestore
gsave
/o {
gsave
newpath
translate
0.6 setlinewidth
1 setlinejoin

0 setlinecap

-0 0 m
-2 0 l

gsave
0.000 setgray
fill
grestore
stroke
grestore
} bind def
52.9851 68.165 o
grestore
gsave
/o {
gsave
newpath
translate
0.6 setlinewidth
1 setlinejoin

0 setlinecap

-0 0 m
-2 0 l

gsave
0.000 setgray
fill
grestore
stroke
grestore
} bind def
52.9851 74.0086 o
grestore
gsave
/o {
gsave
newpath
translate
0.6 setlinewidth
1 setlinejoin

0 setlinecap

-0 0 m
-2 0 l

gsave
0.000 setgray
fill
grestore
stroke
grestore
} bind def
52.9851 113.625 o
grestore
gsave
/o {
gsave
newpath
translate
0.6 setlinewidth
1 setlinejoin

0 setlinecap

-0 0 m
-2 0 l

gsave
0.000 setgray
fill
grestore
stroke
grestore
} bind def
52.9851 133.741 o
grestore
gsave
/o {
gsave
newpath
translate
0.6 setlinewidth
1 setlinejoin

0 setlinecap

-0 0 m
-2 0 l

gsave
0.000 setgray
fill
grestore
stroke
grestore
} bind def
52.9851 148.014 o
grestore
gsave
/o {
gsave
newpath
translate
0.6 setlinewidth
1 setlinejoin

0 setlinecap

-0 0 m
-2 0 l

gsave
0.000 setgray
fill
grestore
stroke
grestore
} bind def
52.9851 159.085 o
grestore
gsave
/o {
gsave
newpath
translate
0.6 setlinewidth
1 setlinejoin

0 setlinecap

-0 0 m
-2 0 l

gsave
0.000 setgray
fill
grestore
stroke
grestore
} bind def
52.9851 168.131 o
grestore
gsave
/o {
gsave
newpath
translate
0.6 setlinewidth
1 setlinejoin

0 setlinecap

-0 0 m
-2 0 l

gsave
0.000 setgray
fill
grestore
stroke
grestore
} bind def
52.9851 175.778 o
grestore
gsave
/o {
gsave
newpath
translate
0.6 setlinewidth
1 setlinejoin

0 setlinecap

-0 0 m
-2 0 l

gsave
0.000 setgray
fill
grestore
stroke
grestore
} bind def
52.9851 182.403 o
grestore
gsave
/o {
gsave
newpath
translate
0.6 setlinewidth
1 setlinejoin

0 setlinecap

-0 0 m
-2 0 l

gsave
0.000 setgray
fill
grestore
stroke
grestore
} bind def
52.9851 188.247 o
grestore
gsave

21.078859 92.931250 translate
90.000000 rotate
0.000000 0 m /M glyphshow
12.079102 0 m /A glyphshow
21.656250 0 m /P glyphshow
30.098633 0 m /E glyphshow
grestore
1.500 setlinewidth
2 setlinecap
0.247 setgray
gsave
229.615 162 52.985 31.4 clipbox
87.427343 57.349417 m
87.427343 41.379848 l
stroke
grestore
gsave
229.615 162 52.985 31.4 clipbox
87.427343 85.54067 m
87.427343 101.172289 l
stroke
grestore
gsave
229.615 162 52.985 31.4 clipbox
76.176213 41.379848 m
98.678473 41.379848 l
stroke
grestore
gsave
229.615 162 52.985 31.4 clipbox
76.176213 101.172289 m
98.678473 101.172289 l
stroke
grestore
gsave
229.615 162 52.985 31.4 clipbox
133.350321 48.158156 m
133.350321 42.225836 l
stroke
grestore
gsave
229.615 162 52.985 31.4 clipbox
133.350321 93.655749 m
133.350321 120.617014 l
stroke
grestore
gsave
229.615 162 52.985 31.4 clipbox
122.099191 42.225836 m
144.601451 42.225836 l
stroke
grestore
gsave
229.615 162 52.985 31.4 clipbox
122.099191 120.617014 m
144.601451 120.617014 l
stroke
grestore
gsave
229.615 162 52.985 31.4 clipbox
202.234788 55.911257 m
202.234788 38.763636 l
stroke
grestore
gsave
229.615 162 52.985 31.4 clipbox
202.234788 137.924017 m
202.234788 143.244447 l
stroke
grestore
gsave
229.615 162 52.985 31.4 clipbox
190.983659 38.763636 m
213.485918 38.763636 l
stroke
grestore
gsave
229.615 162 52.985 31.4 clipbox
190.983659 143.244447 m
213.485918 143.244447 l
stroke
grestore
gsave
229.615 162 52.985 31.4 clipbox
248.157766 50.215751 m
248.157766 41.866636 l
stroke
grestore
gsave
229.615 162 52.985 31.4 clipbox
248.157766 147.018141 m
248.157766 186.036364 l
stroke
grestore
gsave
229.615 162 52.985 31.4 clipbox
236.906637 41.866636 m
259.408896 41.866636 l
stroke
grestore
gsave
229.615 162 52.985 31.4 clipbox
236.906637 186.036364 m
259.408896 186.036364 l
stroke
grestore
gsave
229.615 162 52.985 31.4 clipbox
64.925084 62.905605 m
109.929602 62.905605 l
stroke
grestore
gsave
229.615 162 52.985 31.4 clipbox
110.848062 57.502092 m
155.85258 57.502092 l
stroke
grestore
gsave
229.615 162 52.985 31.4 clipbox
179.732529 90.51212 m
224.737048 90.51212 l
stroke
grestore
gsave
229.615 162 52.985 31.4 clipbox
225.655507 77.217534 m
270.660026 77.217534 l
stroke
grestore
0.800 setlinewidth
0 setlinejoin
0.000 setgray
gsave
52.985109 31.4 m
52.985109 193.4 l
stroke
grestore
gsave
282.6 31.4 m
282.6 193.4 l
stroke
grestore
gsave
52.985109 31.4 m
282.6 31.4 l
stroke
grestore
gsave
52.985109 193.4 m
282.6 193.4 l
stroke
grestore
/DejaVuSans 15.000 selectfont
gsave

146.925367 199.400000 translate
0.000000 rotate
0.000000 0 m /M glyphshow
12.941895 0 m /A glyphshow
23.203125 0 m /P glyphshow
32.248535 0 m /E glyphshow
grestore
1.000 setlinewidth
0 setlinecap
0.800 setgray
gsave
62.785109 141.10625 m
166.944484 141.10625 l
168.811151 141.10625 169.744484 142.039583 169.744484 143.90625 c
169.744484 183.6 l
169.744484 185.466667 168.811151 186.4 166.944484 186.4 c
62.785109 186.4 l
60.918443 186.4 59.985109 185.466667 59.985109 183.6 c
59.985109 143.90625 l
59.985109 142.039583 60.918443 141.10625 62.785109 141.10625 c
cl
gsave
1.000 setgray
fill
grestore
stroke
grestore
0.750 setlinewidth
0.247 setgray
gsave
65.585109 170.159375 m
93.585109 170.159375 l
93.585109 179.959375 l
65.585109 179.959375 l
cl
gsave
0.195 0.453 0.633 setrgbcolor
fill
grestore
stroke
grestore
0.000 setgray
/DejaVuSans 14.000 selectfont
gsave

104.785109 170.159375 translate
0.000000 rotate
0.000000 0 m /M glyphshow
12.079102 0 m /o glyphshow
20.644531 0 m /d glyphshow
29.531250 0 m /e glyphshow
38.144531 0 m /l glyphshow
grestore
0.247 setgray
gsave
65.585109 149.6125 m
93.585109 149.6125 l
93.585109 159.4125 l
65.585109 159.4125 l
cl
gsave
0.882 0.505 0.173 setrgbcolor
fill
grestore
stroke
grestore
0.000 setgray
gsave

104.785109 149.612500 translate
0.000000 rotate
0.000000 0 m /B glyphshow
9.604492 0 m /a glyphshow
18.183594 0 m /s glyphshow
25.477539 0 m /e glyphshow
34.090820 0 m /l glyphshow
37.980469 0 m /i glyphshow
41.870117 0 m /n glyphshow
50.743164 0 m /e glyphshow
grestore
gsave
335.585109 31.4 m
565.2 31.4 l
565.2 193.4 l
335.585109 193.4 l
cl
1.000 setgray
fill
grestore
1.500 setlinewidth
0.247 setgray
gsave
229.615 162 335.585 31.4 clipbox
347.525084 172.986 m
392.529602 172.986 l
392.529602 183.049732 l
347.525084 183.049732 l
347.525084 172.986 l
cl
gsave
0.195 0.453 0.633 setrgbcolor
fill
grestore
stroke
grestore
gsave
229.615 162 335.585 31.4 clipbox
393.448062 135.461617 m
438.45258 135.461617 l
438.45258 174.558128 l
393.448062 174.558128 l
393.448062 135.461617 l
cl
gsave
0.882 0.505 0.173 setrgbcolor
fill
grestore
stroke
grestore
gsave
229.615 162 335.585 31.4 clipbox
462.332529 164.500958 m
507.337048 164.500958 l
507.337048 178.146563 l
462.332529 178.146563 l
462.332529 164.500958 l
cl
gsave
0.195 0.453 0.633 setrgbcolor
fill
grestore
stroke
grestore
gsave
229.615 162 335.585 31.4 clipbox
508.255507 -75.720691 m
553.260026 -75.720691 l
553.260026 166.190051 l
508.255507 166.190051 l
508.255507 -75.720691 l
cl
gsave
0.882 0.505 0.173 setrgbcolor
fill
grestore
stroke
grestore
0.750 setlinewidth
gsave
229.615 162 335.585 31.4 clipbox
392.988832 166.4 m
392.988832 166.4 l
392.988832 166.4 l
392.988832 166.4 l
cl
gsave
0.195 0.453 0.633 setrgbcolor
fill
grestore
stroke
grestore
gsave
229.615 162 335.585 31.4 clipbox
392.988832 166.4 m
392.988832 166.4 l
392.988832 166.4 l
392.988832 166.4 l
cl
gsave
0.882 0.505 0.173 setrgbcolor
fill
grestore
stroke
grestore
0.800 setlinewidth
1 setlinejoin
0.000 setgray
gsave
/o {
gsave
newpath
translate
0.8 setlinewidth
1 setlinejoin

0 setlinecap

0 0 m
0 -3.5 l

gsave
0.000 setgray
fill
grestore
stroke
grestore
} bind def
392.989 31.4 o
grestore
gsave

363.590395 13.759375 translate
0.000000 rotate
0.000000 0 m /one glyphshow
8.907227 0 m /space glyphshow
13.357422 0 m /m glyphshow
26.995117 0 m /o glyphshow
35.560547 0 m /n glyphshow
44.433594 0 m /t glyphshow
49.922852 0 m /h glyphshow
grestore
gsave
/o {
gsave
newpath
translate
0.8 setlinewidth
1 setlinejoin

0 setlinecap

0 0 m
0 -3.5 l

gsave
0.000 setgray
fill
grestore
stroke
grestore
} bind def
507.796 31.4 o
grestore
gsave

474.749402 13.759375 translate
0.000000 rotate
0.000000 0 m /three glyphshow
8.907227 0 m /space glyphshow
13.357422 0 m /m glyphshow
26.995117 0 m /o glyphshow
35.560547 0 m /n glyphshow
44.433594 0 m /t glyphshow
49.922852 0 m /h glyphshow
58.795898 0 m /s glyphshow
grestore
gsave
/o {
gsave
newpath
translate
0.8 setlinewidth
1 setlinejoin

0 setlinecap

-0 0 m
-3.5 0 l

gsave
0.000 setgray
fill
grestore
stroke
grestore
} bind def
335.585 31.4 o
grestore
/DejaVuSans 10.000 selectfont
gsave

313.850734 27.603125 translate
0.000000 rotate
0.000000 0 m /minus glyphshow
8.378906 0 m /five glyphshow
grestore
gsave
/o {
gsave
newpath
translate
0.8 setlinewidth
1 setlinejoin

0 setlinecap

-0 0 m
-3.5 0 l

gsave
0.000 setgray
fill
grestore
stroke
grestore
} bind def
335.585 58.4 o
grestore
gsave

313.850734 54.603125 translate
0.000000 rotate
0.000000 0 m /minus glyphshow
8.378906 0 m /four glyphshow
grestore
gsave
/o {
gsave
newpath
translate
0.8 setlinewidth
1 setlinejoin

0 setlinecap

-0 0 m
-3.5 0 l

gsave
0.000 setgray
fill
grestore
stroke
grestore
} bind def
335.585 85.4 o
grestore
gsave

313.850734 81.603125 translate
0.000000 rotate
0.000000 0 m /minus glyphshow
8.378906 0 m /three glyphshow
grestore
gsave
/o {
gsave
newpath
translate
0.8 setlinewidth
1 setlinejoin

0 setlinecap

-0 0 m
-3.5 0 l

gsave
0.000 setgray
fill
grestore
stroke
grestore
} bind def
335.585 112.4 o
grestore
gsave

313.850734 108.603125 translate
0.000000 rotate
0.000000 0 m /minus glyphshow
8.378906 0 m /two glyphshow
grestore
gsave
/o {
gsave
newpath
translate
0.8 setlinewidth
1 setlinejoin

0 setlinecap

-0 0 m
-3.5 0 l

gsave
0.000 setgray
fill
grestore
stroke
grestore
} bind def
335.585 139.4 o
grestore
gsave

313.850734 135.603125 translate
0.000000 rotate
0.000000 0 m /minus glyphshow
8.378906 0 m /one glyphshow
grestore
gsave
/o {
gsave
newpath
translate
0.8 setlinewidth
1 setlinejoin

0 setlinecap

-0 0 m
-3.5 0 l

gsave
0.000 setgray
fill
grestore
stroke
grestore
} bind def
335.585 166.4 o
grestore
gsave

322.225734 162.603125 translate
0.000000 rotate
0.000000 0 m /zero glyphshow
grestore
gsave
/o {
gsave
newpath
translate
0.8 setlinewidth
1 setlinejoin

0 setlinecap

-0 0 m
-3.5 0 l

gsave
0.000 setgray
fill
grestore
stroke
grestore
} bind def
335.585 193.4 o
grestore
gsave

322.225734 189.603125 translate
0.000000 rotate
0.000000 0 m /one glyphshow
grestore
/DejaVuSans 14.000 selectfont
gsave

306.944484 103.079687 translate
90.000000 rotate
0.000000 0 m /R glyphshow
9.727539 0 m /two glyphshow
grestore
1.500 setlinewidth
2 setlinecap
0.247 setgray
gsave
229.615 162 335.585 31.4 clipbox
370.027343 172.986 m
370.027343 164.683761 l
stroke
grestore
gsave
229.615 162 335.585 31.4 clipbox
370.027343 183.049732 m
370.027343 184.555414 l
stroke
grestore
gsave
229.615 162 335.585 31.4 clipbox
358.776213 164.683761 m
381.278473 164.683761 l
stroke
grestore
gsave
229.615 162 335.585 31.4 clipbox
358.776213 184.555414 m
381.278473 184.555414 l
stroke
grestore
gsave
229.615 162 335.585 31.4 clipbox
415.950321 135.461617 m
415.950321 105.482989 l
stroke
grestore
gsave
229.615 162 335.585 31.4 clipbox
415.950321 174.558128 m
415.950321 180.301407 l
stroke
grestore
gsave
229.615 162 335.585 31.4 clipbox
404.699191 105.482989 m
427.201451 105.482989 l
stroke
grestore
gsave
229.615 162 335.585 31.4 clipbox
404.699191 180.301407 m
427.201451 180.301407 l
stroke
grestore
1.000 setlinewidth
0 setlinejoin
0 setlinecap
gsave
229.615 162 335.585 31.4 clipbox
/o {
gsave
newpath
translate
1.0 setlinewidth
0 setlinejoin

0 setlinecap

0 -3.535534 m
2.12132 0 l
0 3.535534 l
-2.12132 0 l
cl

gsave
0.247 setgray
fill
grestore
stroke
grestore
} bind def
415.95 27.9053 o
grestore
1.500 setlinewidth
1 setlinejoin
2 setlinecap
gsave
229.615 162 335.585 31.4 clipbox
484.834788 164.500958 m
484.834788 149.968895 l
stroke
grestore
gsave
229.615 162 335.585 31.4 clipbox
484.834788 178.146563 m
484.834788 181.618252 l
stroke
grestore
gsave
229.615 162 335.585 31.4 clipbox
473.583659 149.968895 m
496.085918 149.968895 l
stroke
grestore
gsave
229.615 162 335.585 31.4 clipbox
473.583659 181.618252 m
496.085918 181.618252 l
stroke
grestore
1.000 setlinewidth
0 setlinejoin
0 setlinecap
gsave
229.615 162 335.585 31.4 clipbox
/o {
gsave
newpath
translate
1.0 setlinewidth
0 setlinejoin

0 setlinecap

0 -3.535534 m
2.12132 0 l
0 3.535534 l
-2.12132 0 l
cl

gsave
0.247 setgray
fill
grestore
stroke
grestore
} bind def
484.835 58.8421 o
484.835 69.1071 o
grestore
1.500 setlinewidth
1 setlinejoin
2 setlinecap
gsave
229.615 162 335.585 31.4 clipbox

stroke
grestore
gsave
229.615 162 335.585 31.4 clipbox
530.757766 166.190051 m
530.757766 170.868912 l
stroke
grestore
gsave
229.615 162 335.585 31.4 clipbox

stroke
grestore
gsave
229.615 162 335.585 31.4 clipbox
519.506637 170.868912 m
542.008896 170.868912 l
stroke
grestore
1.000 setlinewidth
0 setlinejoin
0 setlinecap
gsave
229.615 162 335.585 31.4 clipbox
/o {
gsave
newpath
translate
1.0 setlinewidth
0 setlinejoin

0 setlinecap

0 -3.535534 m
2.12132 0 l
0 3.535534 l
-2.12132 0 l
cl

gsave
0.247 setgray
fill
grestore
stroke
grestore
} bind def
grestore
1.500 setlinewidth
1 setlinejoin
2 setlinecap
gsave
229.615 162 335.585 31.4 clipbox
347.525084 179.613171 m
392.529602 179.613171 l
stroke
grestore
gsave
229.615 162 335.585 31.4 clipbox
393.448062 169.365919 m
438.45258 169.365919 l
stroke
grestore
gsave
229.615 162 335.585 31.4 clipbox
462.332529 172.929062 m
507.337048 172.929062 l
stroke
grestore
gsave
229.615 162 335.585 31.4 clipbox
508.255507 162.125765 m
553.260026 162.125765 l
stroke
grestore
0.800 setlinewidth
0 setlinejoin
0.000 setgray
gsave
335.585109 31.4 m
335.585109 193.4 l
stroke
grestore
gsave
565.2 31.4 m
565.2 193.4 l
stroke
grestore
gsave
335.585109 31.4 m
565.2 31.4 l
stroke
grestore
gsave
335.585109 193.4 m
565.2 193.4 l
stroke
grestore
/DejaVuSans 15.000 selectfont
gsave

440.408180 199.400000 translate
0.000000 rotate
0.000000 0 m /R glyphshow
10.422363 0 m /two glyphshow
grestore
1.000 setlinewidth
0 setlinecap
0.800 setgray
gsave
345.385109 38.4 m
449.544484 38.4 l
451.411151 38.4 452.344484 39.333333 452.344484 41.2 c
452.344484 80.89375 l
452.344484 82.760417 451.411151 83.69375 449.544484 83.69375 c
345.385109 83.69375 l
343.518443 83.69375 342.585109 82.760417 342.585109 80.89375 c
342.585109 41.2 l
342.585109 39.333333 343.518443 38.4 345.385109 38.4 c
cl
gsave
1.000 setgray
fill
grestore
stroke
grestore
0.750 setlinewidth
0.247 setgray
gsave
348.185109 67.453125 m
376.185109 67.453125 l
376.185109 77.253125 l
348.185109 77.253125 l
cl
gsave
0.195 0.453 0.633 setrgbcolor
fill
grestore
stroke
grestore
0.000 setgray
/DejaVuSans 14.000 selectfont
gsave

387.385109 67.453125 translate
0.000000 rotate
0.000000 0 m /M glyphshow
12.079102 0 m /o glyphshow
20.644531 0 m /d glyphshow
29.531250 0 m /e glyphshow
38.144531 0 m /l glyphshow
grestore
0.247 setgray
gsave
348.185109 46.90625 m
376.185109 46.90625 l
376.185109 56.70625 l
348.185109 56.70625 l
cl
gsave
0.882 0.505 0.173 setrgbcolor
fill
grestore
stroke
grestore
0.000 setgray
gsave

387.385109 46.906250 translate
0.000000 rotate
0.000000 0 m /B glyphshow
9.604492 0 m /a glyphshow
18.183594 0 m /s glyphshow
25.477539 0 m /e glyphshow
34.090820 0 m /l glyphshow
37.980469 0 m /i glyphshow
41.870117 0 m /n glyphshow
50.743164 0 m /e glyphshow
grestore

end
showpage
