%!PS-Adobe-3.0 EPSF-3.0
%%Title: /home/robson/Documents/Mestrado/Pesquisa/mestrado_num_casos_doenca/data_sus/finais/article_data/figure_2_table.eps
%%Creator: matplotlib version 3.2.2, http://matplotlib.org/
%%CreationDate: Sat Feb 19 12:12:24 2022
%%Orientation: portrait
%%BoundingBox: 18.0 180.0 594.0 612.0
%%EndComments
%%BeginProlog
/mpldict 8 dict def
mpldict begin
/m { moveto } bind def
/l { lineto } bind def
/r { rlineto } bind def
/c { curveto } bind def
/cl { closepath } bind def
/box {
m
1 index 0 r
0 exch r
neg 0 r
cl
} bind def
/clipbox {
box
clip
newpath
} bind def
%!PS-Adobe-3.0 Resource-Font
%%Title: DejaVu Sans
%%Copyright: Copyright (c) 2003 by Bitstream, Inc. All Rights Reserved. Copyright (c) 2006 by Tavmjong Bah. All Rights Reserved. DejaVu changes are in public domain 
%%Creator: Converted from TrueType to type 3 by PPR
25 dict begin
/_d{bind def}bind def
/_m{moveto}_d
/_l{lineto}_d
/_cl{closepath eofill}_d
/_c{curveto}_d
/_sc{7 -1 roll{setcachedevice}{pop pop pop pop pop pop}ifelse}_d
/_e{exec}_d
/FontName /DejaVuSans def
/PaintType 0 def
/FontMatrix[.001 0 0 .001 0 0]def
/FontBBox[-1021 -463 1793 1232]def
/FontType 3 def
/Encoding [ /hyphen /period /zero /one /two /three /four /five /six /seven /eight /nine /A /E /M /P /R /S /c /e /i /l /n /r /t ] def
/FontInfo 10 dict dup begin
/FamilyName (DejaVu Sans) def
/FullName (DejaVu Sans) def
/Notice (Copyright (c) 2003 by Bitstream, Inc. All Rights Reserved. Copyright (c) 2006 by Tavmjong Bah. All Rights Reserved. DejaVu changes are in public domain ) def
/Weight (Book) def
/Version (Version 2.35) def
/ItalicAngle 0.0 def
/isFixedPitch false def
/UnderlinePosition -130 def
/UnderlineThickness 90 def
end readonly def
/CharStrings 26 dict dup begin
/.notdef 0 def
/hyphen{361 0 49 234 312 314 _sc
49 314 _m
312 314 _l
312 234 _l
49 234 _l
49 314 _l
_cl}_d
/period{318 0 107 0 210 124 _sc
107 124 _m
210 124 _l
210 0 _l
107 0 _l
107 124 _l
_cl}_d
/zero{636 0 66 -13 570 742 _sc
318 664 _m
267 664 229 639 203 589 _c
177 539 165 464 165 364 _c
165 264 177 189 203 139 _c
229 89 267 64 318 64 _c
369 64 407 89 433 139 _c
458 189 471 264 471 364 _c
471 464 458 539 433 589 _c
407 639 369 664 318 664 _c
318 742 _m
399 742 461 709 505 645 _c
548 580 570 486 570 364 _c
570 241 548 147 505 83 _c
461 19 399 -13 318 -13 _c
236 -13 173 19 130 83 _c
87 147 66 241 66 364 _c
66 486 87 580 130 645 _c
173 709 236 742 318 742 _c
_cl}_d
/one{636 0 110 0 544 729 _sc
124 83 _m
285 83 _l
285 639 _l
110 604 _l
110 694 _l
284 729 _l
383 729 _l
383 83 _l
544 83 _l
544 0 _l
124 0 _l
124 83 _l
_cl}_d
/two{{636 0 73 0 536 742 _sc
192 83 _m
536 83 _l
536 0 _l
73 0 _l
73 83 _l
110 121 161 173 226 239 _c
290 304 331 346 348 365 _c
380 400 402 430 414 455 _c
426 479 433 504 433 528 _c
433 566 419 598 392 622 _c
365 646 330 659 286 659 _c
255 659 222 653 188 643 _c
154 632 117 616 78 594 _c
78 694 _l
118 710 155 722 189 730 _c
223 738 255 742 284 742 _c
}_e{359 742 419 723 464 685 _c
509 647 532 597 532 534 _c
532 504 526 475 515 449 _c
504 422 484 390 454 354 _c
446 344 420 317 376 272 _c
332 227 271 164 192 83 _c
_cl}_e}_d
/three{{636 0 76 -13 556 742 _sc
406 393 _m
453 383 490 362 516 330 _c
542 298 556 258 556 212 _c
556 140 531 84 482 45 _c
432 6 362 -13 271 -13 _c
240 -13 208 -10 176 -4 _c
144 1 110 10 76 22 _c
76 117 _l
103 101 133 89 166 81 _c
198 73 232 69 268 69 _c
330 69 377 81 409 105 _c
441 129 458 165 458 212 _c
458 254 443 288 413 312 _c
383 336 341 349 287 349 _c
}_e{202 349 _l
202 430 _l
291 430 _l
339 430 376 439 402 459 _c
428 478 441 506 441 543 _c
441 580 427 609 401 629 _c
374 649 336 659 287 659 _c
260 659 231 656 200 650 _c
169 644 135 635 98 623 _c
98 711 _l
135 721 170 729 203 734 _c
235 739 266 742 296 742 _c
370 742 429 725 473 691 _c
517 657 539 611 539 553 _c
539 513 527 479 504 451 _c
481 423 448 403 406 393 _c
_cl}_e}_d
/four{636 0 49 0 580 729 _sc
378 643 _m
129 254 _l
378 254 _l
378 643 _l
352 729 _m
476 729 _l
476 254 _l
580 254 _l
580 172 _l
476 172 _l
476 0 _l
378 0 _l
378 172 _l
49 172 _l
49 267 _l
352 729 _l
_cl}_d
/five{{636 0 77 -13 549 729 _sc
108 729 _m
495 729 _l
495 646 _l
198 646 _l
198 467 _l
212 472 227 476 241 478 _c
255 480 270 482 284 482 _c
365 482 429 459 477 415 _c
525 370 549 310 549 234 _c
549 155 524 94 475 51 _c
426 8 357 -13 269 -13 _c
238 -13 207 -10 175 -6 _c
143 -1 111 6 77 17 _c
77 116 _l
106 100 136 88 168 80 _c
199 72 232 69 267 69 _c
}_e{323 69 368 83 401 113 _c
433 143 450 183 450 234 _c
450 284 433 324 401 354 _c
368 384 323 399 267 399 _c
241 399 214 396 188 390 _c
162 384 135 375 108 363 _c
108 729 _l
_cl}_e}_d
/six{{636 0 70 -13 573 742 _sc
330 404 _m
286 404 251 388 225 358 _c
199 328 186 286 186 234 _c
186 181 199 139 225 109 _c
251 79 286 64 330 64 _c
374 64 409 79 435 109 _c
461 139 474 181 474 234 _c
474 286 461 328 435 358 _c
409 388 374 404 330 404 _c
526 713 _m
526 623 _l
501 635 476 644 451 650 _c
425 656 400 659 376 659 _c
310 659 260 637 226 593 _c
}_e{192 549 172 482 168 394 _c
187 422 211 444 240 459 _c
269 474 301 482 336 482 _c
409 482 467 459 509 415 _c
551 371 573 310 573 234 _c
573 159 550 99 506 54 _c
462 9 403 -13 330 -13 _c
246 -13 181 19 137 83 _c
92 147 70 241 70 364 _c
70 479 97 571 152 639 _c
206 707 280 742 372 742 _c
396 742 421 739 447 735 _c
472 730 498 723 526 713 _c
_cl}_e}_d
/seven{636 0 82 0 551 729 _sc
82 729 _m
551 729 _l
551 687 _l
286 0 _l
183 0 _l
432 646 _l
82 646 _l
82 729 _l
_cl}_d
/eight{{636 0 68 -13 568 742 _sc
318 346 _m
271 346 234 333 207 308 _c
180 283 167 249 167 205 _c
167 161 180 126 207 101 _c
234 76 271 64 318 64 _c
364 64 401 76 428 102 _c
455 127 469 161 469 205 _c
469 249 455 283 429 308 _c
402 333 365 346 318 346 _c
219 388 _m
177 398 144 418 120 447 _c
96 476 85 511 85 553 _c
85 611 105 657 147 691 _c
188 725 245 742 318 742 _c
}_e{390 742 447 725 489 691 _c
530 657 551 611 551 553 _c
551 511 539 476 515 447 _c
491 418 459 398 417 388 _c
464 377 501 355 528 323 _c
554 291 568 251 568 205 _c
568 134 546 80 503 43 _c
459 5 398 -13 318 -13 _c
237 -13 175 5 132 43 _c
89 80 68 134 68 205 _c
68 251 81 291 108 323 _c
134 355 171 377 219 388 _c
183 544 _m
183 506 194 476 218 455 _c
}_e{242 434 275 424 318 424 _c
360 424 393 434 417 455 _c
441 476 453 506 453 544 _c
453 582 441 611 417 632 _c
393 653 360 664 318 664 _c
275 664 242 653 218 632 _c
194 611 183 582 183 544 _c
_cl}_e}_d
/nine{{636 0 63 -13 566 742 _sc
110 15 _m
110 105 _l
134 93 159 84 185 78 _c
210 72 235 69 260 69 _c
324 69 374 90 408 134 _c
442 178 462 244 468 334 _c
448 306 424 284 396 269 _c
367 254 335 247 300 247 _c
226 247 168 269 126 313 _c
84 357 63 417 63 494 _c
63 568 85 628 129 674 _c
173 719 232 742 306 742 _c
390 742 455 709 499 645 _c
543 580 566 486 566 364 _c
}_e{566 248 538 157 484 89 _c
429 21 356 -13 264 -13 _c
239 -13 214 -10 189 -6 _c
163 -2 137 5 110 15 _c
306 324 _m
350 324 385 339 411 369 _c
437 399 450 441 450 494 _c
450 546 437 588 411 618 _c
385 648 350 664 306 664 _c
262 664 227 648 201 618 _c
175 588 162 546 162 494 _c
162 441 175 399 201 369 _c
227 339 262 324 306 324 _c
_cl}_e}_d
/A{684 0 8 0 676 729 _sc
342 632 _m
208 269 _l
476 269 _l
342 632 _l
286 729 _m
398 729 _l
676 0 _l
573 0 _l
507 187 _l
178 187 _l
112 0 _l
8 0 _l
286 729 _l
_cl}_d
/E{632 0 98 0 568 729 _sc
98 729 _m
559 729 _l
559 646 _l
197 646 _l
197 430 _l
544 430 _l
544 347 _l
197 347 _l
197 83 _l
568 83 _l
568 0 _l
98 0 _l
98 729 _l
_cl}_d
/M{863 0 98 0 765 729 _sc
98 729 _m
245 729 _l
431 233 _l
618 729 _l
765 729 _l
765 0 _l
669 0 _l
669 640 _l
481 140 _l
382 140 _l
194 640 _l
194 0 _l
98 0 _l
98 729 _l
_cl}_d
/P{603 0 98 0 569 729 _sc
197 648 _m
197 374 _l
321 374 _l
367 374 402 385 427 409 _c
452 433 465 467 465 511 _c
465 555 452 588 427 612 _c
402 636 367 648 321 648 _c
197 648 _l
98 729 _m
321 729 _l
402 729 464 710 506 673 _c
548 636 569 582 569 511 _c
569 439 548 384 506 348 _c
464 311 402 293 321 293 _c
197 293 _l
197 0 _l
98 0 _l
98 729 _l
_cl}_d
/R{{695 0 98 0 666 729 _sc
444 342 _m
465 334 486 319 506 296 _c
526 272 546 240 566 199 _c
666 0 _l
560 0 _l
467 187 _l
443 235 419 268 397 284 _c
374 300 343 308 304 308 _c
197 308 _l
197 0 _l
98 0 _l
98 729 _l
321 729 _l
404 729 466 711 507 677 _c
548 642 569 589 569 519 _c
569 473 558 434 537 404 _c
515 374 484 353 444 342 _c
197 648 _m
197 389 _l
321 389 _l
}_e{368 389 404 400 428 422 _c
452 444 465 476 465 519 _c
465 561 452 593 428 615 _c
404 637 368 648 321 648 _c
197 648 _l
_cl}_e}_d
/S{{635 0 66 -13 579 742 _sc
535 705 _m
535 609 _l
497 627 462 640 429 649 _c
395 657 363 662 333 662 _c
279 662 237 651 208 631 _c
179 610 165 580 165 542 _c
165 510 174 485 194 469 _c
213 452 250 439 304 429 _c
364 417 _l
437 403 491 378 526 343 _c
561 307 579 260 579 201 _c
579 130 555 77 508 41 _c
460 5 391 -13 300 -13 _c
265 -13 228 -9 189 -2 _c
}_e{150 5 110 16 69 32 _c
69 134 _l
109 111 148 94 186 83 _c
224 71 262 66 300 66 _c
356 66 399 77 430 99 _c
460 121 476 152 476 194 _c
476 230 465 258 443 278 _c
421 298 385 313 335 323 _c
275 335 _l
201 349 148 372 115 404 _c
82 435 66 478 66 534 _c
66 598 88 649 134 686 _c
179 723 242 742 322 742 _c
356 742 390 739 426 733 _c
461 727 497 717 535 705 _c
}_e{_cl}_e}_d
/c{{550 0 55 -13 488 560 _sc
488 526 _m
488 442 _l
462 456 437 466 411 473 _c
385 480 360 484 334 484 _c
276 484 230 465 198 428 _c
166 391 150 339 150 273 _c
150 206 166 154 198 117 _c
230 80 276 62 334 62 _c
360 62 385 65 411 72 _c
437 79 462 90 488 104 _c
488 21 _l
462 9 436 0 410 -5 _c
383 -10 354 -13 324 -13 _c
242 -13 176 12 128 64 _c
}_e{79 115 55 185 55 273 _c
55 362 79 432 128 483 _c
177 534 244 560 330 560 _c
358 560 385 557 411 551 _c
437 545 463 537 488 526 _c
_cl}_e}_d
/e{{615 0 55 -13 562 560 _sc
562 296 _m
562 252 _l
149 252 _l
153 190 171 142 205 110 _c
238 78 284 62 344 62 _c
378 62 412 66 444 74 _c
476 82 509 95 541 113 _c
541 28 _l
509 14 476 3 442 -3 _c
408 -9 373 -13 339 -13 _c
251 -13 182 12 131 62 _c
80 112 55 181 55 268 _c
55 357 79 428 127 481 _c
175 533 241 560 323 560 _c
397 560 455 536 498 489 _c
}_e{540 441 562 377 562 296 _c
472 322 _m
471 371 457 410 431 440 _c
404 469 368 484 324 484 _c
274 484 234 469 204 441 _c
174 413 156 373 152 322 _c
472 322 _l
_cl}_e}_d
/i{278 0 94 0 184 760 _sc
94 547 _m
184 547 _l
184 0 _l
94 0 _l
94 547 _l
94 760 _m
184 760 _l
184 646 _l
94 646 _l
94 760 _l
_cl}_d
/l{278 0 94 0 184 760 _sc
94 760 _m
184 760 _l
184 0 _l
94 0 _l
94 760 _l
_cl}_d
/n{634 0 91 0 549 560 _sc
549 330 _m
549 0 _l
459 0 _l
459 327 _l
459 379 448 417 428 443 _c
408 469 378 482 338 482 _c
289 482 251 466 223 435 _c
195 404 181 362 181 309 _c
181 0 _l
91 0 _l
91 547 _l
181 547 _l
181 462 _l
202 494 227 519 257 535 _c
286 551 320 560 358 560 _c
420 560 468 540 500 501 _c
532 462 549 405 549 330 _c
_cl}_d
/r{411 0 91 0 411 560 _sc
411 463 _m
401 469 390 473 378 476 _c
366 478 353 480 339 480 _c
288 480 249 463 222 430 _c
194 397 181 350 181 288 _c
181 0 _l
91 0 _l
91 547 _l
181 547 _l
181 462 _l
199 495 224 520 254 536 _c
284 552 321 560 365 560 _c
371 560 378 559 386 559 _c
393 558 401 557 411 555 _c
411 463 _l
_cl}_d
/t{392 0 27 0 368 702 _sc
183 702 _m
183 547 _l
368 547 _l
368 477 _l
183 477 _l
183 180 _l
183 135 189 106 201 94 _c
213 81 238 75 276 75 _c
368 75 _l
368 0 _l
276 0 _l
206 0 158 13 132 39 _c
106 65 93 112 93 180 _c
93 477 _l
27 477 _l
27 547 _l
93 547 _l
93 702 _l
183 702 _l
_cl}_d
end readonly def

/BuildGlyph
 {exch begin
 CharStrings exch
 2 copy known not{pop /.notdef}if
 true 3 1 roll get exec
 end}_d

/BuildChar {
 1 index /Encoding get exch get
 1 index /BuildGlyph get exec
}_d

FontName currentdict end definefont pop
end
%%EndProlog
mpldict begin
18 180 translate
576 432 0 0 clipbox
1.000 setlinewidth
0 setlinejoin
0 setlinecap
[] 0 setdash
0.000 setgray
gsave
10.8 353.014286 m
65.16 353.014286 l
65.16 368.871429 l
10.8 368.871429 l
cl
gsave
1.000 setgray
fill
grestore
stroke
grestore
/DejaVuSans findfont
2.000 scalefont
setfont
gsave
33.597188 360.395982 translate
0.000000 rotate
0.000000 0 m /P glyphshow
1.206055 0 m /e glyphshow
2.436523 0 m /r glyphshow
3.258789 0 m /c glyphshow
4.358398 0 m /e glyphshow
5.588867 0 m /n glyphshow
6.856445 0 m /t glyphshow
7.640625 0 m /i glyphshow
8.196289 0 m /l glyphshow
grestore
gsave
65.16 353.014286 m
119.52 353.014286 l
119.52 368.871429 l
65.16 368.871429 l
cl
gsave
1.000 setgray
fill
grestore
stroke
grestore
gsave
90.152500 360.395982 translate
0.000000 rotate
0.000000 0 m /M glyphshow
1.725586 0 m /A glyphshow
3.093750 0 m /E glyphshow
grestore
gsave
119.52 353.014286 m
173.88 353.014286 l
173.88 368.871429 l
119.52 368.871429 l
cl
gsave
1.000 setgray
fill
grestore
stroke
grestore
gsave
143.871875 360.395982 translate
0.000000 rotate
0.000000 0 m /R glyphshow
1.389648 0 m /M glyphshow
3.115234 0 m /S glyphshow
4.384766 0 m /E glyphshow
grestore
gsave
173.88 353.014286 m
228.24 353.014286 l
228.24 368.871429 l
173.88 368.871429 l
cl
gsave
1.000 setgray
fill
grestore
stroke
grestore
gsave
198.270938 360.395982 translate
0.000000 rotate
0.000000 0 m /M glyphshow
1.725586 0 m /A glyphshow
3.093750 0 m /P glyphshow
4.299805 0 m /E glyphshow
grestore
gsave
228.24 353.014286 m
282.6 353.014286 l
282.6 368.871429 l
228.24 368.871429 l
cl
gsave
1.000 setgray
fill
grestore
stroke
grestore
gsave
254.084062 360.395982 translate
0.000000 rotate
0.000000 0 m /R glyphshow
1.389648 0 m /two glyphshow
grestore
gsave
10.8 337.157143 m
65.16 337.157143 l
65.16 353.014286 l
10.8 353.014286 l
cl
gsave
1.000 setgray
fill
grestore
stroke
grestore
gsave
56.520875 344.538839 translate
0.000000 rotate
0.000000 0 m /zero glyphshow
1.272461 0 m /period glyphshow
1.908203 0 m /zero glyphshow
grestore
gsave
65.16 337.157143 m
119.52 337.157143 l
119.52 353.014286 l
65.16 353.014286 l
cl
gsave
1.000 setgray
fill
grestore
stroke
grestore
gsave
110.880875 344.538839 translate
0.000000 rotate
0.000000 0 m /one glyphshow
1.272461 0 m /period glyphshow
1.908203 0 m /zero glyphshow
grestore
gsave
119.52 337.157143 m
173.88 337.157143 l
173.88 353.014286 l
119.52 353.014286 l
cl
gsave
1.000 setgray
fill
grestore
stroke
grestore
gsave
165.240875 344.538839 translate
0.000000 rotate
0.000000 0 m /one glyphshow
1.272461 0 m /period glyphshow
1.908203 0 m /zero glyphshow
grestore
gsave
173.88 337.157143 m
228.24 337.157143 l
228.24 353.014286 l
173.88 353.014286 l
cl
gsave
1.000 setgray
fill
grestore
stroke
grestore
gsave
199.100875 344.538839 translate
0.000000 rotate
0.000000 0 m /zero glyphshow
1.272461 0 m /period glyphshow
1.908203 0 m /four glyphshow
3.180664 0 m /four glyphshow
4.453125 0 m /four glyphshow
5.725586 0 m /two glyphshow
6.998047 0 m /eight glyphshow
8.270508 0 m /two glyphshow
9.542969 0 m /five glyphshow
10.815430 0 m /seven glyphshow
12.087891 0 m /nine glyphshow
13.360352 0 m /nine glyphshow
14.632812 0 m /zero glyphshow
15.905273 0 m /nine glyphshow
17.177734 0 m /eight glyphshow
18.450195 0 m /seven glyphshow
19.722656 0 m /seven glyphshow
20.995117 0 m /six glyphshow
22.267578 0 m /three glyphshow
grestore
gsave
228.24 337.157143 m
282.6 337.157143 l
282.6 353.014286 l
228.24 353.014286 l
cl
gsave
1.000 setgray
fill
grestore
stroke
grestore
gsave
253.460875 344.538839 translate
0.000000 rotate
0.000000 0 m /zero glyphshow
1.272461 0 m /period glyphshow
1.908203 0 m /one glyphshow
3.180664 0 m /one glyphshow
4.453125 0 m /five glyphshow
5.725586 0 m /three glyphshow
6.998047 0 m /four glyphshow
8.270508 0 m /zero glyphshow
9.542969 0 m /five glyphshow
10.815430 0 m /six glyphshow
12.087891 0 m /five glyphshow
13.360352 0 m /one glyphshow
14.632812 0 m /three glyphshow
15.905273 0 m /seven glyphshow
17.177734 0 m /one glyphshow
18.450195 0 m /seven glyphshow
19.722656 0 m /five glyphshow
20.995117 0 m /three glyphshow
22.267578 0 m /nine glyphshow
grestore
gsave
10.8 321.3 m
65.16 321.3 l
65.16 337.157143 l
10.8 337.157143 l
cl
gsave
1.000 setgray
fill
grestore
stroke
grestore
gsave
55.239625 328.681696 translate
0.000000 rotate
0.000000 0 m /two glyphshow
1.272461 0 m /five glyphshow
2.544922 0 m /period glyphshow
3.180664 0 m /zero glyphshow
grestore
gsave
65.16 321.3 m
119.52 321.3 l
119.52 337.157143 l
65.16 337.157143 l
cl
gsave
1.000 setgray
fill
grestore
stroke
grestore
gsave
110.880875 328.681696 translate
0.000000 rotate
0.000000 0 m /one glyphshow
1.272461 0 m /period glyphshow
1.908203 0 m /zero glyphshow
grestore
gsave
119.52 321.3 m
173.88 321.3 l
173.88 337.157143 l
119.52 337.157143 l
cl
gsave
1.000 setgray
fill
grestore
stroke
grestore
gsave
165.240875 328.681696 translate
0.000000 rotate
0.000000 0 m /two glyphshow
1.272461 0 m /period glyphshow
1.908203 0 m /zero glyphshow
grestore
gsave
173.88 321.3 m
228.24 321.3 l
228.24 337.157143 l
173.88 337.157143 l
cl
gsave
1.000 setgray
fill
grestore
stroke
grestore
gsave
200.382125 328.681696 translate
0.000000 rotate
0.000000 0 m /zero glyphshow
1.272461 0 m /period glyphshow
1.908203 0 m /six glyphshow
3.180664 0 m /two glyphshow
4.453125 0 m /one glyphshow
5.725586 0 m /eight glyphshow
6.998047 0 m /six glyphshow
8.270508 0 m /nine glyphshow
9.542969 0 m /seven glyphshow
10.815430 0 m /seven glyphshow
12.087891 0 m /three glyphshow
13.360352 0 m /two glyphshow
14.632812 0 m /zero glyphshow
15.905273 0 m /zero glyphshow
17.177734 0 m /two glyphshow
18.450195 0 m /one glyphshow
19.722656 0 m /nine glyphshow
20.995117 0 m /four glyphshow
grestore
gsave
228.24 321.3 m
282.6 321.3 l
282.6 337.157143 l
228.24 337.157143 l
cl
gsave
1.000 setgray
fill
grestore
stroke
grestore
gsave
254.742125 328.681696 translate
0.000000 rotate
0.000000 0 m /zero glyphshow
1.272461 0 m /period glyphshow
1.908203 0 m /three glyphshow
3.180664 0 m /one glyphshow
4.453125 0 m /three glyphshow
5.725586 0 m /five glyphshow
6.998047 0 m /zero glyphshow
8.270508 0 m /eight glyphshow
9.542969 0 m /two glyphshow
10.815430 0 m /four glyphshow
12.087891 0 m /four glyphshow
13.360352 0 m /eight glyphshow
14.632812 0 m /six glyphshow
15.905273 0 m /five glyphshow
17.177734 0 m /two glyphshow
18.450195 0 m /two glyphshow
19.722656 0 m /nine glyphshow
20.995117 0 m /three glyphshow
grestore
gsave
10.8 305.442857 m
65.16 305.442857 l
65.16 321.3 l
10.8 321.3 l
cl
gsave
1.000 setgray
fill
grestore
stroke
grestore
gsave
55.239625 312.824554 translate
0.000000 rotate
0.000000 0 m /five glyphshow
1.272461 0 m /zero glyphshow
2.544922 0 m /period glyphshow
3.180664 0 m /zero glyphshow
grestore
gsave
65.16 305.442857 m
119.52 305.442857 l
119.52 321.3 l
65.16 321.3 l
cl
gsave
1.000 setgray
fill
grestore
stroke
grestore
gsave
110.880875 312.824554 translate
0.000000 rotate
0.000000 0 m /three glyphshow
1.272461 0 m /period glyphshow
1.908203 0 m /zero glyphshow
grestore
gsave
119.52 305.442857 m
173.88 305.442857 l
173.88 321.3 l
119.52 321.3 l
cl
gsave
1.000 setgray
fill
grestore
stroke
grestore
gsave
165.240875 312.824554 translate
0.000000 rotate
0.000000 0 m /five glyphshow
1.272461 0 m /period glyphshow
1.908203 0 m /five glyphshow
grestore
gsave
173.88 305.442857 m
228.24 305.442857 l
228.24 321.3 l
173.88 321.3 l
cl
gsave
1.000 setgray
fill
grestore
stroke
grestore
gsave
200.382125 312.824554 translate
0.000000 rotate
0.000000 0 m /zero glyphshow
1.272461 0 m /period glyphshow
1.908203 0 m /seven glyphshow
3.180664 0 m /six glyphshow
4.453125 0 m /five glyphshow
5.725586 0 m /six glyphshow
6.998047 0 m /nine glyphshow
8.270508 0 m /one glyphshow
9.542969 0 m /three glyphshow
10.815430 0 m /eight glyphshow
12.087891 0 m /six glyphshow
13.360352 0 m /one glyphshow
14.632812 0 m /five glyphshow
15.905273 0 m /six glyphshow
17.177734 0 m /zero glyphshow
18.450195 0 m /four glyphshow
19.722656 0 m /two glyphshow
20.995117 0 m /seven glyphshow
grestore
gsave
228.24 305.442857 m
282.6 305.442857 l
282.6 321.3 l
228.24 321.3 l
cl
gsave
1.000 setgray
fill
grestore
stroke
grestore
gsave
253.460875 312.824554 translate
0.000000 rotate
0.000000 0 m /zero glyphshow
1.272461 0 m /period glyphshow
1.908203 0 m /four glyphshow
3.180664 0 m /six glyphshow
4.453125 0 m /nine glyphshow
5.725586 0 m /three glyphshow
6.998047 0 m /eight glyphshow
8.270508 0 m /one glyphshow
9.542969 0 m /three glyphshow
10.815430 0 m /five glyphshow
12.087891 0 m /three glyphshow
13.360352 0 m /nine glyphshow
14.632812 0 m /four glyphshow
15.905273 0 m /zero glyphshow
17.177734 0 m /four glyphshow
18.450195 0 m /six glyphshow
19.722656 0 m /five glyphshow
20.995117 0 m /two glyphshow
22.267578 0 m /six glyphshow
grestore
gsave
10.8 289.585714 m
65.16 289.585714 l
65.16 305.442857 l
10.8 305.442857 l
cl
gsave
1.000 setgray
fill
grestore
stroke
grestore
gsave
55.239625 296.967411 translate
0.000000 rotate
0.000000 0 m /seven glyphshow
1.272461 0 m /five glyphshow
2.544922 0 m /period glyphshow
3.180664 0 m /zero glyphshow
grestore
gsave
65.16 289.585714 m
119.52 289.585714 l
119.52 305.442857 l
65.16 305.442857 l
cl
gsave
1.000 setgray
fill
grestore
stroke
grestore
gsave
109.599625 296.967411 translate
0.000000 rotate
0.000000 0 m /five glyphshow
1.272461 0 m /period glyphshow
1.908203 0 m /two glyphshow
3.180664 0 m /five glyphshow
grestore
gsave
119.52 289.585714 m
173.88 289.585714 l
173.88 305.442857 l
119.52 305.442857 l
cl
gsave
1.000 setgray
fill
grestore
stroke
grestore
gsave
163.959625 296.967411 translate
0.000000 rotate
0.000000 0 m /one glyphshow
1.272461 0 m /seven glyphshow
2.544922 0 m /period glyphshow
3.180664 0 m /five glyphshow
grestore
gsave
173.88 289.585714 m
228.24 289.585714 l
228.24 305.442857 l
173.88 305.442857 l
cl
gsave
1.000 setgray
fill
grestore
stroke
grestore
gsave
200.382125 296.967411 translate
0.000000 rotate
0.000000 0 m /one glyphshow
1.272461 0 m /period glyphshow
1.908203 0 m /zero glyphshow
3.180664 0 m /nine glyphshow
4.453125 0 m /eight glyphshow
5.725586 0 m /seven glyphshow
6.998047 0 m /nine glyphshow
8.270508 0 m /zero glyphshow
9.542969 0 m /zero glyphshow
10.815430 0 m /two glyphshow
12.087891 0 m /zero glyphshow
13.360352 0 m /seven glyphshow
14.632812 0 m /three glyphshow
15.905273 0 m /one glyphshow
17.177734 0 m /seven glyphshow
18.450195 0 m /seven glyphshow
19.722656 0 m /three glyphshow
20.995117 0 m /eight glyphshow
grestore
gsave
228.24 289.585714 m
282.6 289.585714 l
282.6 305.442857 l
228.24 305.442857 l
cl
gsave
1.000 setgray
fill
grestore
stroke
grestore
gsave
256.023375 296.967411 translate
0.000000 rotate
0.000000 0 m /zero glyphshow
1.272461 0 m /period glyphshow
1.908203 0 m /six glyphshow
3.180664 0 m /zero glyphshow
4.453125 0 m /four glyphshow
5.725586 0 m /three glyphshow
6.998047 0 m /seven glyphshow
8.270508 0 m /three glyphshow
9.542969 0 m /nine glyphshow
10.815430 0 m /six glyphshow
12.087891 0 m /six glyphshow
13.360352 0 m /nine glyphshow
14.632812 0 m /two glyphshow
15.905273 0 m /three glyphshow
17.177734 0 m /eight glyphshow
18.450195 0 m /six glyphshow
19.722656 0 m /four glyphshow
grestore
gsave
10.8 273.728571 m
65.16 273.728571 l
65.16 289.585714 l
10.8 289.585714 l
cl
gsave
1.000 setgray
fill
grestore
stroke
grestore
gsave
53.958375 281.110268 translate
0.000000 rotate
0.000000 0 m /one glyphshow
1.272461 0 m /zero glyphshow
2.544922 0 m /zero glyphshow
3.817383 0 m /period glyphshow
4.453125 0 m /zero glyphshow
grestore
gsave
65.16 273.728571 m
119.52 273.728571 l
119.52 289.585714 l
65.16 289.585714 l
cl
gsave
1.000 setgray
fill
grestore
stroke
grestore
gsave
109.599625 281.110268 translate
0.000000 rotate
0.000000 0 m /one glyphshow
1.272461 0 m /one glyphshow
2.544922 0 m /period glyphshow
3.180664 0 m /zero glyphshow
grestore
gsave
119.52 273.728571 m
173.88 273.728571 l
173.88 289.585714 l
119.52 289.585714 l
cl
gsave
1.000 setgray
fill
grestore
stroke
grestore
gsave
163.959625 281.110268 translate
0.000000 rotate
0.000000 0 m /three glyphshow
1.272461 0 m /eight glyphshow
2.544922 0 m /period glyphshow
3.180664 0 m /zero glyphshow
grestore
gsave
173.88 273.728571 m
228.24 273.728571 l
228.24 289.585714 l
173.88 289.585714 l
cl
gsave
1.000 setgray
fill
grestore
stroke
grestore
gsave
201.663375 281.110268 translate
0.000000 rotate
0.000000 0 m /one glyphshow
1.272461 0 m /period glyphshow
1.908203 0 m /three glyphshow
3.180664 0 m /seven glyphshow
4.453125 0 m /six glyphshow
5.725586 0 m /three glyphshow
6.998047 0 m /two glyphshow
8.270508 0 m /three glyphshow
9.542969 0 m /two glyphshow
10.815430 0 m /zero glyphshow
12.087891 0 m /eight glyphshow
13.360352 0 m /seven glyphshow
14.632812 0 m /two glyphshow
15.905273 0 m /three glyphshow
17.177734 0 m /three glyphshow
18.450195 0 m /six glyphshow
19.722656 0 m /one glyphshow
grestore
gsave
228.24 273.728571 m
282.6 273.728571 l
282.6 289.585714 l
228.24 289.585714 l
cl
gsave
1.000 setgray
fill
grestore
stroke
grestore
gsave
254.742125 281.110268 translate
0.000000 rotate
0.000000 0 m /zero glyphshow
1.272461 0 m /period glyphshow
1.908203 0 m /seven glyphshow
3.180664 0 m /four glyphshow
4.453125 0 m /five glyphshow
5.725586 0 m /two glyphshow
6.998047 0 m /five glyphshow
8.270508 0 m /three glyphshow
9.542969 0 m /eight glyphshow
10.815430 0 m /eight glyphshow
12.087891 0 m /three glyphshow
13.360352 0 m /seven glyphshow
14.632812 0 m /seven glyphshow
15.905273 0 m /zero glyphshow
17.177734 0 m /eight glyphshow
18.450195 0 m /two glyphshow
19.722656 0 m /two glyphshow
20.995117 0 m /four glyphshow
grestore
gsave
293.4 353.014286 m
347.76 353.014286 l
347.76 368.871429 l
293.4 368.871429 l
cl
gsave
1.000 setgray
fill
grestore
stroke
grestore
gsave
316.197188 360.395982 translate
0.000000 rotate
0.000000 0 m /P glyphshow
1.206055 0 m /e glyphshow
2.436523 0 m /r glyphshow
3.258789 0 m /c glyphshow
4.358398 0 m /e glyphshow
5.588867 0 m /n glyphshow
6.856445 0 m /t glyphshow
7.640625 0 m /i glyphshow
8.196289 0 m /l glyphshow
grestore
gsave
347.76 353.014286 m
402.12 353.014286 l
402.12 368.871429 l
347.76 368.871429 l
cl
gsave
1.000 setgray
fill
grestore
stroke
grestore
gsave
372.752500 360.395982 translate
0.000000 rotate
0.000000 0 m /M glyphshow
1.725586 0 m /A glyphshow
3.093750 0 m /E glyphshow
grestore
gsave
402.12 353.014286 m
456.48 353.014286 l
456.48 368.871429 l
402.12 368.871429 l
cl
gsave
1.000 setgray
fill
grestore
stroke
grestore
gsave
426.471875 360.395982 translate
0.000000 rotate
0.000000 0 m /R glyphshow
1.389648 0 m /M glyphshow
3.115234 0 m /S glyphshow
4.384766 0 m /E glyphshow
grestore
gsave
456.48 353.014286 m
510.84 353.014286 l
510.84 368.871429 l
456.48 368.871429 l
cl
gsave
1.000 setgray
fill
grestore
stroke
grestore
gsave
480.870937 360.395982 translate
0.000000 rotate
0.000000 0 m /M glyphshow
1.725586 0 m /A glyphshow
3.093750 0 m /P glyphshow
4.299805 0 m /E glyphshow
grestore
gsave
510.84 353.014286 m
565.2 353.014286 l
565.2 368.871429 l
510.84 368.871429 l
cl
gsave
1.000 setgray
fill
grestore
stroke
grestore
gsave
536.684062 360.395982 translate
0.000000 rotate
0.000000 0 m /R glyphshow
1.389648 0 m /two glyphshow
grestore
gsave
293.4 337.157143 m
347.76 337.157143 l
347.76 353.014286 l
293.4 353.014286 l
cl
gsave
1.000 setgray
fill
grestore
stroke
grestore
gsave
339.120875 344.538839 translate
0.000000 rotate
0.000000 0 m /zero glyphshow
1.272461 0 m /period glyphshow
1.908203 0 m /zero glyphshow
grestore
gsave
347.76 337.157143 m
402.12 337.157143 l
402.12 353.014286 l
347.76 353.014286 l
cl
gsave
1.000 setgray
fill
grestore
stroke
grestore
gsave
393.480875 344.538839 translate
0.000000 rotate
0.000000 0 m /one glyphshow
1.272461 0 m /period glyphshow
1.908203 0 m /zero glyphshow
grestore
gsave
402.12 337.157143 m
456.48 337.157143 l
456.48 353.014286 l
402.12 353.014286 l
cl
gsave
1.000 setgray
fill
grestore
stroke
grestore
gsave
447.840875 344.538839 translate
0.000000 rotate
0.000000 0 m /two glyphshow
1.272461 0 m /period glyphshow
1.908203 0 m /zero glyphshow
grestore
gsave
456.48 337.157143 m
510.84 337.157143 l
510.84 353.014286 l
456.48 353.014286 l
cl
gsave
1.000 setgray
fill
grestore
stroke
grestore
gsave
482.982125 344.538839 translate
0.000000 rotate
0.000000 0 m /zero glyphshow
1.272461 0 m /period glyphshow
1.908203 0 m /four glyphshow
3.180664 0 m /seven glyphshow
4.453125 0 m /four glyphshow
5.725586 0 m /two glyphshow
6.998047 0 m /seven glyphshow
8.270508 0 m /two glyphshow
9.542969 0 m /three glyphshow
10.815430 0 m /three glyphshow
12.087891 0 m /four glyphshow
13.360352 0 m /four glyphshow
14.632812 0 m /eight glyphshow
15.905273 0 m /seven glyphshow
17.177734 0 m /four glyphshow
18.450195 0 m /zero glyphshow
19.722656 0 m /seven glyphshow
20.995117 0 m /nine glyphshow
grestore
gsave
510.84 337.157143 m
565.2 337.157143 l
565.2 353.014286 l
510.84 353.014286 l
cl
gsave
1.000 setgray
fill
grestore
stroke
grestore
gsave
537.904625 344.538839 translate
0.000000 rotate
0.000000 0 m /hyphen glyphshow
0.721680 0 m /five glyphshow
1.994141 0 m /period glyphshow
2.629883 0 m /one glyphshow
3.902344 0 m /two glyphshow
5.174805 0 m /nine glyphshow
6.447266 0 m /four glyphshow
7.719727 0 m /three glyphshow
8.992188 0 m /one glyphshow
10.264648 0 m /six glyphshow
11.537109 0 m /four glyphshow
12.809570 0 m /five glyphshow
14.082031 0 m /one glyphshow
15.354492 0 m /six glyphshow
16.626953 0 m /two glyphshow
17.899414 0 m /seven glyphshow
19.171875 0 m /zero glyphshow
20.444336 0 m /four glyphshow
grestore
gsave
293.4 321.3 m
347.76 321.3 l
347.76 337.157143 l
293.4 337.157143 l
cl
gsave
1.000 setgray
fill
grestore
stroke
grestore
gsave
337.839625 328.681696 translate
0.000000 rotate
0.000000 0 m /two glyphshow
1.272461 0 m /five glyphshow
2.544922 0 m /period glyphshow
3.180664 0 m /zero glyphshow
grestore
gsave
347.76 321.3 m
402.12 321.3 l
402.12 337.157143 l
347.76 337.157143 l
cl
gsave
1.000 setgray
fill
grestore
stroke
grestore
gsave
393.480875 328.681696 translate
0.000000 rotate
0.000000 0 m /one glyphshow
1.272461 0 m /period glyphshow
1.908203 0 m /zero glyphshow
grestore
gsave
402.12 321.3 m
456.48 321.3 l
456.48 337.157143 l
402.12 337.157143 l
cl
gsave
1.000 setgray
fill
grestore
stroke
grestore
gsave
446.559625 328.681696 translate
0.000000 rotate
0.000000 0 m /two glyphshow
1.272461 0 m /period glyphshow
1.908203 0 m /seven glyphshow
3.180664 0 m /five glyphshow
grestore
gsave
456.48 321.3 m
510.84 321.3 l
510.84 337.157143 l
456.48 337.157143 l
cl
gsave
1.000 setgray
fill
grestore
stroke
grestore
gsave
482.982125 328.681696 translate
0.000000 rotate
0.000000 0 m /zero glyphshow
1.272461 0 m /period glyphshow
1.908203 0 m /five glyphshow
3.180664 0 m /three glyphshow
4.453125 0 m /four glyphshow
5.725586 0 m /five glyphshow
6.998047 0 m /one glyphshow
8.270508 0 m /one glyphshow
9.542969 0 m /five glyphshow
10.815430 0 m /eight glyphshow
12.087891 0 m /five glyphshow
13.360352 0 m /eight glyphshow
14.632812 0 m /seven glyphshow
15.905273 0 m /three glyphshow
17.177734 0 m /five glyphshow
18.450195 0 m /three glyphshow
19.722656 0 m /four glyphshow
20.995117 0 m /three glyphshow
grestore
gsave
510.84 321.3 m
565.2 321.3 l
565.2 337.157143 l
510.84 337.157143 l
cl
gsave
1.000 setgray
fill
grestore
stroke
grestore
gsave
539.185875 328.681696 translate
0.000000 rotate
0.000000 0 m /hyphen glyphshow
0.721680 0 m /one glyphshow
1.994141 0 m /period glyphshow
2.629883 0 m /one glyphshow
3.902344 0 m /four glyphshow
5.174805 0 m /five glyphshow
6.447266 0 m /eight glyphshow
7.719727 0 m /six glyphshow
8.992188 0 m /six glyphshow
10.264648 0 m /zero glyphshow
11.537109 0 m /three glyphshow
12.809570 0 m /five glyphshow
14.082031 0 m /one glyphshow
15.354492 0 m /one glyphshow
16.626953 0 m /seven glyphshow
17.899414 0 m /one glyphshow
19.171875 0 m /three glyphshow
grestore
gsave
293.4 305.442857 m
347.76 305.442857 l
347.76 321.3 l
293.4 321.3 l
cl
gsave
1.000 setgray
fill
grestore
stroke
grestore
gsave
337.839625 312.824554 translate
0.000000 rotate
0.000000 0 m /five glyphshow
1.272461 0 m /zero glyphshow
2.544922 0 m /period glyphshow
3.180664 0 m /zero glyphshow
grestore
gsave
347.76 305.442857 m
402.12 305.442857 l
402.12 321.3 l
347.76 321.3 l
cl
gsave
1.000 setgray
fill
grestore
stroke
grestore
gsave
393.480875 312.824554 translate
0.000000 rotate
0.000000 0 m /three glyphshow
1.272461 0 m /period glyphshow
1.908203 0 m /zero glyphshow
grestore
gsave
402.12 305.442857 m
456.48 305.442857 l
456.48 321.3 l
402.12 321.3 l
cl
gsave
1.000 setgray
fill
grestore
stroke
grestore
gsave
447.840875 312.824554 translate
0.000000 rotate
0.000000 0 m /eight glyphshow
1.272461 0 m /period glyphshow
1.908203 0 m /zero glyphshow
grestore
gsave
456.48 305.442857 m
510.84 305.442857 l
510.84 321.3 l
456.48 321.3 l
cl
gsave
1.000 setgray
fill
grestore
stroke
grestore
gsave
482.982125 312.824554 translate
0.000000 rotate
0.000000 0 m /zero glyphshow
1.272461 0 m /period glyphshow
1.908203 0 m /six glyphshow
3.180664 0 m /four glyphshow
4.453125 0 m /five glyphshow
5.725586 0 m /two glyphshow
6.998047 0 m /eight glyphshow
8.270508 0 m /three glyphshow
9.542969 0 m /three glyphshow
10.815430 0 m /eight glyphshow
12.087891 0 m /seven glyphshow
13.360352 0 m /seven glyphshow
14.632812 0 m /eight glyphshow
15.905273 0 m /seven glyphshow
17.177734 0 m /seven glyphshow
18.450195 0 m /zero glyphshow
19.722656 0 m /zero glyphshow
20.995117 0 m /three glyphshow
grestore
gsave
510.84 305.442857 m
565.2 305.442857 l
565.2 321.3 l
510.84 321.3 l
cl
gsave
1.000 setgray
fill
grestore
stroke
grestore
gsave
536.060875 312.824554 translate
0.000000 rotate
0.000000 0 m /zero glyphshow
1.272461 0 m /period glyphshow
1.908203 0 m /one glyphshow
3.180664 0 m /zero glyphshow
4.453125 0 m /nine glyphshow
5.725586 0 m /eight glyphshow
6.998047 0 m /four glyphshow
8.270508 0 m /eight glyphshow
9.542969 0 m /eight glyphshow
10.815430 0 m /five glyphshow
12.087891 0 m /four glyphshow
13.360352 0 m /three glyphshow
14.632812 0 m /one glyphshow
15.905273 0 m /one glyphshow
17.177734 0 m /four glyphshow
18.450195 0 m /nine glyphshow
19.722656 0 m /nine glyphshow
20.995117 0 m /one glyphshow
22.267578 0 m /six glyphshow
grestore
gsave
293.4 289.585714 m
347.76 289.585714 l
347.76 305.442857 l
293.4 305.442857 l
cl
gsave
1.000 setgray
fill
grestore
stroke
grestore
gsave
337.839625 296.967411 translate
0.000000 rotate
0.000000 0 m /seven glyphshow
1.272461 0 m /five glyphshow
2.544922 0 m /period glyphshow
3.180664 0 m /zero glyphshow
grestore
gsave
347.76 289.585714 m
402.12 289.585714 l
402.12 305.442857 l
347.76 305.442857 l
cl
gsave
1.000 setgray
fill
grestore
stroke
grestore
gsave
392.199625 296.967411 translate
0.000000 rotate
0.000000 0 m /one glyphshow
1.272461 0 m /zero glyphshow
2.544922 0 m /period glyphshow
3.180664 0 m /zero glyphshow
grestore
gsave
402.12 289.585714 m
456.48 289.585714 l
456.48 305.442857 l
402.12 305.442857 l
cl
gsave
1.000 setgray
fill
grestore
stroke
grestore
gsave
445.278375 296.967411 translate
0.000000 rotate
0.000000 0 m /four glyphshow
1.272461 0 m /four glyphshow
2.544922 0 m /period glyphshow
3.180664 0 m /seven glyphshow
4.453125 0 m /five glyphshow
grestore
gsave
456.48 289.585714 m
510.84 289.585714 l
510.84 305.442857 l
456.48 305.442857 l
cl
gsave
1.000 setgray
fill
grestore
stroke
grestore
gsave
482.982125 296.967411 translate
0.000000 rotate
0.000000 0 m /one glyphshow
1.272461 0 m /period glyphshow
1.908203 0 m /three glyphshow
3.180664 0 m /three glyphshow
4.453125 0 m /seven glyphshow
5.725586 0 m /two glyphshow
6.998047 0 m /nine glyphshow
8.270508 0 m /one glyphshow
9.542969 0 m /eight glyphshow
10.815430 0 m /seven glyphshow
12.087891 0 m /five glyphshow
13.360352 0 m /four glyphshow
14.632812 0 m /four glyphshow
15.905273 0 m /eight glyphshow
17.177734 0 m /four glyphshow
18.450195 0 m /eight glyphshow
19.722656 0 m /five glyphshow
20.995117 0 m /three glyphshow
grestore
gsave
510.84 289.585714 m
565.2 289.585714 l
565.2 305.442857 l
510.84 305.442857 l
cl
gsave
1.000 setgray
fill
grestore
stroke
grestore
gsave
537.342125 296.967411 translate
0.000000 rotate
0.000000 0 m /zero glyphshow
1.272461 0 m /period glyphshow
1.908203 0 m /three glyphshow
3.180664 0 m /zero glyphshow
4.453125 0 m /two glyphshow
5.725586 0 m /one glyphshow
6.998047 0 m /five glyphshow
8.270508 0 m /two glyphshow
9.542969 0 m /nine glyphshow
10.815430 0 m /zero glyphshow
12.087891 0 m /four glyphshow
13.360352 0 m /three glyphshow
14.632812 0 m /eight glyphshow
15.905273 0 m /two glyphshow
17.177734 0 m /three glyphshow
18.450195 0 m /five glyphshow
19.722656 0 m /three glyphshow
20.995117 0 m /six glyphshow
grestore
gsave
293.4 273.728571 m
347.76 273.728571 l
347.76 289.585714 l
293.4 289.585714 l
cl
gsave
1.000 setgray
fill
grestore
stroke
grestore
gsave
336.558375 281.110268 translate
0.000000 rotate
0.000000 0 m /one glyphshow
1.272461 0 m /zero glyphshow
2.544922 0 m /zero glyphshow
3.817383 0 m /period glyphshow
4.453125 0 m /zero glyphshow
grestore
gsave
347.76 273.728571 m
402.12 273.728571 l
402.12 289.585714 l
347.76 289.585714 l
cl
gsave
1.000 setgray
fill
grestore
stroke
grestore
gsave
392.199625 281.110268 translate
0.000000 rotate
0.000000 0 m /one glyphshow
1.272461 0 m /six glyphshow
2.544922 0 m /period glyphshow
3.180664 0 m /zero glyphshow
grestore
gsave
402.12 273.728571 m
456.48 273.728571 l
456.48 289.585714 l
402.12 289.585714 l
cl
gsave
1.000 setgray
fill
grestore
stroke
grestore
gsave
446.559625 281.110268 translate
0.000000 rotate
0.000000 0 m /six glyphshow
1.272461 0 m /three glyphshow
2.544922 0 m /period glyphshow
3.180664 0 m /zero glyphshow
grestore
gsave
456.48 273.728571 m
510.84 273.728571 l
510.84 289.585714 l
456.48 289.585714 l
cl
gsave
1.000 setgray
fill
grestore
stroke
grestore
gsave
482.982125 281.110268 translate
0.000000 rotate
0.000000 0 m /two glyphshow
1.272461 0 m /period glyphshow
1.908203 0 m /three glyphshow
3.180664 0 m /zero glyphshow
4.453125 0 m /two glyphshow
5.725586 0 m /six glyphshow
6.998047 0 m /eight glyphshow
8.270508 0 m /eight glyphshow
9.542969 0 m /two glyphshow
10.815430 0 m /three glyphshow
12.087891 0 m /nine glyphshow
13.360352 0 m /nine glyphshow
14.632812 0 m /four glyphshow
15.905273 0 m /five glyphshow
17.177734 0 m /zero glyphshow
18.450195 0 m /four glyphshow
19.722656 0 m /seven glyphshow
20.995117 0 m /two glyphshow
grestore
gsave
510.84 273.728571 m
565.2 273.728571 l
565.2 289.585714 l
510.84 289.585714 l
cl
gsave
1.000 setgray
fill
grestore
stroke
grestore
gsave
538.623375 281.110268 translate
0.000000 rotate
0.000000 0 m /zero glyphshow
1.272461 0 m /period glyphshow
1.908203 0 m /five glyphshow
3.180664 0 m /one glyphshow
4.453125 0 m /four glyphshow
5.725586 0 m /eight glyphshow
6.998047 0 m /six glyphshow
8.270508 0 m /six glyphshow
9.542969 0 m /nine glyphshow
10.815430 0 m /two glyphshow
12.087891 0 m /eight glyphshow
13.360352 0 m /zero glyphshow
14.632812 0 m /two glyphshow
15.905273 0 m /one glyphshow
17.177734 0 m /one glyphshow
18.450195 0 m /one glyphshow
19.722656 0 m /one glyphshow
grestore
gsave
10.8 142.414286 m
65.16 142.414286 l
65.16 158.271429 l
10.8 158.271429 l
cl
gsave
1.000 setgray
fill
grestore
stroke
grestore
gsave
33.597188 149.795982 translate
0.000000 rotate
0.000000 0 m /P glyphshow
1.206055 0 m /e glyphshow
2.436523 0 m /r glyphshow
3.258789 0 m /c glyphshow
4.358398 0 m /e glyphshow
5.588867 0 m /n glyphshow
6.856445 0 m /t glyphshow
7.640625 0 m /i glyphshow
8.196289 0 m /l glyphshow
grestore
gsave
65.16 142.414286 m
119.52 142.414286 l
119.52 158.271429 l
65.16 158.271429 l
cl
gsave
1.000 setgray
fill
grestore
stroke
grestore
gsave
90.152500 149.795982 translate
0.000000 rotate
0.000000 0 m /M glyphshow
1.725586 0 m /A glyphshow
3.093750 0 m /E glyphshow
grestore
gsave
119.52 142.414286 m
173.88 142.414286 l
173.88 158.271429 l
119.52 158.271429 l
cl
gsave
1.000 setgray
fill
grestore
stroke
grestore
gsave
143.871875 149.795982 translate
0.000000 rotate
0.000000 0 m /R glyphshow
1.389648 0 m /M glyphshow
3.115234 0 m /S glyphshow
4.384766 0 m /E glyphshow
grestore
gsave
173.88 142.414286 m
228.24 142.414286 l
228.24 158.271429 l
173.88 158.271429 l
cl
gsave
1.000 setgray
fill
grestore
stroke
grestore
gsave
198.270938 149.795982 translate
0.000000 rotate
0.000000 0 m /M glyphshow
1.725586 0 m /A glyphshow
3.093750 0 m /P glyphshow
4.299805 0 m /E glyphshow
grestore
gsave
228.24 142.414286 m
282.6 142.414286 l
282.6 158.271429 l
228.24 158.271429 l
cl
gsave
1.000 setgray
fill
grestore
stroke
grestore
gsave
254.084062 149.795982 translate
0.000000 rotate
0.000000 0 m /R glyphshow
1.389648 0 m /two glyphshow
grestore
gsave
10.8 126.557143 m
65.16 126.557143 l
65.16 142.414286 l
10.8 142.414286 l
cl
gsave
1.000 setgray
fill
grestore
stroke
grestore
gsave
56.520875 133.938839 translate
0.000000 rotate
0.000000 0 m /zero glyphshow
1.272461 0 m /period glyphshow
1.908203 0 m /zero glyphshow
grestore
gsave
65.16 126.557143 m
119.52 126.557143 l
119.52 142.414286 l
65.16 142.414286 l
cl
gsave
1.000 setgray
fill
grestore
stroke
grestore
gsave
110.880875 133.938839 translate
0.000000 rotate
0.000000 0 m /one glyphshow
1.272461 0 m /period glyphshow
1.908203 0 m /zero glyphshow
grestore
gsave
119.52 126.557143 m
173.88 126.557143 l
173.88 142.414286 l
119.52 142.414286 l
cl
gsave
1.000 setgray
fill
grestore
stroke
grestore
gsave
165.240875 133.938839 translate
0.000000 rotate
0.000000 0 m /two glyphshow
1.272461 0 m /period glyphshow
1.908203 0 m /zero glyphshow
grestore
gsave
173.88 126.557143 m
228.24 126.557143 l
228.24 142.414286 l
173.88 142.414286 l
cl
gsave
1.000 setgray
fill
grestore
stroke
grestore
gsave
200.382125 133.938839 translate
0.000000 rotate
0.000000 0 m /zero glyphshow
1.272461 0 m /period glyphshow
1.908203 0 m /five glyphshow
3.180664 0 m /one glyphshow
4.453125 0 m /two glyphshow
5.725586 0 m /two glyphshow
6.998047 0 m /seven glyphshow
8.270508 0 m /nine glyphshow
9.542969 0 m /nine glyphshow
10.815430 0 m /six glyphshow
12.087891 0 m /five glyphshow
13.360352 0 m /nine glyphshow
14.632812 0 m /zero glyphshow
15.905273 0 m /six glyphshow
17.177734 0 m /five glyphshow
18.450195 0 m /seven glyphshow
19.722656 0 m /four glyphshow
20.995117 0 m /four glyphshow
grestore
gsave
228.24 126.557143 m
282.6 126.557143 l
282.6 142.414286 l
228.24 142.414286 l
cl
gsave
1.000 setgray
fill
grestore
stroke
grestore
gsave
254.023375 133.938839 translate
0.000000 rotate
0.000000 0 m /hyphen glyphshow
0.721680 0 m /zero glyphshow
1.994141 0 m /period glyphshow
2.629883 0 m /seven glyphshow
3.902344 0 m /nine glyphshow
5.174805 0 m /five glyphshow
6.447266 0 m /eight glyphshow
7.719727 0 m /three glyphshow
8.992188 0 m /one glyphshow
10.264648 0 m /zero glyphshow
11.537109 0 m /six glyphshow
12.809570 0 m /six glyphshow
14.082031 0 m /nine glyphshow
15.354492 0 m /three glyphshow
16.626953 0 m /four glyphshow
17.899414 0 m /eight glyphshow
19.171875 0 m /four glyphshow
20.444336 0 m /seven glyphshow
21.716797 0 m /eight glyphshow
grestore
gsave
10.8 110.7 m
65.16 110.7 l
65.16 126.557143 l
10.8 126.557143 l
cl
gsave
1.000 setgray
fill
grestore
stroke
grestore
gsave
55.239625 118.081696 translate
0.000000 rotate
0.000000 0 m /two glyphshow
1.272461 0 m /five glyphshow
2.544922 0 m /period glyphshow
3.180664 0 m /zero glyphshow
grestore
gsave
65.16 110.7 m
119.52 110.7 l
119.52 126.557143 l
65.16 126.557143 l
cl
gsave
1.000 setgray
fill
grestore
stroke
grestore
gsave
110.880875 118.081696 translate
0.000000 rotate
0.000000 0 m /one glyphshow
1.272461 0 m /period glyphshow
1.908203 0 m /zero glyphshow
grestore
gsave
119.52 110.7 m
173.88 110.7 l
173.88 126.557143 l
119.52 126.557143 l
cl
gsave
1.000 setgray
fill
grestore
stroke
grestore
gsave
163.959625 118.081696 translate
0.000000 rotate
0.000000 0 m /two glyphshow
1.272461 0 m /period glyphshow
1.908203 0 m /seven glyphshow
3.180664 0 m /five glyphshow
grestore
gsave
173.88 110.7 m
228.24 110.7 l
228.24 126.557143 l
173.88 126.557143 l
cl
gsave
1.000 setgray
fill
grestore
stroke
grestore
gsave
200.382125 118.081696 translate
0.000000 rotate
0.000000 0 m /zero glyphshow
1.272461 0 m /period glyphshow
1.908203 0 m /six glyphshow
3.180664 0 m /five glyphshow
4.453125 0 m /zero glyphshow
5.725586 0 m /three glyphshow
6.998047 0 m /four glyphshow
8.270508 0 m /nine glyphshow
9.542969 0 m /one glyphshow
10.815430 0 m /two glyphshow
12.087891 0 m /three glyphshow
13.360352 0 m /zero glyphshow
14.632812 0 m /zero glyphshow
15.905273 0 m /eight glyphshow
17.177734 0 m /four glyphshow
18.450195 0 m /seven glyphshow
19.722656 0 m /seven glyphshow
20.995117 0 m /four glyphshow
grestore
gsave
228.24 110.7 m
282.6 110.7 l
282.6 126.557143 l
228.24 126.557143 l
cl
gsave
1.000 setgray
fill
grestore
stroke
grestore
gsave
254.742125 118.081696 translate
0.000000 rotate
0.000000 0 m /zero glyphshow
1.272461 0 m /period glyphshow
1.908203 0 m /zero glyphshow
3.180664 0 m /eight glyphshow
4.453125 0 m /one glyphshow
5.725586 0 m /five glyphshow
6.998047 0 m /six glyphshow
8.270508 0 m /three glyphshow
9.542969 0 m /seven glyphshow
10.815430 0 m /five glyphshow
12.087891 0 m /eight glyphshow
13.360352 0 m /one glyphshow
14.632812 0 m /seven glyphshow
15.905273 0 m /six glyphshow
17.177734 0 m /six glyphshow
18.450195 0 m /seven glyphshow
19.722656 0 m /zero glyphshow
20.995117 0 m /five glyphshow
grestore
gsave
10.8 94.842857 m
65.16 94.842857 l
65.16 110.7 l
10.8 110.7 l
cl
gsave
1.000 setgray
fill
grestore
stroke
grestore
gsave
55.239625 102.224554 translate
0.000000 rotate
0.000000 0 m /five glyphshow
1.272461 0 m /zero glyphshow
2.544922 0 m /period glyphshow
3.180664 0 m /zero glyphshow
grestore
gsave
65.16 94.842857 m
119.52 94.842857 l
119.52 110.7 l
65.16 110.7 l
cl
gsave
1.000 setgray
fill
grestore
stroke
grestore
gsave
110.880875 102.224554 translate
0.000000 rotate
0.000000 0 m /three glyphshow
1.272461 0 m /period glyphshow
1.908203 0 m /zero glyphshow
grestore
gsave
119.52 94.842857 m
173.88 94.842857 l
173.88 110.7 l
119.52 110.7 l
cl
gsave
1.000 setgray
fill
grestore
stroke
grestore
gsave
165.240875 102.224554 translate
0.000000 rotate
0.000000 0 m /nine glyphshow
1.272461 0 m /period glyphshow
1.908203 0 m /five glyphshow
grestore
gsave
173.88 94.842857 m
228.24 94.842857 l
228.24 110.7 l
173.88 110.7 l
cl
gsave
1.000 setgray
fill
grestore
stroke
grestore
gsave
200.382125 102.224554 translate
0.000000 rotate
0.000000 0 m /one glyphshow
1.272461 0 m /period glyphshow
1.908203 0 m /two glyphshow
3.180664 0 m /zero glyphshow
4.453125 0 m /zero glyphshow
5.725586 0 m /six glyphshow
6.998047 0 m /six glyphshow
8.270508 0 m /seven glyphshow
9.542969 0 m /nine glyphshow
10.815430 0 m /five glyphshow
12.087891 0 m /one glyphshow
13.360352 0 m /five glyphshow
14.632812 0 m /three glyphshow
15.905273 0 m /six glyphshow
17.177734 0 m /zero glyphshow
18.450195 0 m /one glyphshow
19.722656 0 m /nine glyphshow
20.995117 0 m /five glyphshow
grestore
gsave
228.24 94.842857 m
282.6 94.842857 l
282.6 110.7 l
228.24 110.7 l
cl
gsave
1.000 setgray
fill
grestore
stroke
grestore
gsave
253.460875 102.224554 translate
0.000000 rotate
0.000000 0 m /zero glyphshow
1.272461 0 m /period glyphshow
1.908203 0 m /three glyphshow
3.180664 0 m /seven glyphshow
4.453125 0 m /seven glyphshow
5.725586 0 m /eight glyphshow
6.998047 0 m /one glyphshow
8.270508 0 m /eight glyphshow
9.542969 0 m /one glyphshow
10.815430 0 m /zero glyphshow
12.087891 0 m /four glyphshow
13.360352 0 m /two glyphshow
14.632812 0 m /three glyphshow
15.905273 0 m /two glyphshow
17.177734 0 m /three glyphshow
18.450195 0 m /one glyphshow
19.722656 0 m /two glyphshow
20.995117 0 m /nine glyphshow
22.267578 0 m /three glyphshow
grestore
gsave
10.8 78.985714 m
65.16 78.985714 l
65.16 94.842857 l
10.8 94.842857 l
cl
gsave
1.000 setgray
fill
grestore
stroke
grestore
gsave
55.239625 86.367411 translate
0.000000 rotate
0.000000 0 m /seven glyphshow
1.272461 0 m /five glyphshow
2.544922 0 m /period glyphshow
3.180664 0 m /zero glyphshow
grestore
gsave
65.16 78.985714 m
119.52 78.985714 l
119.52 94.842857 l
65.16 94.842857 l
cl
gsave
1.000 setgray
fill
grestore
stroke
grestore
gsave
110.880875 86.367411 translate
0.000000 rotate
0.000000 0 m /eight glyphshow
1.272461 0 m /period glyphshow
1.908203 0 m /zero glyphshow
grestore
gsave
119.52 78.985714 m
173.88 78.985714 l
173.88 94.842857 l
119.52 94.842857 l
cl
gsave
1.000 setgray
fill
grestore
stroke
grestore
gsave
163.959625 86.367411 translate
0.000000 rotate
0.000000 0 m /two glyphshow
1.272461 0 m /eight glyphshow
2.544922 0 m /period glyphshow
3.180664 0 m /five glyphshow
grestore
gsave
173.88 78.985714 m
228.24 78.985714 l
228.24 94.842857 l
173.88 94.842857 l
cl
gsave
1.000 setgray
fill
grestore
stroke
grestore
gsave
200.382125 86.367411 translate
0.000000 rotate
0.000000 0 m /one glyphshow
1.272461 0 m /period glyphshow
1.908203 0 m /six glyphshow
3.180664 0 m /eight glyphshow
4.453125 0 m /five glyphshow
5.725586 0 m /seven glyphshow
6.998047 0 m /one glyphshow
8.270508 0 m /two glyphshow
9.542969 0 m /seven glyphshow
10.815430 0 m /three glyphshow
12.087891 0 m /eight glyphshow
13.360352 0 m /two glyphshow
14.632812 0 m /five glyphshow
15.905273 0 m /eight glyphshow
17.177734 0 m /one glyphshow
18.450195 0 m /seven glyphshow
19.722656 0 m /four glyphshow
20.995117 0 m /two glyphshow
grestore
gsave
228.24 78.985714 m
282.6 78.985714 l
282.6 94.842857 l
228.24 94.842857 l
cl
gsave
1.000 setgray
fill
grestore
stroke
grestore
gsave
254.742125 86.367411 translate
0.000000 rotate
0.000000 0 m /zero glyphshow
1.272461 0 m /period glyphshow
1.908203 0 m /four glyphshow
3.180664 0 m /seven glyphshow
4.453125 0 m /three glyphshow
5.725586 0 m /eight glyphshow
6.998047 0 m /five glyphshow
8.270508 0 m /five glyphshow
9.542969 0 m /seven glyphshow
10.815430 0 m /nine glyphshow
12.087891 0 m /one glyphshow
13.360352 0 m /one glyphshow
14.632812 0 m /three glyphshow
15.905273 0 m /one glyphshow
17.177734 0 m /seven glyphshow
18.450195 0 m /four glyphshow
19.722656 0 m /five glyphshow
20.995117 0 m /seven glyphshow
grestore
gsave
10.8 63.128571 m
65.16 63.128571 l
65.16 78.985714 l
10.8 78.985714 l
cl
gsave
1.000 setgray
fill
grestore
stroke
grestore
gsave
53.958375 70.510268 translate
0.000000 rotate
0.000000 0 m /one glyphshow
1.272461 0 m /zero glyphshow
2.544922 0 m /zero glyphshow
3.817383 0 m /period glyphshow
4.453125 0 m /zero glyphshow
grestore
gsave
65.16 63.128571 m
119.52 63.128571 l
119.52 78.985714 l
65.16 78.985714 l
cl
gsave
1.000 setgray
fill
grestore
stroke
grestore
gsave
109.599625 70.510268 translate
0.000000 rotate
0.000000 0 m /one glyphshow
1.272461 0 m /one glyphshow
2.544922 0 m /period glyphshow
3.180664 0 m /zero glyphshow
grestore
gsave
119.52 63.128571 m
173.88 63.128571 l
173.88 78.985714 l
119.52 78.985714 l
cl
gsave
1.000 setgray
fill
grestore
stroke
grestore
gsave
163.959625 70.510268 translate
0.000000 rotate
0.000000 0 m /three glyphshow
1.272461 0 m /four glyphshow
2.544922 0 m /period glyphshow
3.180664 0 m /zero glyphshow
grestore
gsave
173.88 63.128571 m
228.24 63.128571 l
228.24 78.985714 l
173.88 78.985714 l
cl
gsave
1.000 setgray
fill
grestore
stroke
grestore
gsave
200.382125 70.510268 translate
0.000000 rotate
0.000000 0 m /two glyphshow
1.272461 0 m /period glyphshow
1.908203 0 m /four glyphshow
3.180664 0 m /eight glyphshow
4.453125 0 m /six glyphshow
5.725586 0 m /five glyphshow
6.998047 0 m /three glyphshow
8.270508 0 m /zero glyphshow
9.542969 0 m /three glyphshow
10.815430 0 m /zero glyphshow
12.087891 0 m /four glyphshow
13.360352 0 m /zero glyphshow
14.632812 0 m /seven glyphshow
15.905273 0 m /six glyphshow
17.177734 0 m /one glyphshow
18.450195 0 m /six glyphshow
19.722656 0 m /four glyphshow
20.995117 0 m /four glyphshow
grestore
gsave
228.24 63.128571 m
282.6 63.128571 l
282.6 78.985714 l
228.24 78.985714 l
cl
gsave
1.000 setgray
fill
grestore
stroke
grestore
gsave
257.304625 70.510268 translate
0.000000 rotate
0.000000 0 m /zero glyphshow
1.272461 0 m /period glyphshow
1.908203 0 m /six glyphshow
3.180664 0 m /seven glyphshow
4.453125 0 m /nine glyphshow
5.725586 0 m /two glyphshow
6.998047 0 m /five glyphshow
8.270508 0 m /seven glyphshow
9.542969 0 m /nine glyphshow
10.815430 0 m /nine glyphshow
12.087891 0 m /zero glyphshow
13.360352 0 m /nine glyphshow
14.632812 0 m /six glyphshow
15.905273 0 m /two glyphshow
17.177734 0 m /two glyphshow
18.450195 0 m /eight glyphshow
grestore
gsave
293.4 142.414286 m
347.76 142.414286 l
347.76 158.271429 l
293.4 158.271429 l
cl
gsave
1.000 setgray
fill
grestore
stroke
grestore
gsave
316.197188 149.795982 translate
0.000000 rotate
0.000000 0 m /P glyphshow
1.206055 0 m /e glyphshow
2.436523 0 m /r glyphshow
3.258789 0 m /c glyphshow
4.358398 0 m /e glyphshow
5.588867 0 m /n glyphshow
6.856445 0 m /t glyphshow
7.640625 0 m /i glyphshow
8.196289 0 m /l glyphshow
grestore
gsave
347.76 142.414286 m
402.12 142.414286 l
402.12 158.271429 l
347.76 158.271429 l
cl
gsave
1.000 setgray
fill
grestore
stroke
grestore
gsave
372.752500 149.795982 translate
0.000000 rotate
0.000000 0 m /M glyphshow
1.725586 0 m /A glyphshow
3.093750 0 m /E glyphshow
grestore
gsave
402.12 142.414286 m
456.48 142.414286 l
456.48 158.271429 l
402.12 158.271429 l
cl
gsave
1.000 setgray
fill
grestore
stroke
grestore
gsave
426.471875 149.795982 translate
0.000000 rotate
0.000000 0 m /R glyphshow
1.389648 0 m /M glyphshow
3.115234 0 m /S glyphshow
4.384766 0 m /E glyphshow
grestore
gsave
456.48 142.414286 m
510.84 142.414286 l
510.84 158.271429 l
456.48 158.271429 l
cl
gsave
1.000 setgray
fill
grestore
stroke
grestore
gsave
480.870937 149.795982 translate
0.000000 rotate
0.000000 0 m /M glyphshow
1.725586 0 m /A glyphshow
3.093750 0 m /P glyphshow
4.299805 0 m /E glyphshow
grestore
gsave
510.84 142.414286 m
565.2 142.414286 l
565.2 158.271429 l
510.84 158.271429 l
cl
gsave
1.000 setgray
fill
grestore
stroke
grestore
gsave
536.684062 149.795982 translate
0.000000 rotate
0.000000 0 m /R glyphshow
1.389648 0 m /two glyphshow
grestore
gsave
293.4 126.557143 m
347.76 126.557143 l
347.76 142.414286 l
293.4 142.414286 l
cl
gsave
1.000 setgray
fill
grestore
stroke
grestore
gsave
339.120875 133.938839 translate
0.000000 rotate
0.000000 0 m /zero glyphshow
1.272461 0 m /period glyphshow
1.908203 0 m /zero glyphshow
grestore
gsave
347.76 126.557143 m
402.12 126.557143 l
402.12 142.414286 l
347.76 142.414286 l
cl
gsave
1.000 setgray
fill
grestore
stroke
grestore
gsave
393.480875 133.938839 translate
0.000000 rotate
0.000000 0 m /one glyphshow
1.272461 0 m /period glyphshow
1.908203 0 m /zero glyphshow
grestore
gsave
402.12 126.557143 m
456.48 126.557143 l
456.48 142.414286 l
402.12 142.414286 l
cl
gsave
1.000 setgray
fill
grestore
stroke
grestore
gsave
447.840875 133.938839 translate
0.000000 rotate
0.000000 0 m /three glyphshow
1.272461 0 m /period glyphshow
1.908203 0 m /zero glyphshow
grestore
gsave
456.48 126.557143 m
510.84 126.557143 l
510.84 142.414286 l
456.48 142.414286 l
cl
gsave
1.000 setgray
fill
grestore
stroke
grestore
gsave
482.982125 133.938839 translate
0.000000 rotate
0.000000 0 m /zero glyphshow
1.272461 0 m /period glyphshow
1.908203 0 m /four glyphshow
3.180664 0 m /seven glyphshow
4.453125 0 m /zero glyphshow
5.725586 0 m /eight glyphshow
6.998047 0 m /five glyphshow
8.270508 0 m /zero glyphshow
9.542969 0 m /nine glyphshow
10.815430 0 m /nine glyphshow
12.087891 0 m /three glyphshow
13.360352 0 m /six glyphshow
14.632812 0 m /two glyphshow
15.905273 0 m /one glyphshow
17.177734 0 m /five glyphshow
18.450195 0 m /nine glyphshow
19.722656 0 m /seven glyphshow
20.995117 0 m /two glyphshow
grestore
gsave
510.84 126.557143 m
565.2 126.557143 l
565.2 142.414286 l
510.84 142.414286 l
cl
gsave
1.000 setgray
fill
grestore
stroke
grestore
gsave
537.904625 133.938839 translate
0.000000 rotate
0.000000 0 m /hyphen glyphshow
0.721680 0 m /eight glyphshow
1.994141 0 m /six glyphshow
3.266602 0 m /period glyphshow
3.902344 0 m /four glyphshow
5.174805 0 m /eight glyphshow
6.447266 0 m /six glyphshow
7.719727 0 m /nine glyphshow
8.992188 0 m /seven glyphshow
10.264648 0 m /three glyphshow
11.537109 0 m /seven glyphshow
12.809570 0 m /zero glyphshow
14.082031 0 m /seven glyphshow
15.354492 0 m /three glyphshow
16.626953 0 m /four glyphshow
17.899414 0 m /three glyphshow
19.171875 0 m /eight glyphshow
20.444336 0 m /nine glyphshow
grestore
gsave
293.4 110.7 m
347.76 110.7 l
347.76 126.557143 l
293.4 126.557143 l
cl
gsave
1.000 setgray
fill
grestore
stroke
grestore
gsave
337.839625 118.081696 translate
0.000000 rotate
0.000000 0 m /two glyphshow
1.272461 0 m /five glyphshow
2.544922 0 m /period glyphshow
3.180664 0 m /zero glyphshow
grestore
gsave
347.76 110.7 m
402.12 110.7 l
402.12 126.557143 l
347.76 126.557143 l
cl
gsave
1.000 setgray
fill
grestore
stroke
grestore
gsave
392.199625 118.081696 translate
0.000000 rotate
0.000000 0 m /one glyphshow
1.272461 0 m /period glyphshow
1.908203 0 m /seven glyphshow
3.180664 0 m /five glyphshow
grestore
gsave
402.12 110.7 m
456.48 110.7 l
456.48 126.557143 l
402.12 126.557143 l
cl
gsave
1.000 setgray
fill
grestore
stroke
grestore
gsave
446.559625 118.081696 translate
0.000000 rotate
0.000000 0 m /four glyphshow
1.272461 0 m /period glyphshow
1.908203 0 m /seven glyphshow
3.180664 0 m /five glyphshow
grestore
gsave
456.48 110.7 m
510.84 110.7 l
510.84 126.557143 l
456.48 126.557143 l
cl
gsave
1.000 setgray
fill
grestore
stroke
grestore
gsave
484.263375 118.081696 translate
0.000000 rotate
0.000000 0 m /zero glyphshow
1.272461 0 m /period glyphshow
1.908203 0 m /five glyphshow
3.180664 0 m /five glyphshow
4.453125 0 m /seven glyphshow
5.725586 0 m /one glyphshow
6.998047 0 m /four glyphshow
8.270508 0 m /five glyphshow
9.542969 0 m /three glyphshow
10.815430 0 m /nine glyphshow
12.087891 0 m /five glyphshow
13.360352 0 m /three glyphshow
14.632812 0 m /two glyphshow
15.905273 0 m /seven glyphshow
17.177734 0 m /one glyphshow
18.450195 0 m /eight glyphshow
19.722656 0 m /four glyphshow
grestore
gsave
510.84 110.7 m
565.2 110.7 l
565.2 126.557143 l
510.84 126.557143 l
cl
gsave
1.000 setgray
fill
grestore
stroke
grestore
gsave
537.904625 118.081696 translate
0.000000 rotate
0.000000 0 m /hyphen glyphshow
0.721680 0 m /eight glyphshow
1.994141 0 m /period glyphshow
2.629883 0 m /nine glyphshow
3.902344 0 m /six glyphshow
5.174805 0 m /seven glyphshow
6.447266 0 m /four glyphshow
7.719727 0 m /three glyphshow
8.992188 0 m /three glyphshow
10.264648 0 m /zero glyphshow
11.537109 0 m /one glyphshow
12.809570 0 m /six glyphshow
14.082031 0 m /five glyphshow
15.354492 0 m /one glyphshow
16.626953 0 m /seven glyphshow
17.899414 0 m /four glyphshow
19.171875 0 m /zero glyphshow
20.444336 0 m /eight glyphshow
grestore
gsave
293.4 94.842857 m
347.76 94.842857 l
347.76 110.7 l
293.4 110.7 l
cl
gsave
1.000 setgray
fill
grestore
stroke
grestore
gsave
337.839625 102.224554 translate
0.000000 rotate
0.000000 0 m /five glyphshow
1.272461 0 m /zero glyphshow
2.544922 0 m /period glyphshow
3.180664 0 m /zero glyphshow
grestore
gsave
347.76 94.842857 m
402.12 94.842857 l
402.12 110.7 l
347.76 110.7 l
cl
gsave
1.000 setgray
fill
grestore
stroke
grestore
gsave
393.480875 102.224554 translate
0.000000 rotate
0.000000 0 m /four glyphshow
1.272461 0 m /period glyphshow
1.908203 0 m /five glyphshow
grestore
gsave
402.12 94.842857 m
456.48 94.842857 l
456.48 110.7 l
402.12 110.7 l
cl
gsave
1.000 setgray
fill
grestore
stroke
grestore
gsave
446.559625 102.224554 translate
0.000000 rotate
0.000000 0 m /one glyphshow
1.272461 0 m /seven glyphshow
2.544922 0 m /period glyphshow
3.180664 0 m /five glyphshow
grestore
gsave
456.48 94.842857 m
510.84 94.842857 l
510.84 110.7 l
456.48 110.7 l
cl
gsave
1.000 setgray
fill
grestore
stroke
grestore
gsave
486.825875 102.224554 translate
0.000000 rotate
0.000000 0 m /zero glyphshow
1.272461 0 m /period glyphshow
1.908203 0 m /nine glyphshow
3.180664 0 m /six glyphshow
4.453125 0 m /zero glyphshow
5.725586 0 m /one glyphshow
6.998047 0 m /three glyphshow
8.270508 0 m /four glyphshow
9.542969 0 m /six glyphshow
10.815430 0 m /eight glyphshow
12.087891 0 m /zero glyphshow
13.360352 0 m /zero glyphshow
14.632812 0 m /zero glyphshow
15.905273 0 m /nine glyphshow
17.177734 0 m /one glyphshow
grestore
gsave
510.84 94.842857 m
565.2 94.842857 l
565.2 110.7 l
510.84 110.7 l
cl
gsave
1.000 setgray
fill
grestore
stroke
grestore
gsave
535.342125 102.224554 translate
0.000000 rotate
0.000000 0 m /hyphen glyphshow
0.721680 0 m /zero glyphshow
1.994141 0 m /period glyphshow
2.629883 0 m /one glyphshow
3.902344 0 m /five glyphshow
5.174805 0 m /eight glyphshow
6.447266 0 m /three glyphshow
7.719727 0 m /zero glyphshow
8.992188 0 m /four glyphshow
10.264648 0 m /nine glyphshow
11.537109 0 m /eight glyphshow
12.809570 0 m /two glyphshow
14.082031 0 m /seven glyphshow
15.354492 0 m /six glyphshow
16.626953 0 m /four glyphshow
17.899414 0 m /one glyphshow
19.171875 0 m /two glyphshow
20.444336 0 m /five glyphshow
21.716797 0 m /five glyphshow
22.989258 0 m /two glyphshow
grestore
gsave
293.4 78.985714 m
347.76 78.985714 l
347.76 94.842857 l
293.4 94.842857 l
cl
gsave
1.000 setgray
fill
grestore
stroke
grestore
gsave
337.839625 86.367411 translate
0.000000 rotate
0.000000 0 m /seven glyphshow
1.272461 0 m /five glyphshow
2.544922 0 m /period glyphshow
3.180664 0 m /zero glyphshow
grestore
gsave
347.76 78.985714 m
402.12 78.985714 l
402.12 94.842857 l
347.76 94.842857 l
cl
gsave
1.000 setgray
fill
grestore
stroke
grestore
gsave
392.199625 86.367411 translate
0.000000 rotate
0.000000 0 m /one glyphshow
1.272461 0 m /six glyphshow
2.544922 0 m /period glyphshow
3.180664 0 m /zero glyphshow
grestore
gsave
402.12 78.985714 m
456.48 78.985714 l
456.48 94.842857 l
402.12 94.842857 l
cl
gsave
1.000 setgray
fill
grestore
stroke
grestore
gsave
445.278375 86.367411 translate
0.000000 rotate
0.000000 0 m /eight glyphshow
1.272461 0 m /two glyphshow
2.544922 0 m /period glyphshow
3.180664 0 m /seven glyphshow
4.453125 0 m /five glyphshow
grestore
gsave
456.48 78.985714 m
510.84 78.985714 l
510.84 94.842857 l
456.48 94.842857 l
cl
gsave
1.000 setgray
fill
grestore
stroke
grestore
gsave
485.544625 86.367411 translate
0.000000 rotate
0.000000 0 m /three glyphshow
1.272461 0 m /period glyphshow
1.908203 0 m /nine glyphshow
3.180664 0 m /two glyphshow
4.453125 0 m /zero glyphshow
5.725586 0 m /four glyphshow
6.998047 0 m /nine glyphshow
8.270508 0 m /four glyphshow
9.542969 0 m /three glyphshow
10.815430 0 m /five glyphshow
12.087891 0 m /four glyphshow
13.360352 0 m /nine glyphshow
14.632812 0 m /one glyphshow
15.905273 0 m /seven glyphshow
17.177734 0 m /zero glyphshow
18.450195 0 m /six glyphshow
grestore
gsave
510.84 78.985714 m
565.2 78.985714 l
565.2 94.842857 l
510.84 94.842857 l
cl
gsave
1.000 setgray
fill
grestore
stroke
grestore
gsave
532.779625 86.367411 translate
0.000000 rotate
0.000000 0 m /hyphen glyphshow
0.721680 0 m /zero glyphshow
1.994141 0 m /period glyphshow
2.629883 0 m /zero glyphshow
3.902344 0 m /zero glyphshow
5.174805 0 m /seven glyphshow
6.447266 0 m /seven glyphshow
7.719727 0 m /seven glyphshow
8.992188 0 m /five glyphshow
10.264648 0 m /eight glyphshow
11.537109 0 m /nine glyphshow
12.809570 0 m /one glyphshow
14.082031 0 m /eight glyphshow
15.354492 0 m /eight glyphshow
16.626953 0 m /zero glyphshow
17.899414 0 m /one glyphshow
19.171875 0 m /zero glyphshow
20.444336 0 m /five glyphshow
21.716797 0 m /six glyphshow
22.989258 0 m /zero glyphshow
24.261719 0 m /six glyphshow
25.534180 0 m /five glyphshow
grestore
gsave
293.4 63.128571 m
347.76 63.128571 l
347.76 78.985714 l
293.4 78.985714 l
cl
gsave
1.000 setgray
fill
grestore
stroke
grestore
gsave
336.558375 70.510268 translate
0.000000 rotate
0.000000 0 m /one glyphshow
1.272461 0 m /zero glyphshow
2.544922 0 m /zero glyphshow
3.817383 0 m /period glyphshow
4.453125 0 m /zero glyphshow
grestore
gsave
347.76 63.128571 m
402.12 63.128571 l
402.12 78.985714 l
347.76 78.985714 l
cl
gsave
1.000 setgray
fill
grestore
stroke
grestore
gsave
392.199625 70.510268 translate
0.000000 rotate
0.000000 0 m /three glyphshow
1.272461 0 m /two glyphshow
2.544922 0 m /period glyphshow
3.180664 0 m /zero glyphshow
grestore
gsave
402.12 63.128571 m
456.48 63.128571 l
456.48 78.985714 l
402.12 78.985714 l
cl
gsave
1.000 setgray
fill
grestore
stroke
grestore
gsave
445.278375 70.510268 translate
0.000000 rotate
0.000000 0 m /two glyphshow
1.272461 0 m /three glyphshow
2.544922 0 m /three glyphshow
3.817383 0 m /period glyphshow
4.453125 0 m /zero glyphshow
grestore
gsave
456.48 63.128571 m
510.84 63.128571 l
510.84 78.985714 l
456.48 78.985714 l
cl
gsave
1.000 setgray
fill
grestore
stroke
grestore
gsave
484.263375 70.510268 translate
0.000000 rotate
0.000000 0 m /eight glyphshow
1.272461 0 m /period glyphshow
1.908203 0 m /six glyphshow
3.180664 0 m /zero glyphshow
4.453125 0 m /seven glyphshow
5.725586 0 m /seven glyphshow
6.998047 0 m /nine glyphshow
8.270508 0 m /four glyphshow
9.542969 0 m /eight glyphshow
10.815430 0 m /four glyphshow
12.087891 0 m /seven glyphshow
13.360352 0 m /two glyphshow
14.632812 0 m /four glyphshow
15.905273 0 m /five glyphshow
17.177734 0 m /zero glyphshow
18.450195 0 m /three glyphshow
19.722656 0 m /five glyphshow
grestore
gsave
510.84 63.128571 m
565.2 63.128571 l
565.2 78.985714 l
510.84 78.985714 l
cl
gsave
1.000 setgray
fill
grestore
stroke
grestore
gsave
536.060875 70.510268 translate
0.000000 rotate
0.000000 0 m /zero glyphshow
1.272461 0 m /period glyphshow
1.908203 0 m /one glyphshow
3.180664 0 m /six glyphshow
4.453125 0 m /five glyphshow
5.725586 0 m /five glyphshow
6.998047 0 m /one glyphshow
8.270508 0 m /five glyphshow
9.542969 0 m /two glyphshow
10.815430 0 m /five glyphshow
12.087891 0 m /four glyphshow
13.360352 0 m /eight glyphshow
14.632812 0 m /eight glyphshow
15.905273 0 m /four glyphshow
17.177734 0 m /nine glyphshow
18.450195 0 m /one glyphshow
19.722656 0 m /four glyphshow
20.995117 0 m /zero glyphshow
22.267578 0 m /three glyphshow
grestore

end
showpage
