%!PS-Adobe-3.0 EPSF-3.0
%%Title: figure_5_time_series_neighbors_analysis.eps
%%Creator: Matplotlib v3.5.1, https://matplotlib.org/
%%CreationDate: Tue Jul 12 14:54:25 2022
%%Orientation: portrait
%%BoundingBox: 18 180 594 612
%%HiResBoundingBox: 18.000000 180.000000 594.000000 612.000000
%%EndComments
%%BeginProlog
/mpldict 11 dict def
mpldict begin
/_d { bind def } bind def
/m { moveto } _d
/l { lineto } _d
/r { rlineto } _d
/c { curveto } _d
/cl { closepath } _d
/ce { closepath eofill } _d
/box {
      m
      1 index 0 r
      0 exch r
      neg 0 r
      cl
    } _d
/clipbox {
      box
      clip
      newpath
    } _d
/sc { setcachedevice } _d
%!PS-Adobe-3.0 Resource-Font
%%Creator: Converted from TrueType to Type 3 by Matplotlib.
10 dict begin
/FontName /DejaVuSans def
/PaintType 0 def
/FontMatrix [0.00048828125 0 0 0.00048828125 0 0] def
/FontBBox [-2090 -948 3673 2524] def
/FontType 3 def
/Encoding [/space /parenleft /parenright /zero /one /two /three /four /five /six /seven /eight /nine /B /C /D /P /R /a /c /d /e /g /h /i /l /m /n /o /r /s /t /u] def
/CharStrings 34 dict dup begin
/.notdef 0 def
/space{651 0 0 0 0 0 sc
ce} _d
/parenleft{799 0 176 -270 635 1554 sc
635 1554 m
546 1401 479 1249 436 1099 c
393 949 371 797 371 643 c
371 489 393 336 436 185 c
480 34 546 -117 635 -270 c
475 -270 l
375 -113 300 41 250 192 c
201 343 176 494 176 643 c
176 792 201 941 250 1092 c
299 1243 374 1397 475 1554 c
635 1554 l

ce} _d
/parenright{799 0 164 -270 623 1554 sc
164 1554 m
324 1554 l
424 1397 499 1243 548 1092 c
598 941 623 792 623 643 c
623 494 598 343 548 192 c
499 41 424 -113 324 -270 c
164 -270 l
253 -117 319 34 362 185 c
406 336 428 489 428 643 c
428 797 406 949 362 1099 c
319 1249 253 1401 164 1554 c

ce} _d
/zero{1303 0 135 -29 1167 1520 sc
651 1360 m
547 1360 469 1309 416 1206 c
364 1104 338 950 338 745 c
338 540 364 387 416 284 c
469 182 547 131 651 131 c
756 131 834 182 886 284 c
939 387 965 540 965 745 c
965 950 939 1104 886 1206 c
834 1309 756 1360 651 1360 c

651 1520 m
818 1520 946 1454 1034 1321 c
1123 1189 1167 997 1167 745 c
1167 494 1123 302 1034 169 c
946 37 818 -29 651 -29 c
484 -29 356 37 267 169 c
179 302 135 494 135 745 c
135 997 179 1189 267 1321 c
356 1454 484 1520 651 1520 c

ce} _d
/one{1303 0 225 0 1114 1493 sc
254 170 m
584 170 l
584 1309 l
225 1237 l
225 1421 l
582 1493 l
784 1493 l
784 170 l
1114 170 l
1114 0 l
254 0 l
254 170 l

ce} _d
/two{1303 0 150 0 1098 1520 sc
393 170 m
1098 170 l
1098 0 l
150 0 l
150 170 l
227 249 331 356 463 489 c
596 623 679 709 713 748 c
778 821 823 882 848 932 c
874 983 887 1032 887 1081 c
887 1160 859 1225 803 1275 c
748 1325 675 1350 586 1350 c
523 1350 456 1339 385 1317 c
315 1295 240 1262 160 1217 c
160 1421 l
241 1454 317 1478 388 1495 c
459 1512 523 1520 582 1520 c
737 1520 860 1481 952 1404 c
1044 1327 1090 1223 1090 1094 c
1090 1033 1078 974 1055 919 c
1032 864 991 800 930 725 c
913 706 860 650 771 557 c
682 465 556 336 393 170 c

ce} _d
/three{1303 0 156 -29 1139 1520 sc
831 805 m
928 784 1003 741 1057 676 c
1112 611 1139 530 1139 434 c
1139 287 1088 173 987 92 c
886 11 742 -29 555 -29 c
492 -29 428 -23 361 -10 c
295 2 227 20 156 45 c
156 240 l
212 207 273 183 340 166 c
407 149 476 141 549 141 c
676 141 772 166 838 216 c
905 266 938 339 938 434 c
938 522 907 591 845 640 c
784 690 698 715 588 715 c
414 715 l
414 881 l
596 881 l
695 881 771 901 824 940 c
877 980 903 1037 903 1112 c
903 1189 876 1247 821 1288 c
767 1329 689 1350 588 1350 c
533 1350 473 1344 410 1332 c
347 1320 277 1301 201 1276 c
201 1456 l
278 1477 349 1493 416 1504 c
483 1515 547 1520 606 1520 c
759 1520 881 1485 970 1415 c
1059 1346 1104 1252 1104 1133 c
1104 1050 1080 980 1033 923 c
986 866 918 827 831 805 c

ce} _d
/four{1303 0 100 0 1188 1493 sc
774 1317 m
264 520 l
774 520 l
774 1317 l

721 1493 m
975 1493 l
975 520 l
1188 520 l
1188 352 l
975 352 l
975 0 l
774 0 l
774 352 l
100 352 l
100 547 l
721 1493 l

ce} _d
/five{1303 0 158 -29 1124 1493 sc
221 1493 m
1014 1493 l
1014 1323 l
406 1323 l
406 957 l
435 967 465 974 494 979 c
523 984 553 987 582 987 c
749 987 881 941 978 850 c
1075 759 1124 635 1124 479 c
1124 318 1074 193 974 104 c
874 15 733 -29 551 -29 c
488 -29 424 -24 359 -13 c
294 -2 227 14 158 35 c
158 238 l
218 205 280 181 344 165 c
408 149 476 141 547 141 c
662 141 754 171 821 232 c
888 293 922 375 922 479 c
922 583 888 665 821 726 c
754 787 662 817 547 817 c
493 817 439 811 385 799 c
332 787 277 768 221 743 c
221 1493 l

ce} _d
/six{1303 0 143 -29 1174 1520 sc
676 827 m
585 827 513 796 460 734 c
407 672 381 587 381 479 c
381 372 407 287 460 224 c
513 162 585 131 676 131 c
767 131 838 162 891 224 c
944 287 971 372 971 479 c
971 587 944 672 891 734 c
838 796 767 827 676 827 c

1077 1460 m
1077 1276 l
1026 1300 975 1318 923 1331 c
872 1344 821 1350 770 1350 c
637 1350 535 1305 464 1215 c
394 1125 354 989 344 807 c
383 865 433 909 492 940 c
551 971 617 987 688 987 c
838 987 956 941 1043 850 c
1130 759 1174 636 1174 479 c
1174 326 1129 203 1038 110 c
947 17 827 -29 676 -29 c
503 -29 371 37 280 169 c
189 302 143 494 143 745 c
143 981 199 1169 311 1309 c
423 1450 573 1520 762 1520 c
813 1520 864 1515 915 1505 c
967 1495 1021 1480 1077 1460 c

ce} _d
/seven{1303 0 168 0 1128 1493 sc
168 1493 m
1128 1493 l
1128 1407 l
586 0 l
375 0 l
885 1323 l
168 1323 l
168 1493 l

ce} _d
/eight{1303 0 139 -29 1163 1520 sc
651 709 m
555 709 479 683 424 632 c
369 581 342 510 342 420 c
342 330 369 259 424 208 c
479 157 555 131 651 131 c
747 131 823 157 878 208 c
933 260 961 331 961 420 c
961 510 933 581 878 632 c
823 683 748 709 651 709 c

449 795 m
362 816 295 857 246 916 c
198 975 174 1048 174 1133 c
174 1252 216 1347 301 1416 c
386 1485 503 1520 651 1520 c
800 1520 916 1485 1001 1416 c
1086 1347 1128 1252 1128 1133 c
1128 1048 1104 975 1055 916 c
1007 857 940 816 854 795 c
951 772 1027 728 1081 662 c
1136 596 1163 515 1163 420 c
1163 275 1119 164 1030 87 c
942 10 816 -29 651 -29 c
486 -29 360 10 271 87 c
183 164 139 275 139 420 c
139 515 166 596 221 662 c
276 728 352 772 449 795 c

375 1114 m
375 1037 399 976 447 933 c
496 890 564 868 651 868 c
738 868 805 890 854 933 c
903 976 928 1037 928 1114 c
928 1191 903 1252 854 1295 c
805 1338 738 1360 651 1360 c
564 1360 496 1338 447 1295 c
399 1252 375 1191 375 1114 c

ce} _d
/nine{1303 0 129 -29 1159 1520 sc
225 31 m
225 215 l
276 191 327 173 379 160 c
431 147 482 141 532 141 c
665 141 767 186 837 275 c
908 365 948 501 958 684 c
919 627 870 583 811 552 c
752 521 686 506 614 506 c
465 506 346 551 259 641 c
172 732 129 855 129 1012 c
129 1165 174 1288 265 1381 c
356 1474 476 1520 627 1520 c
800 1520 931 1454 1022 1321 c
1113 1189 1159 997 1159 745 c
1159 510 1103 322 991 181 c
880 41 730 -29 541 -29 c
490 -29 439 -24 387 -14 c
335 -4 281 11 225 31 c

627 664 m
718 664 789 695 842 757 c
895 819 922 904 922 1012 c
922 1119 895 1204 842 1266 c
789 1329 718 1360 627 1360 c
536 1360 464 1329 411 1266 c
358 1204 332 1119 332 1012 c
332 904 358 819 411 757 c
464 695 536 664 627 664 c

ce} _d
/B{1405 0 201 0 1260 1493 sc
403 713 m
403 166 l
727 166 l
836 166 916 188 968 233 c
1021 278 1047 347 1047 440 c
1047 533 1021 602 968 646 c
916 691 836 713 727 713 c
403 713 l

403 1327 m
403 877 l
702 877 l
801 877 874 895 922 932 c
971 969 995 1026 995 1102 c
995 1177 971 1234 922 1271 c
874 1308 801 1327 702 1327 c
403 1327 l

201 1493 m
717 1493 l
871 1493 990 1461 1073 1397 c
1156 1333 1198 1242 1198 1124 c
1198 1033 1177 960 1134 906 c
1091 852 1029 818 946 805 c
1045 784 1122 739 1177 671 c
1232 604 1260 519 1260 418 c
1260 285 1215 182 1124 109 c
1033 36 904 0 737 0 c
201 0 l
201 1493 l

ce} _d
/C{1430 0 115 -29 1319 1520 sc
1319 1378 m
1319 1165 l
1251 1228 1178 1276 1101 1307 c
1024 1338 943 1354 856 1354 c
685 1354 555 1302 464 1197 c
373 1093 328 942 328 745 c
328 548 373 398 464 293 c
555 189 685 137 856 137 c
943 137 1024 153 1101 184 c
1178 215 1251 263 1319 326 c
1319 115 l
1248 67 1173 31 1094 7 c
1015 -17 932 -29 844 -29 c
618 -29 440 40 310 178 c
180 317 115 506 115 745 c
115 985 180 1174 310 1312 c
440 1451 618 1520 844 1520 c
933 1520 1017 1508 1096 1484 c
1175 1461 1250 1425 1319 1378 c

ce} _d
/D{1577 0 201 0 1456 1493 sc
403 1327 m
403 166 l
647 166 l
853 166 1004 213 1099 306 c
1195 399 1243 547 1243 748 c
1243 948 1195 1094 1099 1187 c
1004 1280 853 1327 647 1327 c
403 1327 l

201 1493 m
616 1493 l
905 1493 1118 1433 1253 1312 c
1388 1192 1456 1004 1456 748 c
1456 491 1388 302 1252 181 c
1116 60 904 0 616 0 c
201 0 l
201 1493 l

ce} _d
/P{1235 0 201 0 1165 1493 sc
403 1327 m
403 766 l
657 766 l
751 766 824 790 875 839 c
926 888 952 957 952 1047 c
952 1136 926 1205 875 1254 c
824 1303 751 1327 657 1327 c
403 1327 l

201 1493 m
657 1493 l
824 1493 951 1455 1036 1379 c
1122 1304 1165 1193 1165 1047 c
1165 900 1122 788 1036 713 c
951 638 824 600 657 600 c
403 600 l
403 0 l
201 0 l
201 1493 l

ce} _d
/R{1423 0 201 0 1364 1493 sc
909 700 m
952 685 994 654 1035 606 c
1076 558 1118 492 1159 408 c
1364 0 l
1147 0 l
956 383 l
907 483 859 549 812 582 c
766 615 703 631 623 631 c
403 631 l
403 0 l
201 0 l
201 1493 l
657 1493 l
828 1493 955 1457 1039 1386 c
1123 1315 1165 1207 1165 1063 c
1165 969 1143 891 1099 829 c
1056 767 992 724 909 700 c

403 1327 m
403 797 l
657 797 l
754 797 828 819 877 864 c
927 909 952 976 952 1063 c
952 1150 927 1216 877 1260 c
828 1305 754 1327 657 1327 c
403 1327 l

ce} _d
/a{1255 0 123 -29 1069 1147 sc
702 563 m
553 563 450 546 393 512 c
336 478 307 420 307 338 c
307 273 328 221 371 182 c
414 144 473 125 547 125 c
649 125 731 161 792 233 c
854 306 885 402 885 522 c
885 563 l
702 563 l

1069 639 m
1069 0 l
885 0 l
885 170 l
843 102 791 52 728 19 c
665 -13 589 -29 498 -29 c
383 -29 292 3 224 67 c
157 132 123 218 123 326 c
123 452 165 547 249 611 c
334 675 460 707 627 707 c
885 707 l
885 725 l
885 810 857 875 801 921 c
746 968 668 991 567 991 c
503 991 441 983 380 968 c
319 953 261 930 205 899 c
205 1069 l
272 1095 338 1114 401 1127 c
464 1140 526 1147 586 1147 c
748 1147 869 1105 949 1021 c
1029 937 1069 810 1069 639 c

ce} _d
/c{1126 0 113 -29 999 1147 sc
999 1077 m
999 905 l
947 934 895 955 842 969 c
790 984 737 991 684 991 c
565 991 472 953 406 877 c
340 802 307 696 307 559 c
307 422 340 316 406 240 c
472 165 565 127 684 127 c
737 127 790 134 842 148 c
895 163 947 184 999 213 c
999 43 l
948 19 894 1 839 -11 c
784 -23 726 -29 664 -29 c
495 -29 361 24 262 130 c
163 236 113 379 113 559 c
113 742 163 885 263 990 c
364 1095 501 1147 676 1147 c
733 1147 788 1141 842 1129 c
896 1118 948 1100 999 1077 c

ce} _d
/d{1300 0 113 -29 1114 1556 sc
930 950 m
930 1556 l
1114 1556 l
1114 0 l
930 0 l
930 168 l
891 101 842 52 783 19 c
724 -13 654 -29 571 -29 c
436 -29 325 25 240 133 c
155 241 113 383 113 559 c
113 735 155 877 240 985 c
325 1093 436 1147 571 1147 c
654 1147 724 1131 783 1098 c
842 1066 891 1017 930 950 c

303 559 m
303 424 331 317 386 240 c
442 163 519 125 616 125 c
713 125 790 163 846 240 c
902 317 930 424 930 559 c
930 694 902 800 846 877 c
790 954 713 993 616 993 c
519 993 442 954 386 877 c
331 800 303 694 303 559 c

ce} _d
/e{1260 0 113 -29 1151 1147 sc
1151 606 m
1151 516 l
305 516 l
313 389 351 293 419 226 c
488 160 583 127 705 127 c
776 127 844 136 910 153 c
977 170 1043 196 1108 231 c
1108 57 l
1042 29 974 8 905 -7 c
836 -22 765 -29 694 -29 c
515 -29 374 23 269 127 c
165 231 113 372 113 549 c
113 732 162 878 261 985 c
360 1093 494 1147 662 1147 c
813 1147 932 1098 1019 1001 c
1107 904 1151 773 1151 606 c

967 660 m
966 761 937 841 882 901 c
827 961 755 991 664 991 c
561 991 479 962 417 904 c
356 846 320 764 311 659 c
967 660 l

ce} _d
/g{1300 0 113 -426 1114 1147 sc
930 573 m
930 706 902 810 847 883 c
792 956 715 993 616 993 c
517 993 440 956 385 883 c
330 810 303 706 303 573 c
303 440 330 337 385 264 c
440 191 517 154 616 154 c
715 154 792 191 847 264 c
902 337 930 440 930 573 c

1114 139 m
1114 -52 1072 -193 987 -286 c
902 -379 773 -426 598 -426 c
533 -426 472 -421 415 -411 c
358 -402 302 -387 248 -367 c
248 -188 l
302 -217 355 -239 408 -253 c
461 -267 514 -274 569 -274 c
690 -274 780 -242 840 -179 c
900 -116 930 -21 930 106 c
930 197 l
892 131 843 82 784 49 c
725 16 654 0 571 0 c
434 0 323 52 239 157 c
155 262 113 400 113 573 c
113 746 155 885 239 990 c
323 1095 434 1147 571 1147 c
654 1147 725 1131 784 1098 c
843 1065 892 1016 930 950 c
930 1120 l
1114 1120 l
1114 139 l

ce} _d
/h{1298 0 186 0 1124 1556 sc
1124 676 m
1124 0 l
940 0 l
940 670 l
940 776 919 855 878 908 c
837 961 775 987 692 987 c
593 987 514 955 457 892 c
400 829 371 742 371 633 c
371 0 l
186 0 l
186 1556 l
371 1556 l
371 946 l
415 1013 467 1064 526 1097 c
586 1130 655 1147 733 1147 c
862 1147 959 1107 1025 1027 c
1091 948 1124 831 1124 676 c

ce} _d
/i{569 0 193 0 377 1556 sc
193 1120 m
377 1120 l
377 0 l
193 0 l
193 1120 l

193 1556 m
377 1556 l
377 1323 l
193 1323 l
193 1556 l

ce} _d
/l{569 0 193 0 377 1556 sc
193 1556 m
377 1556 l
377 0 l
193 0 l
193 1556 l

ce} _d
/m{1995 0 186 0 1821 1147 sc
1065 905 m
1111 988 1166 1049 1230 1088 c
1294 1127 1369 1147 1456 1147 c
1573 1147 1663 1106 1726 1024 c
1789 943 1821 827 1821 676 c
1821 0 l
1636 0 l
1636 670 l
1636 777 1617 857 1579 909 c
1541 961 1483 987 1405 987 c
1310 987 1234 955 1179 892 c
1124 829 1096 742 1096 633 c
1096 0 l
911 0 l
911 670 l
911 778 892 858 854 909 c
816 961 757 987 678 987 c
584 987 509 955 454 891 c
399 828 371 742 371 633 c
371 0 l
186 0 l
186 1120 l
371 1120 l
371 946 l
413 1015 463 1065 522 1098 c
581 1131 650 1147 731 1147 c
812 1147 881 1126 938 1085 c
995 1044 1038 984 1065 905 c

ce} _d
/n{1298 0 186 0 1124 1147 sc
1124 676 m
1124 0 l
940 0 l
940 670 l
940 776 919 855 878 908 c
837 961 775 987 692 987 c
593 987 514 955 457 892 c
400 829 371 742 371 633 c
371 0 l
186 0 l
186 1120 l
371 1120 l
371 946 l
415 1013 467 1064 526 1097 c
586 1130 655 1147 733 1147 c
862 1147 959 1107 1025 1027 c
1091 948 1124 831 1124 676 c

ce} _d
/o{1253 0 113 -29 1141 1147 sc
627 991 m
528 991 450 952 393 875 c
336 798 307 693 307 559 c
307 425 335 319 392 242 c
449 165 528 127 627 127 c
725 127 803 166 860 243 c
917 320 946 426 946 559 c
946 692 917 797 860 874 c
803 952 725 991 627 991 c

627 1147 m
787 1147 913 1095 1004 991 c
1095 887 1141 743 1141 559 c
1141 376 1095 232 1004 127 c
913 23 787 -29 627 -29 c
466 -29 340 23 249 127 c
158 232 113 376 113 559 c
113 743 158 887 249 991 c
340 1095 466 1147 627 1147 c

ce} _d
/r{842 0 186 0 842 1147 sc
842 948 m
821 960 799 969 774 974 c
750 980 723 983 694 983 c
590 983 510 949 454 881 c
399 814 371 717 371 590 c
371 0 l
186 0 l
186 1120 l
371 1120 l
371 946 l
410 1014 460 1064 522 1097 c
584 1130 659 1147 748 1147 c
761 1147 775 1146 790 1144 c
805 1143 822 1140 841 1137 c
842 948 l

ce} _d
/s{1067 0 111 -29 967 1147 sc
907 1087 m
907 913 l
855 940 801 960 745 973 c
689 986 631 993 571 993 c
480 993 411 979 365 951 c
320 923 297 881 297 825 c
297 782 313 749 346 724 c
379 700 444 677 543 655 c
606 641 l
737 613 829 573 884 522 c
939 471 967 400 967 309 c
967 205 926 123 843 62 c
761 1 648 -29 504 -29 c
444 -29 381 -23 316 -11 c
251 0 183 18 111 41 c
111 231 l
179 196 246 169 312 151 c
378 134 443 125 508 125 c
595 125 661 140 708 169 c
755 199 778 241 778 295 c
778 345 761 383 727 410 c
694 437 620 462 506 487 c
442 502 l
328 526 246 563 195 612 c
144 662 119 730 119 817 c
119 922 156 1004 231 1061 c
306 1118 412 1147 549 1147 c
617 1147 681 1142 741 1132 c
801 1122 856 1107 907 1087 c

ce} _d
/t{803 0 55 0 754 1438 sc
375 1438 m
375 1120 l
754 1120 l
754 977 l
375 977 l
375 369 l
375 278 387 219 412 193 c
437 167 488 154 565 154 c
754 154 l
754 0 l
565 0 l
423 0 325 26 271 79 c
217 132 190 229 190 369 c
190 977 l
55 977 l
55 1120 l
190 1120 l
190 1438 l
375 1438 l

ce} _d
/u{1298 0 174 -29 1112 1147 sc
174 442 m
174 1120 l
358 1120 l
358 449 l
358 343 379 263 420 210 c
461 157 523 131 606 131 c
705 131 784 163 841 226 c
899 289 928 376 928 485 c
928 1120 l
1112 1120 l
1112 0 l
928 0 l
928 172 l
883 104 831 53 772 20 c
713 -13 645 -29 567 -29 c
438 -29 341 11 274 91 c
207 171 174 288 174 442 c

637 1147 m
637 1147 l

ce} _d
end readonly def

/BuildGlyph {
 exch begin
 CharStrings exch
 2 copy known not {pop /.notdef} if
 true 3 1 roll get exec
 end
} _d

/BuildChar {
 1 index /Encoding get exch get
 1 index /BuildGlyph get exec
} _d

FontName currentdict end definefont pop
end
%%EndProlog
mpldict begin
18 180 translate
576 432 0 0 clipbox
gsave
0 0 m
576 0 l
576 432 l
0 432 l
cl
1.000 setgray
fill
grestore
gsave
54.1 241.6 m
282.6 241.6 l
282.6 404 l
54.1 404 l
cl
1.000 setgray
fill
grestore
0.800 setlinewidth
1 setlinejoin
0 setlinecap
[] 0 setdash
0.000 setgray
gsave
/o {
gsave
newpath
translate
0.8 setlinewidth
1 setlinejoin

0 setlinecap

0 0 m
0 -3.5 l

gsave
0.000 setgray
fill
grestore
stroke
grestore
} bind def
64.4864 241.6 o
grestore
/DejaVuSans 13.000 selectfont
gsave

47.955114 224.725000 translate
0.000000 rotate
0.000000 0 m /two glyphshow
8.270996 0 m /zero glyphshow
16.541992 0 m /one glyphshow
24.812988 0 m /six glyphshow
grestore
gsave
/o {
gsave
newpath
translate
0.8 setlinewidth
1 setlinejoin

0 setlinecap

0 0 m
0 -3.5 l

gsave
0.000 setgray
fill
grestore
stroke
grestore
} bind def
109.078 241.6 o
grestore
gsave

92.546423 224.725000 translate
0.000000 rotate
0.000000 0 m /two glyphshow
8.270996 0 m /zero glyphshow
16.541992 0 m /one glyphshow
24.812988 0 m /seven glyphshow
grestore
gsave
/o {
gsave
newpath
translate
0.8 setlinewidth
1 setlinejoin

0 setlinecap

0 0 m
0 -3.5 l

gsave
0.000 setgray
fill
grestore
stroke
grestore
} bind def
153.547 241.6 o
grestore
gsave

137.015897 224.725000 translate
0.000000 rotate
0.000000 0 m /two glyphshow
8.270996 0 m /zero glyphshow
16.541992 0 m /one glyphshow
24.812988 0 m /eight glyphshow
grestore
gsave
/o {
gsave
newpath
translate
0.8 setlinewidth
1 setlinejoin

0 setlinecap

0 0 m
0 -3.5 l

gsave
0.000 setgray
fill
grestore
stroke
grestore
} bind def
198.017 241.6 o
grestore
gsave

181.485372 224.725000 translate
0.000000 rotate
0.000000 0 m /two glyphshow
8.270996 0 m /zero glyphshow
16.541992 0 m /one glyphshow
24.812988 0 m /nine glyphshow
grestore
gsave
/o {
gsave
newpath
translate
0.8 setlinewidth
1 setlinejoin

0 setlinecap

0 0 m
0 -3.5 l

gsave
0.000 setgray
fill
grestore
stroke
grestore
} bind def
242.486 241.6 o
grestore
gsave

225.954847 224.725000 translate
0.000000 rotate
0.000000 0 m /two glyphshow
8.270996 0 m /zero glyphshow
16.541992 0 m /two glyphshow
24.812988 0 m /zero glyphshow
grestore
gsave
/o {
gsave
newpath
translate
0.8 setlinewidth
1 setlinejoin

0 setlinecap

-0 0 m
-3.5 0 l

gsave
0.000 setgray
fill
grestore
stroke
grestore
} bind def
54.1 248.982 o
grestore
/DejaVuSans 10.000 selectfont
gsave

40.740625 245.184943 translate
0.000000 rotate
0.000000 0 m /zero glyphshow
grestore
gsave
/o {
gsave
newpath
translate
0.8 setlinewidth
1 setlinejoin

0 setlinecap

-0 0 m
-3.5 0 l

gsave
0.000 setgray
fill
grestore
stroke
grestore
} bind def
54.1 285.616 o
grestore
gsave

28.021875 281.819277 translate
0.000000 rotate
0.000000 0 m /two glyphshow
6.362305 0 m /zero glyphshow
12.724609 0 m /zero glyphshow
grestore
gsave
/o {
gsave
newpath
translate
0.8 setlinewidth
1 setlinejoin

0 setlinecap

-0 0 m
-3.5 0 l

gsave
0.000 setgray
fill
grestore
stroke
grestore
} bind def
54.1 322.25 o
grestore
gsave

28.021875 318.453610 translate
0.000000 rotate
0.000000 0 m /four glyphshow
6.362305 0 m /zero glyphshow
12.724609 0 m /zero glyphshow
grestore
gsave
/o {
gsave
newpath
translate
0.8 setlinewidth
1 setlinejoin

0 setlinecap

-0 0 m
-3.5 0 l

gsave
0.000 setgray
fill
grestore
stroke
grestore
} bind def
54.1 358.885 o
grestore
gsave

28.021875 355.087943 translate
0.000000 rotate
0.000000 0 m /six glyphshow
6.362305 0 m /zero glyphshow
12.724609 0 m /zero glyphshow
grestore
gsave
/o {
gsave
newpath
translate
0.8 setlinewidth
1 setlinejoin

0 setlinecap

-0 0 m
-3.5 0 l

gsave
0.000 setgray
fill
grestore
stroke
grestore
} bind def
54.1 395.519 o
grestore
gsave

28.021875 391.722277 translate
0.000000 rotate
0.000000 0 m /eight glyphshow
6.362305 0 m /zero glyphshow
12.724609 0 m /zero glyphshow
grestore
/DejaVuSans 13.000 selectfont
gsave

21.318750 276.057813 translate
90.000000 rotate
0.000000 0 m /D glyphshow
10.010254 0 m /e glyphshow
18.008301 0 m /n glyphshow
26.247559 0 m /g glyphshow
34.499512 0 m /u glyphshow
42.738770 0 m /e glyphshow
50.736816 0 m /space glyphshow
54.869141 0 m /C glyphshow
63.946289 0 m /a glyphshow
71.912598 0 m /s glyphshow
78.685547 0 m /e glyphshow
86.683594 0 m /s glyphshow
grestore
1.500 setlinewidth
2 setlinecap
0.122 0.467 0.706 setrgbcolor
gsave
228.5 162.4 54.1 241.6 clipbox
64.486364 259.05626 m
68.263223 269.313873 l
71.796414 302.467945 l
75.573274 396.618182 l
79.228299 318.587052 l
83.005159 264.734582 l
86.660184 251.36305 l
90.437043 249.16499 l
94.213903 249.16499 l
97.868928 249.531333 l
101.645788 250.080848 l
105.300813 251.36305 l
109.077673 255.575998 l
112.854532 253.56111 l
116.265889 251.729393 l
120.042749 251.729393 l
123.697774 250.630363 l
127.474633 250.447192 l
131.129659 250.630363 l
134.906518 249.348162 l
138.683378 249.897677 l
142.338403 250.996707 l
146.115263 249.897677 l
149.770288 250.080848 l
153.547147 252.095737 l
157.324007 251.912565 l
160.735364 253.56111 l
164.512223 259.239432 l
168.167249 261.620663 l
171.944108 255.209655 l
175.599134 255.75917 l
179.375993 253.744282 l
183.152853 250.996707 l
186.807878 252.095737 l
190.584737 250.996707 l
194.239763 258.689917 l
198.016622 265.284097 l
201.793482 259.972118 l
205.204839 276.64074 l
208.981698 317.488022 l
212.636724 367.86023 l
216.413583 293.492533 l
220.068608 261.071148 l
223.845468 254.476968 l
227.622327 251.36305 l
231.277353 250.996707 l
235.054212 249.897677 l
238.709238 251.179878 l
242.486097 250.813535 l
246.262957 250.996707 l
249.796148 250.26402 l
253.573007 250.26402 l
257.228033 249.348162 l
261.004892 248.981818 l
264.659917 249.348162 l
268.436777 249.16499 l
272.213636 249.531333 l
stroke
grestore
1.000 0.498 0.055 setrgbcolor
gsave
228.5 162.4 54.1 241.6 clipbox
64.486364 255.942342 m
68.263223 280.121002 l
71.796414 303.01746 l
75.573274 303.383803 l
79.228299 370.241462 l
83.005159 277.007083 l
86.660184 257.590887 l
90.437043 250.630363 l
94.213903 249.897677 l
97.868928 250.447192 l
101.645788 249.531333 l
105.300813 251.729393 l
109.077673 255.026483 l
112.854532 261.620663 l
116.265889 255.026483 l
120.042749 252.645252 l
123.697774 251.36305 l
127.474633 250.813535 l
131.129659 249.714505 l
134.906518 250.447192 l
138.683378 249.897677 l
142.338403 249.16499 l
146.115263 250.447192 l
149.770288 251.546222 l
153.547147 254.476968 l
157.324007 256.675028 l
160.735364 255.75917 l
164.512223 254.293797 l
168.167249 258.506745 l
171.944108 256.8582 l
175.599134 252.095737 l
179.375993 252.095737 l
183.152853 251.729393 l
186.807878 250.996707 l
190.584737 251.36305 l
194.239763 252.278908 l
198.016622 256.308685 l
201.793482 276.091225 l
205.204839 274.625852 l
208.981698 318.40388 l
212.636724 311.626528 l
216.413583 319.136567 l
220.068608 261.25432 l
223.845468 253.377938 l
227.622327 252.278908 l
231.277353 251.546222 l
235.054212 253.011595 l
238.709238 249.897677 l
242.486097 253.011595 l
246.262957 252.278908 l
249.796148 251.179878 l
253.573007 251.546222 l
257.228033 250.26402 l
261.004892 249.348162 l
264.659917 249.714505 l
268.436777 249.348162 l
272.213636 248.981818 l
stroke
grestore
0.800 setlinewidth
0 setlinejoin
0.000 setgray
gsave
54.1 241.6 m
54.1 404 l
stroke
grestore
gsave
282.6 241.6 m
282.6 404 l
stroke
grestore
gsave
54.1 241.6 m
282.6 241.6 l
stroke
grestore
gsave
54.1 404 m
282.6 404 l
stroke
grestore
/DejaVuSans 15.000 selectfont
gsave

104.592187 410.000000 translate
0.000000 rotate
0.000000 0 m /B glyphshow
10.290527 0 m /a glyphshow
19.482422 0 m /n glyphshow
28.989258 0 m /g glyphshow
38.510742 0 m /u glyphshow
48.017578 0 m /space glyphshow
52.785645 0 m /parenleft glyphshow
58.637695 0 m /one glyphshow
68.181152 0 m /space glyphshow
72.949219 0 m /m glyphshow
87.561035 0 m /o glyphshow
96.738281 0 m /n glyphshow
106.245117 0 m /t glyphshow
112.126465 0 m /h glyphshow
121.633301 0 m /parenright glyphshow
grestore
1.000 setlinewidth
0 setlinecap
0.800 setgray
gsave
170.853125 355.44375 m
273.5 355.44375 l
275.233333 355.44375 276.1 356.310417 276.1 358.04375 c
276.1 394.9 l
276.1 396.633333 275.233333 397.5 273.5 397.5 c
170.853125 397.5 l
169.119792 397.5 168.253125 396.633333 168.253125 394.9 c
168.253125 358.04375 l
168.253125 356.310417 169.119792 355.44375 170.853125 355.44375 c
cl
gsave
1.000 setgray
fill
grestore
stroke
grestore
1.500 setlinewidth
1 setlinejoin
2 setlinecap
0.122 0.467 0.706 setrgbcolor
gsave
173.453125 386.975 m
186.453125 386.975 l
199.453125 386.975 l
stroke
grestore
0.000 setgray
/DejaVuSans 13.000 selectfont
gsave

209.853125 382.425000 translate
0.000000 rotate
0.000000 0 m /R glyphshow
8.407715 0 m /e glyphshow
16.405762 0 m /a glyphshow
24.372070 0 m /l glyphshow
grestore
1.000 0.498 0.055 setrgbcolor
gsave
173.453125 367.896875 m
186.453125 367.896875 l
199.453125 367.896875 l
stroke
grestore
0.000 setgray
gsave

209.853125 363.346875 translate
0.000000 rotate
0.000000 0 m /P glyphshow
7.589355 0 m /r glyphshow
12.684082 0 m /e glyphshow
20.682129 0 m /d glyphshow
28.934082 0 m /i glyphshow
32.545898 0 m /c glyphshow
39.693359 0 m /t glyphshow
44.790527 0 m /e glyphshow
52.788574 0 m /d glyphshow
grestore
gsave
336.7 241.6 m
565.2 241.6 l
565.2 404 l
336.7 404 l
cl
1.000 setgray
fill
grestore
0.800 setlinewidth
0 setlinecap
gsave
/o {
gsave
newpath
translate
0.8 setlinewidth
1 setlinejoin

0 setlinecap

0 0 m
0 -3.5 l

gsave
0.000 setgray
fill
grestore
stroke
grestore
} bind def
347.086 241.6 o
grestore
gsave

330.555114 224.725000 translate
0.000000 rotate
0.000000 0 m /two glyphshow
8.270996 0 m /zero glyphshow
16.541992 0 m /one glyphshow
24.812988 0 m /six glyphshow
grestore
gsave
/o {
gsave
newpath
translate
0.8 setlinewidth
1 setlinejoin

0 setlinecap

0 0 m
0 -3.5 l

gsave
0.000 setgray
fill
grestore
stroke
grestore
} bind def
391.678 241.6 o
grestore
gsave

375.146423 224.725000 translate
0.000000 rotate
0.000000 0 m /two glyphshow
8.270996 0 m /zero glyphshow
16.541992 0 m /one glyphshow
24.812988 0 m /seven glyphshow
grestore
gsave
/o {
gsave
newpath
translate
0.8 setlinewidth
1 setlinejoin

0 setlinecap

0 0 m
0 -3.5 l

gsave
0.000 setgray
fill
grestore
stroke
grestore
} bind def
436.147 241.6 o
grestore
gsave

419.615897 224.725000 translate
0.000000 rotate
0.000000 0 m /two glyphshow
8.270996 0 m /zero glyphshow
16.541992 0 m /one glyphshow
24.812988 0 m /eight glyphshow
grestore
gsave
/o {
gsave
newpath
translate
0.8 setlinewidth
1 setlinejoin

0 setlinecap

0 0 m
0 -3.5 l

gsave
0.000 setgray
fill
grestore
stroke
grestore
} bind def
480.617 241.6 o
grestore
gsave

464.085372 224.725000 translate
0.000000 rotate
0.000000 0 m /two glyphshow
8.270996 0 m /zero glyphshow
16.541992 0 m /one glyphshow
24.812988 0 m /nine glyphshow
grestore
gsave
/o {
gsave
newpath
translate
0.8 setlinewidth
1 setlinejoin

0 setlinecap

0 0 m
0 -3.5 l

gsave
0.000 setgray
fill
grestore
stroke
grestore
} bind def
525.086 241.6 o
grestore
gsave

508.554847 224.725000 translate
0.000000 rotate
0.000000 0 m /two glyphshow
8.270996 0 m /zero glyphshow
16.541992 0 m /two glyphshow
24.812988 0 m /zero glyphshow
grestore
gsave
/o {
gsave
newpath
translate
0.8 setlinewidth
1 setlinejoin

0 setlinecap

-0 0 m
-3.5 0 l

gsave
0.000 setgray
fill
grestore
stroke
grestore
} bind def
336.7 248.982 o
grestore
/DejaVuSans 10.000 selectfont
gsave

323.340625 245.184943 translate
0.000000 rotate
0.000000 0 m /zero glyphshow
grestore
gsave
/o {
gsave
newpath
translate
0.8 setlinewidth
1 setlinejoin

0 setlinecap

-0 0 m
-3.5 0 l

gsave
0.000 setgray
fill
grestore
stroke
grestore
} bind def
336.7 271.017 o
grestore
gsave

310.621875 267.220221 translate
0.000000 rotate
0.000000 0 m /one glyphshow
6.362305 0 m /zero glyphshow
12.724609 0 m /zero glyphshow
grestore
gsave
/o {
gsave
newpath
translate
0.8 setlinewidth
1 setlinejoin

0 setlinecap

-0 0 m
-3.5 0 l

gsave
0.000 setgray
fill
grestore
stroke
grestore
} bind def
336.7 293.052 o
grestore
gsave

310.621875 289.255499 translate
0.000000 rotate
0.000000 0 m /two glyphshow
6.362305 0 m /zero glyphshow
12.724609 0 m /zero glyphshow
grestore
gsave
/o {
gsave
newpath
translate
0.8 setlinewidth
1 setlinejoin

0 setlinecap

-0 0 m
-3.5 0 l

gsave
0.000 setgray
fill
grestore
stroke
grestore
} bind def
336.7 315.088 o
grestore
gsave

310.621875 311.290778 translate
0.000000 rotate
0.000000 0 m /three glyphshow
6.362305 0 m /zero glyphshow
12.724609 0 m /zero glyphshow
grestore
gsave
/o {
gsave
newpath
translate
0.8 setlinewidth
1 setlinejoin

0 setlinecap

-0 0 m
-3.5 0 l

gsave
0.000 setgray
fill
grestore
stroke
grestore
} bind def
336.7 337.123 o
grestore
gsave

310.621875 333.326056 translate
0.000000 rotate
0.000000 0 m /four glyphshow
6.362305 0 m /zero glyphshow
12.724609 0 m /zero glyphshow
grestore
gsave
/o {
gsave
newpath
translate
0.8 setlinewidth
1 setlinejoin

0 setlinecap

-0 0 m
-3.5 0 l

gsave
0.000 setgray
fill
grestore
stroke
grestore
} bind def
336.7 359.158 o
grestore
gsave

310.621875 355.361334 translate
0.000000 rotate
0.000000 0 m /five glyphshow
6.362305 0 m /zero glyphshow
12.724609 0 m /zero glyphshow
grestore
gsave
/o {
gsave
newpath
translate
0.8 setlinewidth
1 setlinejoin

0 setlinecap

-0 0 m
-3.5 0 l

gsave
0.000 setgray
fill
grestore
stroke
grestore
} bind def
336.7 381.193 o
grestore
gsave

310.621875 377.396612 translate
0.000000 rotate
0.000000 0 m /six glyphshow
6.362305 0 m /zero glyphshow
12.724609 0 m /zero glyphshow
grestore
gsave
/o {
gsave
newpath
translate
0.8 setlinewidth
1 setlinejoin

0 setlinecap

-0 0 m
-3.5 0 l

gsave
0.000 setgray
fill
grestore
stroke
grestore
} bind def
336.7 403.229 o
grestore
gsave

310.621875 399.431890 translate
0.000000 rotate
0.000000 0 m /seven glyphshow
6.362305 0 m /zero glyphshow
12.724609 0 m /zero glyphshow
grestore
/DejaVuSans 13.000 selectfont
gsave

303.918750 276.057813 translate
90.000000 rotate
0.000000 0 m /D glyphshow
10.010254 0 m /e glyphshow
18.008301 0 m /n glyphshow
26.247559 0 m /g glyphshow
34.499512 0 m /u glyphshow
42.738770 0 m /e glyphshow
50.736816 0 m /space glyphshow
54.869141 0 m /C glyphshow
63.946289 0 m /a glyphshow
71.912598 0 m /s glyphshow
78.685547 0 m /e glyphshow
86.683594 0 m /s glyphshow
grestore
1.500 setlinewidth
2 setlinecap
0.122 0.467 0.706 setrgbcolor
gsave
228.5 162.4 336.7 241.6 clipbox
347.086364 257.575577 m
350.863223 261.321574 l
354.396414 302.307191 l
358.173274 393.31289 l
361.828299 295.916961 l
365.605159 255.592402 l
369.260184 250.964993 l
373.037043 248.981818 l
376.813903 249.202171 l
380.468928 249.422524 l
384.245788 250.303935 l
387.900813 251.185346 l
391.677673 260.440163 l
395.454532 254.490638 l
398.865889 252.507463 l
402.642749 251.626052 l
406.297774 253.168521 l
410.074633 250.524288 l
413.729659 250.083582 l
417.506518 249.202171 l
421.283378 249.202171 l
424.938403 249.642877 l
428.715263 249.422524 l
432.370288 249.642877 l
436.147147 251.405699 l
439.924007 251.405699 l
443.335364 250.74464 l
447.112223 253.829579 l
450.767249 253.168521 l
454.544108 251.185346 l
458.199134 251.626052 l
461.975993 250.083582 l
465.752853 249.202171 l
469.407878 251.405699 l
473.184737 250.083582 l
476.839763 254.270285 l
480.616622 254.931343 l
484.393482 253.388874 l
487.804839 266.389688 l
491.581698 321.257531 l
495.236724 316.409769 l
499.013583 273.000271 l
502.668608 255.812754 l
506.445468 253.168521 l
510.222327 249.863229 l
513.877353 249.422524 l
517.654212 250.74464 l
521.309238 249.863229 l
525.086097 250.083582 l
528.862957 249.642877 l
532.396148 249.422524 l
536.173007 249.202171 l
539.828033 249.422524 l
543.604892 248.981818 l
547.259917 248.981818 l
551.036777 248.981818 l
554.813636 249.202171 l
stroke
grestore
1.000 0.498 0.055 setrgbcolor
gsave
228.5 162.4 336.7 241.6 clipbox
347.086364 262.423338 m
350.863223 278.288738 l
354.396414 267.932157 l
358.173274 285.780733 l
361.828299 396.618182 l
365.605159 260.660516 l
369.260184 253.168521 l
373.037043 250.524288 l
376.813903 249.422524 l
380.468928 249.863229 l
384.245788 249.642877 l
387.900813 252.507463 l
391.677673 255.372049 l
395.454532 278.288738 l
398.865889 254.270285 l
402.642749 252.948168 l
406.297774 251.185346 l
410.074633 251.846404 l
413.729659 250.303935 l
417.506518 250.524288 l
421.283378 249.642877 l
424.938403 249.422524 l
428.715263 250.083582 l
432.370288 250.74464 l
436.147147 252.507463 l
439.924007 254.710991 l
443.335364 254.049932 l
447.112223 251.185346 l
450.767249 255.372049 l
454.544108 252.066757 l
458.199134 250.964993 l
461.975993 250.74464 l
465.752853 249.863229 l
469.407878 249.202171 l
473.184737 250.74464 l
476.839763 250.303935 l
480.616622 253.829579 l
484.393482 254.270285 l
487.804839 260.440163 l
491.581698 303.408955 l
495.236724 363.785617 l
499.013583 312.663772 l
502.668608 259.779104 l
506.445468 250.74464 l
510.222327 251.626052 l
513.877353 250.964993 l
517.654212 250.083582 l
521.309238 250.303935 l
525.086097 250.74464 l
528.862957 251.846404 l
532.396148 250.74464 l
536.173007 251.185346 l
539.828033 249.422524 l
543.604892 248.981818 l
547.259917 249.422524 l
551.036777 249.202171 l
554.813636 248.981818 l
stroke
grestore
0.800 setlinewidth
0 setlinejoin
0.000 setgray
gsave
336.7 241.6 m
336.7 404 l
stroke
grestore
gsave
565.2 241.6 m
565.2 404 l
stroke
grestore
gsave
336.7 241.6 m
565.2 241.6 l
stroke
grestore
gsave
336.7 404 m
565.2 404 l
stroke
grestore
/DejaVuSans 15.000 selectfont
gsave

376.293750 410.000000 translate
0.000000 rotate
0.000000 0 m /R glyphshow
9.797363 0 m /e glyphshow
19.025879 0 m /a glyphshow
28.217773 0 m /l glyphshow
32.385254 0 m /e glyphshow
41.613770 0 m /n glyphshow
51.120605 0 m /g glyphshow
60.642090 0 m /o glyphshow
69.819336 0 m /space glyphshow
74.587402 0 m /parenleft glyphshow
80.439453 0 m /one glyphshow
89.982910 0 m /space glyphshow
94.750977 0 m /m glyphshow
109.362793 0 m /o glyphshow
118.540039 0 m /n glyphshow
128.046875 0 m /t glyphshow
133.928223 0 m /h glyphshow
143.435059 0 m /parenright glyphshow
grestore
1.000 setlinewidth
0 setlinecap
0.800 setgray
gsave
453.453125 355.44375 m
556.1 355.44375 l
557.833333 355.44375 558.7 356.310417 558.7 358.04375 c
558.7 394.9 l
558.7 396.633333 557.833333 397.5 556.1 397.5 c
453.453125 397.5 l
451.719792 397.5 450.853125 396.633333 450.853125 394.9 c
450.853125 358.04375 l
450.853125 356.310417 451.719792 355.44375 453.453125 355.44375 c
cl
gsave
1.000 setgray
fill
grestore
stroke
grestore
1.500 setlinewidth
1 setlinejoin
2 setlinecap
0.122 0.467 0.706 setrgbcolor
gsave
456.053125 386.975 m
469.053125 386.975 l
482.053125 386.975 l
stroke
grestore
0.000 setgray
/DejaVuSans 13.000 selectfont
gsave

492.453125 382.425000 translate
0.000000 rotate
0.000000 0 m /R glyphshow
8.407715 0 m /e glyphshow
16.405762 0 m /a glyphshow
24.372070 0 m /l glyphshow
grestore
1.000 0.498 0.055 setrgbcolor
gsave
456.053125 367.896875 m
469.053125 367.896875 l
482.053125 367.896875 l
stroke
grestore
0.000 setgray
gsave

492.453125 363.346875 translate
0.000000 rotate
0.000000 0 m /P glyphshow
7.589355 0 m /r glyphshow
12.684082 0 m /e glyphshow
20.682129 0 m /d glyphshow
28.934082 0 m /i glyphshow
32.545898 0 m /c glyphshow
39.693359 0 m /t glyphshow
44.790527 0 m /e glyphshow
52.788574 0 m /d glyphshow
grestore
gsave
54.1 31 m
282.6 31 l
282.6 193.4 l
54.1 193.4 l
cl
1.000 setgray
fill
grestore
0.800 setlinewidth
0 setlinecap
gsave
/o {
gsave
newpath
translate
0.8 setlinewidth
1 setlinejoin

0 setlinecap

0 0 m
0 -3.5 l

gsave
0.000 setgray
fill
grestore
stroke
grestore
} bind def
64.4864 31 o
grestore
gsave

47.955114 14.125000 translate
0.000000 rotate
0.000000 0 m /two glyphshow
8.270996 0 m /zero glyphshow
16.541992 0 m /one glyphshow
24.812988 0 m /six glyphshow
grestore
gsave
/o {
gsave
newpath
translate
0.8 setlinewidth
1 setlinejoin

0 setlinecap

0 0 m
0 -3.5 l

gsave
0.000 setgray
fill
grestore
stroke
grestore
} bind def
108.307 31 o
grestore
gsave

91.775391 14.125000 translate
0.000000 rotate
0.000000 0 m /two glyphshow
8.270996 0 m /zero glyphshow
16.541992 0 m /one glyphshow
24.812988 0 m /seven glyphshow
grestore
gsave
/o {
gsave
newpath
translate
0.8 setlinewidth
1 setlinejoin

0 setlinecap

0 0 m
0 -3.5 l

gsave
0.000 setgray
fill
grestore
stroke
grestore
} bind def
152.007 31 o
grestore
gsave

135.475942 14.125000 translate
0.000000 rotate
0.000000 0 m /two glyphshow
8.270996 0 m /zero glyphshow
16.541992 0 m /one glyphshow
24.812988 0 m /eight glyphshow
grestore
gsave
/o {
gsave
newpath
translate
0.8 setlinewidth
1 setlinejoin

0 setlinecap

0 0 m
0 -3.5 l

gsave
0.000 setgray
fill
grestore
stroke
grestore
} bind def
195.708 31 o
grestore
gsave

179.176492 14.125000 translate
0.000000 rotate
0.000000 0 m /two glyphshow
8.270996 0 m /zero glyphshow
16.541992 0 m /one glyphshow
24.812988 0 m /nine glyphshow
grestore
gsave
/o {
gsave
newpath
translate
0.8 setlinewidth
1 setlinejoin

0 setlinecap

0 0 m
0 -3.5 l

gsave
0.000 setgray
fill
grestore
stroke
grestore
} bind def
239.408 31 o
grestore
gsave

222.877042 14.125000 translate
0.000000 rotate
0.000000 0 m /two glyphshow
8.270996 0 m /zero glyphshow
16.541992 0 m /two glyphshow
24.812988 0 m /zero glyphshow
grestore
gsave
/o {
gsave
newpath
translate
0.8 setlinewidth
1 setlinejoin

0 setlinecap

-0 0 m
-3.5 0 l

gsave
0.000 setgray
fill
grestore
stroke
grestore
} bind def
54.1 38.3818 o
grestore
/DejaVuSans 10.000 selectfont
gsave

40.740625 34.584943 translate
0.000000 rotate
0.000000 0 m /zero glyphshow
grestore
gsave
/o {
gsave
newpath
translate
0.8 setlinewidth
1 setlinejoin

0 setlinecap

-0 0 m
-3.5 0 l

gsave
0.000 setgray
fill
grestore
stroke
grestore
} bind def
54.1 75.0162 o
grestore
gsave

28.021875 71.219277 translate
0.000000 rotate
0.000000 0 m /two glyphshow
6.362305 0 m /zero glyphshow
12.724609 0 m /zero glyphshow
grestore
gsave
/o {
gsave
newpath
translate
0.8 setlinewidth
1 setlinejoin

0 setlinecap

-0 0 m
-3.5 0 l

gsave
0.000 setgray
fill
grestore
stroke
grestore
} bind def
54.1 111.65 o
grestore
gsave

28.021875 107.853610 translate
0.000000 rotate
0.000000 0 m /four glyphshow
6.362305 0 m /zero glyphshow
12.724609 0 m /zero glyphshow
grestore
gsave
/o {
gsave
newpath
translate
0.8 setlinewidth
1 setlinejoin

0 setlinecap

-0 0 m
-3.5 0 l

gsave
0.000 setgray
fill
grestore
stroke
grestore
} bind def
54.1 148.285 o
grestore
gsave

28.021875 144.487943 translate
0.000000 rotate
0.000000 0 m /six glyphshow
6.362305 0 m /zero glyphshow
12.724609 0 m /zero glyphshow
grestore
gsave
/o {
gsave
newpath
translate
0.8 setlinewidth
1 setlinejoin

0 setlinecap

-0 0 m
-3.5 0 l

gsave
0.000 setgray
fill
grestore
stroke
grestore
} bind def
54.1 184.919 o
grestore
gsave

28.021875 181.122277 translate
0.000000 rotate
0.000000 0 m /eight glyphshow
6.362305 0 m /zero glyphshow
12.724609 0 m /zero glyphshow
grestore
/DejaVuSans 13.000 selectfont
gsave

21.318750 65.457813 translate
90.000000 rotate
0.000000 0 m /D glyphshow
10.010254 0 m /e glyphshow
18.008301 0 m /n glyphshow
26.247559 0 m /g glyphshow
34.499512 0 m /u glyphshow
42.738770 0 m /e glyphshow
50.736816 0 m /space glyphshow
54.869141 0 m /C glyphshow
63.946289 0 m /a glyphshow
71.912598 0 m /s glyphshow
78.685547 0 m /e glyphshow
86.683594 0 m /s glyphshow
grestore
1.500 setlinewidth
2 setlinecap
0.122 0.467 0.706 setrgbcolor
gsave
228.5 162.4 54.1 31 clipbox
64.486364 48.45626 m
68.197917 58.713873 l
71.670016 91.867945 l
75.381569 186.018182 l
78.973395 107.987052 l
82.684949 54.134582 l
86.276775 40.76305 l
89.988329 38.56499 l
93.699882 38.56499 l
97.291708 38.931333 l
101.003262 39.480848 l
104.595088 40.76305 l
108.306641 44.975998 l
112.018195 42.96111 l
115.370566 41.129393 l
119.082119 41.129393 l
122.673946 40.030363 l
126.385499 39.847192 l
129.977325 40.030363 l
133.688879 38.748162 l
137.400432 39.297677 l
140.992258 40.396707 l
144.703812 39.297677 l
148.295638 39.480848 l
152.007192 41.495737 l
155.718745 41.312565 l
159.071116 42.96111 l
162.78267 48.639432 l
166.374496 51.020663 l
170.086049 44.609655 l
173.677875 45.15917 l
177.389429 43.144282 l
181.100982 40.396707 l
184.692808 41.495737 l
188.404362 40.396707 l
191.996188 48.089917 l
195.707742 54.684097 l
199.419295 49.372118 l
202.771666 66.04074 l
206.48322 106.888022 l
210.075046 157.26023 l
213.786599 82.892533 l
217.378425 50.471148 l
221.089979 43.876968 l
224.801533 40.76305 l
228.393359 40.396707 l
232.104912 39.297677 l
235.696738 40.579878 l
239.408292 40.213535 l
243.119845 40.396707 l
246.591944 39.66402 l
250.303498 39.66402 l
253.895324 38.748162 l
257.606877 38.381818 l
261.198703 38.748162 l
264.910257 38.56499 l
268.62181 38.931333 l
272.213636 38.381818 l
stroke
grestore
1.000 0.498 0.055 setrgbcolor
gsave
228.5 162.4 54.1 31 clipbox
64.486364 50.65432 m
68.197917 66.407083 l
71.670016 96.752523 l
75.381569 105.666877 l
78.973395 108.292338 l
82.684949 98.034724 l
86.276775 79.900729 l
89.988329 42.655824 l
93.699882 39.908249 l
97.291708 39.541905 l
101.003262 39.602963 l
104.595088 39.847192 l
108.306641 41.434679 l
112.018195 48.150974 l
115.370566 71.658004 l
119.082119 68.421972 l
122.673946 43.510625 l
126.385499 41.434679 l
129.977325 39.847192 l
133.688879 39.236619 l
137.400432 39.175562 l
140.992258 39.114505 l
144.703812 39.480848 l
148.295638 39.908249 l
152.007192 42.106309 l
155.718745 48.517317 l
159.071116 64.27008 l
162.78267 64.392195 l
166.374496 47.967802 l
170.086049 50.715377 l
173.677875 45.952914 l
177.389429 40.76305 l
181.100982 40.396707 l
184.692808 39.541905 l
188.404362 40.030363 l
191.996188 40.213535 l
195.707742 43.632739 l
199.419295 57.736958 l
202.771666 65.185939 l
206.48322 102.919302 l
210.075046 128.563336 l
213.786599 109.452425 l
217.378425 86.861253 l
221.089979 67.628228 l
224.801533 40.824107 l
228.393359 40.274592 l
232.104912 40.701993 l
235.696738 41.373622 l
239.408292 42.594767 l
243.119845 42.655824 l
246.591944 46.502429 l
250.303498 45.647628 l
253.895324 49.066832 l
257.606877 41.068336 l
261.198703 39.053448 l
264.910257 38.687104 l
268.62181 38.56499 l
272.213636 38.381818 l
stroke
grestore
0.800 setlinewidth
0 setlinejoin
0.000 setgray
gsave
54.1 31 m
54.1 193.4 l
stroke
grestore
gsave
282.6 31 m
282.6 193.4 l
stroke
grestore
gsave
54.1 31 m
282.6 31 l
stroke
grestore
gsave
54.1 193.4 m
282.6 193.4 l
stroke
grestore
/DejaVuSans 15.000 selectfont
gsave

100.685937 199.400000 translate
0.000000 rotate
0.000000 0 m /B glyphshow
10.290527 0 m /a glyphshow
19.482422 0 m /n glyphshow
28.989258 0 m /g glyphshow
38.510742 0 m /u glyphshow
48.017578 0 m /space glyphshow
52.785645 0 m /parenleft glyphshow
58.637695 0 m /three glyphshow
68.181152 0 m /space glyphshow
72.949219 0 m /m glyphshow
87.561035 0 m /o glyphshow
96.738281 0 m /n glyphshow
106.245117 0 m /t glyphshow
112.126465 0 m /h glyphshow
121.633301 0 m /s glyphshow
129.448242 0 m /parenright glyphshow
grestore
1.000 setlinewidth
0 setlinecap
0.800 setgray
gsave
170.853125 144.84375 m
273.5 144.84375 l
275.233333 144.84375 276.1 145.710417 276.1 147.44375 c
276.1 184.3 l
276.1 186.033333 275.233333 186.9 273.5 186.9 c
170.853125 186.9 l
169.119792 186.9 168.253125 186.033333 168.253125 184.3 c
168.253125 147.44375 l
168.253125 145.710417 169.119792 144.84375 170.853125 144.84375 c
cl
gsave
1.000 setgray
fill
grestore
stroke
grestore
1.500 setlinewidth
1 setlinejoin
2 setlinecap
0.122 0.467 0.706 setrgbcolor
gsave
173.453125 176.375 m
186.453125 176.375 l
199.453125 176.375 l
stroke
grestore
0.000 setgray
/DejaVuSans 13.000 selectfont
gsave

209.853125 171.825000 translate
0.000000 rotate
0.000000 0 m /R glyphshow
8.407715 0 m /e glyphshow
16.405762 0 m /a glyphshow
24.372070 0 m /l glyphshow
grestore
1.000 0.498 0.055 setrgbcolor
gsave
173.453125 157.296875 m
186.453125 157.296875 l
199.453125 157.296875 l
stroke
grestore
0.000 setgray
gsave

209.853125 152.746875 translate
0.000000 rotate
0.000000 0 m /P glyphshow
7.589355 0 m /r glyphshow
12.684082 0 m /e glyphshow
20.682129 0 m /d glyphshow
28.934082 0 m /i glyphshow
32.545898 0 m /c glyphshow
39.693359 0 m /t glyphshow
44.790527 0 m /e glyphshow
52.788574 0 m /d glyphshow
grestore
gsave
336.7 31 m
565.2 31 l
565.2 193.4 l
336.7 193.4 l
cl
1.000 setgray
fill
grestore
0.800 setlinewidth
0 setlinecap
gsave
/o {
gsave
newpath
translate
0.8 setlinewidth
1 setlinejoin

0 setlinecap

0 0 m
0 -3.5 l

gsave
0.000 setgray
fill
grestore
stroke
grestore
} bind def
347.086 31 o
grestore
gsave

330.555114 14.125000 translate
0.000000 rotate
0.000000 0 m /two glyphshow
8.270996 0 m /zero glyphshow
16.541992 0 m /one glyphshow
24.812988 0 m /six glyphshow
grestore
gsave
/o {
gsave
newpath
translate
0.8 setlinewidth
1 setlinejoin

0 setlinecap

0 0 m
0 -3.5 l

gsave
0.000 setgray
fill
grestore
stroke
grestore
} bind def
390.907 31 o
grestore
gsave

374.375391 14.125000 translate
0.000000 rotate
0.000000 0 m /two glyphshow
8.270996 0 m /zero glyphshow
16.541992 0 m /one glyphshow
24.812988 0 m /seven glyphshow
grestore
gsave
/o {
gsave
newpath
translate
0.8 setlinewidth
1 setlinejoin

0 setlinecap

0 0 m
0 -3.5 l

gsave
0.000 setgray
fill
grestore
stroke
grestore
} bind def
434.607 31 o
grestore
gsave

418.075942 14.125000 translate
0.000000 rotate
0.000000 0 m /two glyphshow
8.270996 0 m /zero glyphshow
16.541992 0 m /one glyphshow
24.812988 0 m /eight glyphshow
grestore
gsave
/o {
gsave
newpath
translate
0.8 setlinewidth
1 setlinejoin

0 setlinecap

0 0 m
0 -3.5 l

gsave
0.000 setgray
fill
grestore
stroke
grestore
} bind def
478.308 31 o
grestore
gsave

461.776492 14.125000 translate
0.000000 rotate
0.000000 0 m /two glyphshow
8.270996 0 m /zero glyphshow
16.541992 0 m /one glyphshow
24.812988 0 m /nine glyphshow
grestore
gsave
/o {
gsave
newpath
translate
0.8 setlinewidth
1 setlinejoin

0 setlinecap

0 0 m
0 -3.5 l

gsave
0.000 setgray
fill
grestore
stroke
grestore
} bind def
522.008 31 o
grestore
gsave

505.477042 14.125000 translate
0.000000 rotate
0.000000 0 m /two glyphshow
8.270996 0 m /zero glyphshow
16.541992 0 m /two glyphshow
24.812988 0 m /zero glyphshow
grestore
gsave
/o {
gsave
newpath
translate
0.8 setlinewidth
1 setlinejoin

0 setlinecap

-0 0 m
-3.5 0 l

gsave
0.000 setgray
fill
grestore
stroke
grestore
} bind def
336.7 38.3818 o
grestore
/DejaVuSans 10.000 selectfont
gsave

323.340625 34.584943 translate
0.000000 rotate
0.000000 0 m /zero glyphshow
grestore
gsave
/o {
gsave
newpath
translate
0.8 setlinewidth
1 setlinejoin

0 setlinecap

-0 0 m
-3.5 0 l

gsave
0.000 setgray
fill
grestore
stroke
grestore
} bind def
336.7 60.9217 o
grestore
gsave

310.621875 57.124846 translate
0.000000 rotate
0.000000 0 m /one glyphshow
6.362305 0 m /zero glyphshow
12.724609 0 m /zero glyphshow
grestore
gsave
/o {
gsave
newpath
translate
0.8 setlinewidth
1 setlinejoin

0 setlinecap

-0 0 m
-3.5 0 l

gsave
0.000 setgray
fill
grestore
stroke
grestore
} bind def
336.7 83.4616 o
grestore
gsave

310.621875 79.664749 translate
0.000000 rotate
0.000000 0 m /two glyphshow
6.362305 0 m /zero glyphshow
12.724609 0 m /zero glyphshow
grestore
gsave
/o {
gsave
newpath
translate
0.8 setlinewidth
1 setlinejoin

0 setlinecap

-0 0 m
-3.5 0 l

gsave
0.000 setgray
fill
grestore
stroke
grestore
} bind def
336.7 106.002 o
grestore
gsave

310.621875 102.204652 translate
0.000000 rotate
0.000000 0 m /three glyphshow
6.362305 0 m /zero glyphshow
12.724609 0 m /zero glyphshow
grestore
gsave
/o {
gsave
newpath
translate
0.8 setlinewidth
1 setlinejoin

0 setlinecap

-0 0 m
-3.5 0 l

gsave
0.000 setgray
fill
grestore
stroke
grestore
} bind def
336.7 128.541 o
grestore
gsave

310.621875 124.744555 translate
0.000000 rotate
0.000000 0 m /four glyphshow
6.362305 0 m /zero glyphshow
12.724609 0 m /zero glyphshow
grestore
gsave
/o {
gsave
newpath
translate
0.8 setlinewidth
1 setlinejoin

0 setlinecap

-0 0 m
-3.5 0 l

gsave
0.000 setgray
fill
grestore
stroke
grestore
} bind def
336.7 151.081 o
grestore
gsave

310.621875 147.284457 translate
0.000000 rotate
0.000000 0 m /five glyphshow
6.362305 0 m /zero glyphshow
12.724609 0 m /zero glyphshow
grestore
gsave
/o {
gsave
newpath
translate
0.8 setlinewidth
1 setlinejoin

0 setlinecap

-0 0 m
-3.5 0 l

gsave
0.000 setgray
fill
grestore
stroke
grestore
} bind def
336.7 173.621 o
grestore
gsave

310.621875 169.824360 translate
0.000000 rotate
0.000000 0 m /six glyphshow
6.362305 0 m /zero glyphshow
12.724609 0 m /zero glyphshow
grestore
/DejaVuSans 13.000 selectfont
gsave

303.918750 65.457813 translate
90.000000 rotate
0.000000 0 m /D glyphshow
10.010254 0 m /e glyphshow
18.008301 0 m /n glyphshow
26.247559 0 m /g glyphshow
34.499512 0 m /u glyphshow
42.738770 0 m /e glyphshow
50.736816 0 m /space glyphshow
54.869141 0 m /C glyphshow
63.946289 0 m /a glyphshow
71.912598 0 m /s glyphshow
78.685547 0 m /e glyphshow
86.683594 0 m /s glyphshow
grestore
1.500 setlinewidth
2 setlinecap
0.122 0.467 0.706 setrgbcolor
gsave
228.5 162.4 336.7 31 clipbox
347.086364 47.17238 m
350.797917 51.004164 l
354.270016 92.928383 l
357.981569 186.018182 l
361.573395 86.391811 l
365.284949 45.143789 l
368.876775 40.410409 l
372.588329 38.381818 l
376.299882 38.607217 l
379.891708 38.832616 l
383.603262 39.734212 l
387.195088 40.635808 l
390.906641 50.102568 l
394.618195 44.016794 l
397.970566 41.988203 l
401.682119 41.086607 l
405.273946 42.6644 l
408.985499 39.959611 l
412.577325 39.508813 l
416.288879 38.607217 l
420.000432 38.607217 l
423.592258 39.058015 l
427.303812 38.832616 l
430.895638 39.058015 l
434.607192 40.861207 l
438.318745 40.861207 l
441.671116 40.18501 l
445.38267 43.340597 l
448.974496 42.6644 l
452.686049 40.635808 l
456.277875 41.086607 l
459.989429 39.508813 l
463.700982 38.607217 l
467.292808 40.861207 l
471.004362 39.508813 l
474.596188 43.791395 l
478.307742 44.467592 l
482.019295 42.889799 l
485.371666 56.188341 l
489.08322 112.3127 l
492.675046 107.353921 l
496.386599 62.950312 l
499.978425 45.369188 l
503.689979 42.6644 l
507.401533 39.283414 l
510.993359 38.832616 l
514.704912 40.18501 l
518.296738 39.283414 l
522.008292 39.508813 l
525.719845 39.058015 l
529.191944 38.832616 l
532.903498 38.607217 l
536.495324 38.832616 l
540.206877 38.381818 l
543.798703 38.381818 l
547.510257 38.381818 l
551.22181 38.607217 l
554.813636 38.607217 l
stroke
grestore
1.000 0.498 0.055 setrgbcolor
gsave
228.5 162.4 336.7 31 clipbox
347.086364 46.496183 m
350.797917 54.047051 l
354.270016 73.694333 l
357.981569 94.581309 l
361.573395 121.028129 l
365.284949 103.071339 l
368.876775 85.790747 l
372.588329 41.837937 l
376.299882 40.109877 l
379.891708 39.058015 l
383.603262 38.982882 l
387.195088 39.583946 l
390.906641 43.040065 l
394.618195 60.245524 l
397.970566 99.84062 l
401.682119 75.647791 l
405.273946 43.115198 l
408.985499 41.612538 l
412.577325 39.809345 l
416.288879 39.734212 l
420.000432 39.283414 l
423.592258 39.058015 l
427.303812 38.982882 l
430.895638 39.43368 l
434.607192 40.710941 l
438.318745 45.66972 l
441.671116 55.812676 l
445.38267 66.181032 l
448.974496 46.345917 l
452.686049 45.519454 l
456.277875 43.41573 l
459.989429 39.809345 l
463.700982 39.659079 l
467.292808 38.832616 l
471.004362 39.058015 l
474.596188 39.283414 l
478.307742 41.011474 l
482.019295 43.265464 l
485.371666 44.317326 l
489.08322 64.978904 l
492.675046 134.55207 l
496.386599 137.933056 l
499.978425 87.894471 l
503.689979 57.089938 l
507.401533 40.635808 l
510.993359 39.884478 l
514.704912 39.734212 l
518.296738 40.034744 l
522.008292 40.410409 l
525.719845 41.312006 l
529.191944 43.791395 l
532.903498 44.392459 l
536.495324 46.42105 l
540.206877 42.213602 l
543.798703 38.832616 l
547.510257 38.532084 l
551.22181 38.532084 l
554.813636 38.381818 l
stroke
grestore
0.800 setlinewidth
0 setlinejoin
0.000 setgray
gsave
336.7 31 m
336.7 193.4 l
stroke
grestore
gsave
565.2 31 m
565.2 193.4 l
stroke
grestore
gsave
336.7 31 m
565.2 31 l
stroke
grestore
gsave
336.7 193.4 m
565.2 193.4 l
stroke
grestore
/DejaVuSans 15.000 selectfont
gsave

372.387500 199.400000 translate
0.000000 rotate
0.000000 0 m /R glyphshow
9.797363 0 m /e glyphshow
19.025879 0 m /a glyphshow
28.217773 0 m /l glyphshow
32.385254 0 m /e glyphshow
41.613770 0 m /n glyphshow
51.120605 0 m /g glyphshow
60.642090 0 m /o glyphshow
69.819336 0 m /space glyphshow
74.587402 0 m /parenleft glyphshow
80.439453 0 m /three glyphshow
89.982910 0 m /space glyphshow
94.750977 0 m /m glyphshow
109.362793 0 m /o glyphshow
118.540039 0 m /n glyphshow
128.046875 0 m /t glyphshow
133.928223 0 m /h glyphshow
143.435059 0 m /s glyphshow
151.250000 0 m /parenright glyphshow
grestore
1.000 setlinewidth
0 setlinecap
0.800 setgray
gsave
453.453125 144.84375 m
556.1 144.84375 l
557.833333 144.84375 558.7 145.710417 558.7 147.44375 c
558.7 184.3 l
558.7 186.033333 557.833333 186.9 556.1 186.9 c
453.453125 186.9 l
451.719792 186.9 450.853125 186.033333 450.853125 184.3 c
450.853125 147.44375 l
450.853125 145.710417 451.719792 144.84375 453.453125 144.84375 c
cl
gsave
1.000 setgray
fill
grestore
stroke
grestore
1.500 setlinewidth
1 setlinejoin
2 setlinecap
0.122 0.467 0.706 setrgbcolor
gsave
456.053125 176.375 m
469.053125 176.375 l
482.053125 176.375 l
stroke
grestore
0.000 setgray
/DejaVuSans 13.000 selectfont
gsave

492.453125 171.825000 translate
0.000000 rotate
0.000000 0 m /R glyphshow
8.407715 0 m /e glyphshow
16.405762 0 m /a glyphshow
24.372070 0 m /l glyphshow
grestore
1.000 0.498 0.055 setrgbcolor
gsave
456.053125 157.296875 m
469.053125 157.296875 l
482.053125 157.296875 l
stroke
grestore
0.000 setgray
gsave

492.453125 152.746875 translate
0.000000 rotate
0.000000 0 m /P glyphshow
7.589355 0 m /r glyphshow
12.684082 0 m /e glyphshow
20.682129 0 m /d glyphshow
28.934082 0 m /i glyphshow
32.545898 0 m /c glyphshow
39.693359 0 m /t glyphshow
44.790527 0 m /e glyphshow
52.788574 0 m /d glyphshow
grestore

end
showpage
