%!PS-Adobe-3.0 EPSF-3.0
%%Title: /home/robson/Documents/Mestrado/Pesquisa/dengue-predicion/data/table_summary_input_features.eps
%%Creator: matplotlib version 3.3.4, http://matplotlib.org/
%%CreationDate: Mon Mar 14 20:19:33 2022
%%Orientation: portrait
%%BoundingBox: -414.0 288.0 1026.0 504.0
%%EndComments
%%BeginProlog
/mpldict 8 dict def
mpldict begin
/m { moveto } bind def
/l { lineto } bind def
/r { rlineto } bind def
/c { curveto } bind def
/cl { closepath } bind def
/box {
      m
      1 index 0 r
      0 exch r
      neg 0 r
      cl
    } bind def
/clipbox {
      box
      clip
      newpath
    } bind def
%!PS-Adobe-3.0 Resource-Font
%%Title: DejaVu Sans
%%Copyright: Copyright (c) 2003 by Bitstream, Inc. All Rights Reserved. Copyright (c) 2006 by Tavmjong Bah. All Rights Reserved. DejaVu changes are in public domain 
%%Creator: Converted from TrueType to type 3 by PPR
25 dict begin
/_d{bind def}bind def
/_m{moveto}_d
/_l{lineto}_d
/_cl{closepath eofill}_d
/_c{curveto}_d
/_sc{7 -1 roll{setcachedevice}{pop pop pop pop pop pop}ifelse}_d
/_e{exec}_d
/FontName /DejaVuSans def
/PaintType 0 def
/FontMatrix[.001 0 0 .001 0 0]def
/FontBBox[-1021 -463 1793 1232]def
/FontType 3 def
/Encoding [ /space /percent /parenleft /parenright /period /zero /one /two /three /four /five /six /seven /eight /nine /C /underscore /a /b /c /d /e /g /h /i /k /l /m /n /o /p /r /s /t /u /v /x /y /z /degree ] def
/FontInfo 10 dict dup begin
/FamilyName (DejaVu Sans) def
/FullName (DejaVu Sans) def
/Notice (Copyright (c) 2003 by Bitstream, Inc. All Rights Reserved. Copyright (c) 2006 by Tavmjong Bah. All Rights Reserved. DejaVu changes are in public domain ) def
/Weight (Book) def
/Version (Version 2.35) def
/ItalicAngle 0.0 def
/isFixedPitch false def
/UnderlinePosition -130 def
/UnderlineThickness 90 def
end readonly def
/CharStrings 41 dict dup begin
/.notdef 0 def
/space{318 0 0 0 0 0 _sc
}_d
/percent{{950 0 55 -13 895 742 _sc
727 321 _m
699 321 676 309 660 285 _c
644 261 636 227 636 184 _c
636 142 644 108 660 84 _c
676 60 699 48 727 48 _c
755 48 777 60 793 84 _c
809 108 817 142 817 184 _c
817 226 809 260 793 284 _c
777 308 755 321 727 321 _c
727 383 _m
778 383 819 365 849 329 _c
879 293 895 244 895 184 _c
895 123 879 75 849 40 _c
819 4 778 -13 727 -13 _c
}_e{675 -13 633 4 603 40 _c
573 75 558 123 558 184 _c
558 245 573 293 603 329 _c
633 365 675 383 727 383 _c
223 680 _m
195 680 173 667 157 643 _c
141 619 133 586 133 544 _c
133 500 141 467 157 443 _c
173 419 195 407 223 407 _c
251 407 274 419 290 443 _c
306 467 314 500 314 544 _c
314 586 305 619 289 643 _c
273 667 251 680 223 680 _c
664 742 _m
742 742 _l
286 -13 _l
}_e{208 -13 _l
664 742 _l
223 742 _m
274 742 315 724 346 688 _c
376 652 392 604 392 544 _c
392 482 376 434 346 398 _c
316 362 275 345 223 345 _c
171 345 130 362 100 398 _c
70 434 55 482 55 544 _c
55 604 70 652 100 688 _c
130 724 171 742 223 742 _c
_cl}_e}_d
/parenleft{390 0 86 -131 310 759 _sc
310 759 _m
266 683 234 609 213 536 _c
191 463 181 389 181 314 _c
181 238 191 164 213 91 _c
234 17 266 -56 310 -131 _c
232 -131 _l
183 -54 146 20 122 94 _c
98 168 86 241 86 314 _c
86 386 98 459 122 533 _c
146 607 182 682 232 759 _c
310 759 _l
_cl}_d
/parenright{390 0 80 -131 304 759 _sc
80 759 _m
158 759 _l
206 682 243 607 267 533 _c
291 459 304 386 304 314 _c
304 241 291 168 267 94 _c
243 20 206 -54 158 -131 _c
80 -131 _l
123 -56 155 17 177 91 _c
198 164 209 238 209 314 _c
209 389 198 463 177 536 _c
155 609 123 683 80 759 _c
_cl}_d
/period{318 0 107 0 210 124 _sc
107 124 _m
210 124 _l
210 0 _l
107 0 _l
107 124 _l
_cl}_d
/zero{636 0 66 -13 570 742 _sc
318 664 _m
267 664 229 639 203 589 _c
177 539 165 464 165 364 _c
165 264 177 189 203 139 _c
229 89 267 64 318 64 _c
369 64 407 89 433 139 _c
458 189 471 264 471 364 _c
471 464 458 539 433 589 _c
407 639 369 664 318 664 _c
318 742 _m
399 742 461 709 505 645 _c
548 580 570 486 570 364 _c
570 241 548 147 505 83 _c
461 19 399 -13 318 -13 _c
236 -13 173 19 130 83 _c
87 147 66 241 66 364 _c
66 486 87 580 130 645 _c
173 709 236 742 318 742 _c
_cl}_d
/one{636 0 110 0 544 729 _sc
124 83 _m
285 83 _l
285 639 _l
110 604 _l
110 694 _l
284 729 _l
383 729 _l
383 83 _l
544 83 _l
544 0 _l
124 0 _l
124 83 _l
_cl}_d
/two{{636 0 73 0 536 742 _sc
192 83 _m
536 83 _l
536 0 _l
73 0 _l
73 83 _l
110 121 161 173 226 239 _c
290 304 331 346 348 365 _c
380 400 402 430 414 455 _c
426 479 433 504 433 528 _c
433 566 419 598 392 622 _c
365 646 330 659 286 659 _c
255 659 222 653 188 643 _c
154 632 117 616 78 594 _c
78 694 _l
118 710 155 722 189 730 _c
223 738 255 742 284 742 _c
}_e{359 742 419 723 464 685 _c
509 647 532 597 532 534 _c
532 504 526 475 515 449 _c
504 422 484 390 454 354 _c
446 344 420 317 376 272 _c
332 227 271 164 192 83 _c
_cl}_e}_d
/three{{636 0 76 -13 556 742 _sc
406 393 _m
453 383 490 362 516 330 _c
542 298 556 258 556 212 _c
556 140 531 84 482 45 _c
432 6 362 -13 271 -13 _c
240 -13 208 -10 176 -4 _c
144 1 110 10 76 22 _c
76 117 _l
103 101 133 89 166 81 _c
198 73 232 69 268 69 _c
330 69 377 81 409 105 _c
441 129 458 165 458 212 _c
458 254 443 288 413 312 _c
383 336 341 349 287 349 _c
}_e{202 349 _l
202 430 _l
291 430 _l
339 430 376 439 402 459 _c
428 478 441 506 441 543 _c
441 580 427 609 401 629 _c
374 649 336 659 287 659 _c
260 659 231 656 200 650 _c
169 644 135 635 98 623 _c
98 711 _l
135 721 170 729 203 734 _c
235 739 266 742 296 742 _c
370 742 429 725 473 691 _c
517 657 539 611 539 553 _c
539 513 527 479 504 451 _c
481 423 448 403 406 393 _c
_cl}_e}_d
/four{636 0 49 0 580 729 _sc
378 643 _m
129 254 _l
378 254 _l
378 643 _l
352 729 _m
476 729 _l
476 254 _l
580 254 _l
580 172 _l
476 172 _l
476 0 _l
378 0 _l
378 172 _l
49 172 _l
49 267 _l
352 729 _l
_cl}_d
/five{{636 0 77 -13 549 729 _sc
108 729 _m
495 729 _l
495 646 _l
198 646 _l
198 467 _l
212 472 227 476 241 478 _c
255 480 270 482 284 482 _c
365 482 429 459 477 415 _c
525 370 549 310 549 234 _c
549 155 524 94 475 51 _c
426 8 357 -13 269 -13 _c
238 -13 207 -10 175 -6 _c
143 -1 111 6 77 17 _c
77 116 _l
106 100 136 88 168 80 _c
199 72 232 69 267 69 _c
}_e{323 69 368 83 401 113 _c
433 143 450 183 450 234 _c
450 284 433 324 401 354 _c
368 384 323 399 267 399 _c
241 399 214 396 188 390 _c
162 384 135 375 108 363 _c
108 729 _l
_cl}_e}_d
/six{{636 0 70 -13 573 742 _sc
330 404 _m
286 404 251 388 225 358 _c
199 328 186 286 186 234 _c
186 181 199 139 225 109 _c
251 79 286 64 330 64 _c
374 64 409 79 435 109 _c
461 139 474 181 474 234 _c
474 286 461 328 435 358 _c
409 388 374 404 330 404 _c
526 713 _m
526 623 _l
501 635 476 644 451 650 _c
425 656 400 659 376 659 _c
310 659 260 637 226 593 _c
}_e{192 549 172 482 168 394 _c
187 422 211 444 240 459 _c
269 474 301 482 336 482 _c
409 482 467 459 509 415 _c
551 371 573 310 573 234 _c
573 159 550 99 506 54 _c
462 9 403 -13 330 -13 _c
246 -13 181 19 137 83 _c
92 147 70 241 70 364 _c
70 479 97 571 152 639 _c
206 707 280 742 372 742 _c
396 742 421 739 447 735 _c
472 730 498 723 526 713 _c
_cl}_e}_d
/seven{636 0 82 0 551 729 _sc
82 729 _m
551 729 _l
551 687 _l
286 0 _l
183 0 _l
432 646 _l
82 646 _l
82 729 _l
_cl}_d
/eight{{636 0 68 -13 568 742 _sc
318 346 _m
271 346 234 333 207 308 _c
180 283 167 249 167 205 _c
167 161 180 126 207 101 _c
234 76 271 64 318 64 _c
364 64 401 76 428 102 _c
455 127 469 161 469 205 _c
469 249 455 283 429 308 _c
402 333 365 346 318 346 _c
219 388 _m
177 398 144 418 120 447 _c
96 476 85 511 85 553 _c
85 611 105 657 147 691 _c
188 725 245 742 318 742 _c
}_e{390 742 447 725 489 691 _c
530 657 551 611 551 553 _c
551 511 539 476 515 447 _c
491 418 459 398 417 388 _c
464 377 501 355 528 323 _c
554 291 568 251 568 205 _c
568 134 546 80 503 43 _c
459 5 398 -13 318 -13 _c
237 -13 175 5 132 43 _c
89 80 68 134 68 205 _c
68 251 81 291 108 323 _c
134 355 171 377 219 388 _c
183 544 _m
183 506 194 476 218 455 _c
}_e{242 434 275 424 318 424 _c
360 424 393 434 417 455 _c
441 476 453 506 453 544 _c
453 582 441 611 417 632 _c
393 653 360 664 318 664 _c
275 664 242 653 218 632 _c
194 611 183 582 183 544 _c
_cl}_e}_d
/nine{{636 0 63 -13 566 742 _sc
110 15 _m
110 105 _l
134 93 159 84 185 78 _c
210 72 235 69 260 69 _c
324 69 374 90 408 134 _c
442 178 462 244 468 334 _c
448 306 424 284 396 269 _c
367 254 335 247 300 247 _c
226 247 168 269 126 313 _c
84 357 63 417 63 494 _c
63 568 85 628 129 674 _c
173 719 232 742 306 742 _c
390 742 455 709 499 645 _c
543 580 566 486 566 364 _c
}_e{566 248 538 157 484 89 _c
429 21 356 -13 264 -13 _c
239 -13 214 -10 189 -6 _c
163 -2 137 5 110 15 _c
306 324 _m
350 324 385 339 411 369 _c
437 399 450 441 450 494 _c
450 546 437 588 411 618 _c
385 648 350 664 306 664 _c
262 664 227 648 201 618 _c
175 588 162 546 162 494 _c
162 441 175 399 201 369 _c
227 339 262 324 306 324 _c
_cl}_e}_d
/C{{698 0 56 -13 644 742 _sc
644 673 _m
644 569 _l
610 599 575 622 537 638 _c
499 653 460 661 418 661 _c
334 661 270 635 226 584 _c
182 533 160 460 160 364 _c
160 268 182 194 226 143 _c
270 92 334 67 418 67 _c
460 67 499 74 537 90 _c
575 105 610 128 644 159 _c
644 56 _l
609 32 572 15 534 4 _c
496 -7 455 -13 412 -13 _c
302 -13 215 20 151 87 _c
}_e{87 154 56 246 56 364 _c
56 481 87 573 151 641 _c
215 708 302 742 412 742 _c
456 742 497 736 535 725 _c
573 713 610 696 644 673 _c
_cl}_e}_d
/underscore{500 0 -9 -235 510 -165 _sc
510 -165 _m
510 -235 _l
-9 -235 _l
-9 -165 _l
510 -165 _l
_cl}_d
/a{{613 0 60 -13 522 560 _sc
343 275 _m
270 275 220 266 192 250 _c
164 233 150 205 150 165 _c
150 133 160 107 181 89 _c
202 70 231 61 267 61 _c
317 61 357 78 387 114 _c
417 149 432 196 432 255 _c
432 275 _l
343 275 _l
522 312 _m
522 0 _l
432 0 _l
432 83 _l
411 49 385 25 355 10 _c
325 -5 287 -13 243 -13 _c
187 -13 142 2 109 33 _c
76 64 60 106 60 159 _c
}_e{60 220 80 266 122 298 _c
163 329 224 345 306 345 _c
432 345 _l
432 354 _l
432 395 418 427 391 450 _c
364 472 326 484 277 484 _c
245 484 215 480 185 472 _c
155 464 127 453 100 439 _c
100 522 _l
132 534 164 544 195 550 _c
226 556 256 560 286 560 _c
365 560 424 539 463 498 _c
502 457 522 395 522 312 _c
_cl}_e}_d
/b{{635 0 91 -13 580 760 _sc
487 273 _m
487 339 473 390 446 428 _c
418 466 381 485 334 485 _c
286 485 249 466 222 428 _c
194 390 181 339 181 273 _c
181 207 194 155 222 117 _c
249 79 286 61 334 61 _c
381 61 418 79 446 117 _c
473 155 487 207 487 273 _c
181 464 _m
199 496 223 520 252 536 _c
281 552 316 560 356 560 _c
422 560 476 533 518 481 _c
559 428 580 359 580 273 _c
}_e{580 187 559 117 518 65 _c
476 13 422 -13 356 -13 _c
316 -13 281 -5 252 10 _c
223 25 199 49 181 82 _c
181 0 _l
91 0 _l
91 760 _l
181 760 _l
181 464 _l
_cl}_e}_d
/c{{550 0 55 -13 488 560 _sc
488 526 _m
488 442 _l
462 456 437 466 411 473 _c
385 480 360 484 334 484 _c
276 484 230 465 198 428 _c
166 391 150 339 150 273 _c
150 206 166 154 198 117 _c
230 80 276 62 334 62 _c
360 62 385 65 411 72 _c
437 79 462 90 488 104 _c
488 21 _l
462 9 436 0 410 -5 _c
383 -10 354 -13 324 -13 _c
242 -13 176 12 128 64 _c
}_e{79 115 55 185 55 273 _c
55 362 79 432 128 483 _c
177 534 244 560 330 560 _c
358 560 385 557 411 551 _c
437 545 463 537 488 526 _c
_cl}_e}_d
/d{{635 0 55 -13 544 760 _sc
454 464 _m
454 760 _l
544 760 _l
544 0 _l
454 0 _l
454 82 _l
435 49 411 25 382 10 _c
353 -5 319 -13 279 -13 _c
213 -13 159 13 117 65 _c
75 117 55 187 55 273 _c
55 359 75 428 117 481 _c
159 533 213 560 279 560 _c
319 560 353 552 382 536 _c
411 520 435 496 454 464 _c
148 273 _m
148 207 161 155 188 117 _c
215 79 253 61 301 61 _c
}_e{348 61 385 79 413 117 _c
440 155 454 207 454 273 _c
454 339 440 390 413 428 _c
385 466 348 485 301 485 _c
253 485 215 466 188 428 _c
161 390 148 339 148 273 _c
_cl}_e}_d
/e{{615 0 55 -13 562 560 _sc
562 296 _m
562 252 _l
149 252 _l
153 190 171 142 205 110 _c
238 78 284 62 344 62 _c
378 62 412 66 444 74 _c
476 82 509 95 541 113 _c
541 28 _l
509 14 476 3 442 -3 _c
408 -9 373 -13 339 -13 _c
251 -13 182 12 131 62 _c
80 112 55 181 55 268 _c
55 357 79 428 127 481 _c
175 533 241 560 323 560 _c
397 560 455 536 498 489 _c
}_e{540 441 562 377 562 296 _c
472 322 _m
471 371 457 410 431 440 _c
404 469 368 484 324 484 _c
274 484 234 469 204 441 _c
174 413 156 373 152 322 _c
472 322 _l
_cl}_e}_d
/g{{635 0 55 -207 544 560 _sc
454 280 _m
454 344 440 395 414 431 _c
387 467 349 485 301 485 _c
253 485 215 467 188 431 _c
161 395 148 344 148 280 _c
148 215 161 165 188 129 _c
215 93 253 75 301 75 _c
349 75 387 93 414 129 _c
440 165 454 215 454 280 _c
544 68 _m
544 -24 523 -93 482 -139 _c
440 -184 377 -207 292 -207 _c
260 -207 231 -204 203 -200 _c
175 -195 147 -188 121 -178 _c
}_e{121 -91 _l
147 -105 173 -115 199 -122 _c
225 -129 251 -133 278 -133 _c
336 -133 380 -117 410 -87 _c
439 -56 454 -10 454 52 _c
454 96 _l
435 64 411 40 382 24 _c
353 8 319 0 279 0 _c
211 0 157 25 116 76 _c
75 127 55 195 55 280 _c
55 364 75 432 116 483 _c
157 534 211 560 279 560 _c
319 560 353 552 382 536 _c
411 520 435 496 454 464 _c
454 547 _l
544 547 _l
}_e{544 68 _l
_cl}_e}_d
/h{634 0 91 0 549 760 _sc
549 330 _m
549 0 _l
459 0 _l
459 327 _l
459 379 448 417 428 443 _c
408 469 378 482 338 482 _c
289 482 251 466 223 435 _c
195 404 181 362 181 309 _c
181 0 _l
91 0 _l
91 760 _l
181 760 _l
181 462 _l
202 494 227 519 257 535 _c
286 551 320 560 358 560 _c
420 560 468 540 500 501 _c
532 462 549 405 549 330 _c
_cl}_d
/i{278 0 94 0 184 760 _sc
94 547 _m
184 547 _l
184 0 _l
94 0 _l
94 547 _l
94 760 _m
184 760 _l
184 646 _l
94 646 _l
94 760 _l
_cl}_d
/k{579 0 91 0 576 760 _sc
91 760 _m
181 760 _l
181 311 _l
449 547 _l
564 547 _l
274 291 _l
576 0 _l
459 0 _l
181 267 _l
181 0 _l
91 0 _l
91 760 _l
_cl}_d
/l{278 0 94 0 184 760 _sc
94 760 _m
184 760 _l
184 0 _l
94 0 _l
94 760 _l
_cl}_d
/m{{974 0 91 0 889 560 _sc
520 442 _m
542 482 569 511 600 531 _c
631 550 668 560 711 560 _c
767 560 811 540 842 500 _c
873 460 889 403 889 330 _c
889 0 _l
799 0 _l
799 327 _l
799 379 789 418 771 444 _c
752 469 724 482 686 482 _c
639 482 602 466 575 435 _c
548 404 535 362 535 309 _c
535 0 _l
445 0 _l
445 327 _l
445 379 435 418 417 444 _c
398 469 369 482 331 482 _c
}_e{285 482 248 466 221 435 _c
194 404 181 362 181 309 _c
181 0 _l
91 0 _l
91 547 _l
181 547 _l
181 462 _l
201 495 226 520 255 536 _c
283 552 317 560 357 560 _c
397 560 430 550 458 530 _c
486 510 506 480 520 442 _c
_cl}_e}_d
/n{634 0 91 0 549 560 _sc
549 330 _m
549 0 _l
459 0 _l
459 327 _l
459 379 448 417 428 443 _c
408 469 378 482 338 482 _c
289 482 251 466 223 435 _c
195 404 181 362 181 309 _c
181 0 _l
91 0 _l
91 547 _l
181 547 _l
181 462 _l
202 494 227 519 257 535 _c
286 551 320 560 358 560 _c
420 560 468 540 500 501 _c
532 462 549 405 549 330 _c
_cl}_d
/o{612 0 55 -13 557 560 _sc
306 484 _m
258 484 220 465 192 427 _c
164 389 150 338 150 273 _c
150 207 163 156 191 118 _c
219 80 257 62 306 62 _c
354 62 392 80 420 118 _c
448 156 462 207 462 273 _c
462 337 448 389 420 427 _c
392 465 354 484 306 484 _c
306 560 _m
384 560 445 534 490 484 _c
534 433 557 363 557 273 _c
557 183 534 113 490 63 _c
445 12 384 -13 306 -13 _c
227 -13 165 12 121 63 _c
77 113 55 183 55 273 _c
55 363 77 433 121 484 _c
165 534 227 560 306 560 _c
_cl}_d
/p{{635 0 91 -207 580 560 _sc
181 82 _m
181 -207 _l
91 -207 _l
91 547 _l
181 547 _l
181 464 _l
199 496 223 520 252 536 _c
281 552 316 560 356 560 _c
422 560 476 533 518 481 _c
559 428 580 359 580 273 _c
580 187 559 117 518 65 _c
476 13 422 -13 356 -13 _c
316 -13 281 -5 252 10 _c
223 25 199 49 181 82 _c
487 273 _m
487 339 473 390 446 428 _c
418 466 381 485 334 485 _c
}_e{286 485 249 466 222 428 _c
194 390 181 339 181 273 _c
181 207 194 155 222 117 _c
249 79 286 61 334 61 _c
381 61 418 79 446 117 _c
473 155 487 207 487 273 _c
_cl}_e}_d
/r{411 0 91 0 411 560 _sc
411 463 _m
401 469 390 473 378 476 _c
366 478 353 480 339 480 _c
288 480 249 463 222 430 _c
194 397 181 350 181 288 _c
181 0 _l
91 0 _l
91 547 _l
181 547 _l
181 462 _l
199 495 224 520 254 536 _c
284 552 321 560 365 560 _c
371 560 378 559 386 559 _c
393 558 401 557 411 555 _c
411 463 _l
_cl}_d
/s{{521 0 54 -13 472 560 _sc
443 531 _m
443 446 _l
417 458 391 468 364 475 _c
336 481 308 485 279 485 _c
234 485 200 478 178 464 _c
156 450 145 430 145 403 _c
145 382 153 366 169 354 _c
185 342 217 330 265 320 _c
296 313 _l
360 299 405 279 432 255 _c
458 230 472 195 472 151 _c
472 100 452 60 412 31 _c
372 1 316 -13 246 -13 _c
216 -13 186 -10 154 -5 _c
}_e{122 0 89 8 54 20 _c
54 113 _l
87 95 120 82 152 74 _c
184 65 216 61 248 61 _c
290 61 323 68 346 82 _c
368 96 380 117 380 144 _c
380 168 371 187 355 200 _c
339 213 303 226 247 238 _c
216 245 _l
160 257 119 275 95 299 _c
70 323 58 356 58 399 _c
58 450 76 490 112 518 _c
148 546 200 560 268 560 _c
301 560 332 557 362 552 _c
391 547 418 540 443 531 _c
}_e{_cl}_e}_d
/t{392 0 27 0 368 702 _sc
183 702 _m
183 547 _l
368 547 _l
368 477 _l
183 477 _l
183 180 _l
183 135 189 106 201 94 _c
213 81 238 75 276 75 _c
368 75 _l
368 0 _l
276 0 _l
206 0 158 13 132 39 _c
106 65 93 112 93 180 _c
93 477 _l
27 477 _l
27 547 _l
93 547 _l
93 702 _l
183 702 _l
_cl}_d
/u{634 0 85 -13 543 560 _sc
85 216 _m
85 547 _l
175 547 _l
175 219 _l
175 167 185 129 205 103 _c
225 77 255 64 296 64 _c
344 64 383 79 411 110 _c
439 141 453 183 453 237 _c
453 547 _l
543 547 _l
543 0 _l
453 0 _l
453 84 _l
431 50 405 26 377 10 _c
348 -5 315 -13 277 -13 _c
214 -13 166 6 134 45 _c
101 83 85 140 85 216 _c
311 560 _m
311 560 _l
_cl}_d
/v{592 0 30 0 562 547 _sc
30 547 _m
125 547 _l
296 88 _l
467 547 _l
562 547 _l
357 0 _l
235 0 _l
30 547 _l
_cl}_d
/x{592 0 29 0 559 547 _sc
549 547 _m
351 281 _l
559 0 _l
453 0 _l
294 215 _l
135 0 _l
29 0 _l
241 286 _l
47 547 _l
153 547 _l
298 352 _l
443 547 _l
549 547 _l
_cl}_d
/y{592 0 30 -207 562 547 _sc
322 -50 _m
296 -114 271 -157 247 -177 _c
223 -197 191 -207 151 -207 _c
79 -207 _l
79 -132 _l
132 -132 _l
156 -132 175 -126 189 -114 _c
203 -102 218 -75 235 -31 _c
251 9 _l
30 547 _l
125 547 _l
296 119 _l
467 547 _l
562 547 _l
322 -50 _l
_cl}_d
/z{525 0 43 0 482 547 _sc
55 547 _m
482 547 _l
482 465 _l
144 72 _l
482 72 _l
482 0 _l
43 0 _l
43 82 _l
381 475 _l
55 475 _l
55 547 _l
_cl}_d
/degree{{500 0 95 432 405 742 _sc
250 679 _m
224 679 202 670 184 652 _c
166 634 157 612 157 586 _c
157 560 166 538 184 520 _c
202 502 224 494 250 494 _c
276 494 298 502 316 520 _c
334 538 343 560 343 586 _c
343 612 334 634 316 652 _c
298 670 276 679 250 679 _c
250 742 _m
270 742 290 738 310 730 _c
329 722 346 710 360 696 _c
374 681 385 664 393 646 _c
401 627 405 607 405 586 _c
}_e{405 542 389 506 359 476 _c
329 446 292 432 249 432 _c
205 432 168 446 139 476 _c
109 505 95 542 95 586 _c
95 629 110 666 140 696 _c
170 726 206 742 250 742 _c
_cl}_e}_d
end readonly def

/BuildGlyph
 {exch begin
 CharStrings exch
 2 copy known not{pop /.notdef}if
 true 3 1 roll get exec
 end}_d

/BuildChar {
 1 index /Encoding get exch get
 1 index /BuildGlyph get exec
}_d

FontName currentdict end definefont pop
end
%%EndProlog
mpldict begin
-414 288 translate
1440 216 0 0 clipbox
1.000 setlinewidth
0 setlinejoin
0 setlinecap
[] 0 setdash
0.000 setgray
gsave
10.8 150.077922 m
129 150.077922 l
129 164.103896 l
10.8 164.103896 l
cl
gsave
1.000 setgray
fill
grestore
stroke
grestore
/DejaVuSans findfont
11.000 scalefont
setfont
gsave
52.181250 154.051847 translate
0.000000 rotate
0.000000 0 m /m glyphshow
10.715332 0 m /e glyphshow
17.482910 0 m /t glyphshow
21.795898 0 m /r glyphshow
26.318359 0 m /i glyphshow
29.374512 0 m /c glyphshow
grestore
gsave
129 150.077922 m
247.2 150.077922 l
247.2 164.103896 l
129 164.103896 l
cl
gsave
1.000 setgray
fill
grestore
stroke
grestore
gsave
142.209375 154.208097 translate
0.000000 rotate
0.000000 0 m /n glyphshow
6.971680 0 m /u glyphshow
13.943359 0 m /m glyphshow
24.658691 0 m /underscore glyphshow
30.158691 0 m /h glyphshow
37.130371 0 m /e glyphshow
43.897949 0 m /a glyphshow
50.638672 0 m /l glyphshow
53.694824 0 m /t glyphshow
58.007812 0 m /h glyphshow
64.979492 0 m /underscore glyphshow
70.479492 0 m /u glyphshow
77.451172 0 m /n glyphshow
84.422852 0 m /i glyphshow
87.479004 0 m /t glyphshow
grestore
gsave
247.2 150.077922 m
365.4 150.077922 l
365.4 164.103896 l
247.2 164.103896 l
cl
gsave
1.000 setgray
fill
grestore
stroke
grestore
gsave
254.878125 154.051847 translate
0.000000 rotate
0.000000 0 m /p glyphshow
6.982422 0 m /r glyphshow
11.254883 0 m /e glyphshow
18.022461 0 m /c glyphshow
24.070312 0 m /i glyphshow
27.126465 0 m /p glyphshow
34.108887 0 m /i glyphshow
37.165039 0 m /t glyphshow
41.478027 0 m /a glyphshow
48.218750 0 m /t glyphshow
52.531738 0 m /i glyphshow
55.587891 0 m /o glyphshow
62.317871 0 m /n glyphshow
69.289551 0 m /space glyphshow
72.786133 0 m /parenleft glyphshow
77.077637 0 m /m glyphshow
87.792969 0 m /m glyphshow
98.508301 0 m /parenright glyphshow
grestore
gsave
365.4 150.077922 m
483.6 150.077922 l
483.6 164.103896 l
365.4 164.103896 l
cl
gsave
1.000 setgray
fill
grestore
stroke
grestore
gsave
377.289062 154.051847 translate
0.000000 rotate
0.000000 0 m /t glyphshow
4.312988 0 m /e glyphshow
11.080566 0 m /m glyphshow
21.795898 0 m /p glyphshow
28.778320 0 m /e glyphshow
35.545898 0 m /r glyphshow
40.068359 0 m /a glyphshow
46.809082 0 m /t glyphshow
51.122070 0 m /u glyphshow
58.093750 0 m /r glyphshow
62.366211 0 m /e glyphshow
69.133789 0 m /space glyphshow
72.630371 0 m /parenleft glyphshow
76.921875 0 m /degree glyphshow
82.421875 0 m /C glyphshow
90.102539 0 m /parenright glyphshow
grestore
gsave
483.6 150.077922 m
601.8 150.077922 l
601.8 164.103896 l
483.6 164.103896 l
cl
gsave
1.000 setgray
fill
grestore
stroke
grestore
gsave
497.215625 154.208097 translate
0.000000 rotate
0.000000 0 m /a glyphshow
6.740723 0 m /i glyphshow
9.796875 0 m /r glyphshow
14.319336 0 m /underscore glyphshow
19.819336 0 m /h glyphshow
26.791016 0 m /u glyphshow
33.762695 0 m /m glyphshow
44.478027 0 m /i glyphshow
47.534180 0 m /d glyphshow
54.516602 0 m /i glyphshow
57.572754 0 m /t glyphshow
61.885742 0 m /y glyphshow
68.395508 0 m /space glyphshow
71.892090 0 m /parenleft glyphshow
76.183594 0 m /percent glyphshow
86.635742 0 m /parenright glyphshow
grestore
gsave
601.8 150.077922 m
720 150.077922 l
720 164.103896 l
601.8 164.103896 l
cl
gsave
1.000 setgray
fill
grestore
stroke
grestore
gsave
618.142187 154.208097 translate
0.000000 rotate
0.000000 0 m /n glyphshow
6.971680 0 m /e glyphshow
13.739258 0 m /i glyphshow
16.795410 0 m /g glyphshow
23.777832 0 m /h glyphshow
30.749512 0 m /b glyphshow
37.731934 0 m /o glyphshow
44.461914 0 m /r glyphshow
48.984375 0 m /underscore glyphshow
54.484375 0 m /c glyphshow
60.532227 0 m /a glyphshow
67.272949 0 m /s glyphshow
73.003906 0 m /e glyphshow
79.771484 0 m /s glyphshow
grestore
gsave
720 150.077922 m
838.2 150.077922 l
838.2 164.103896 l
720 164.103896 l
cl
gsave
1.000 setgray
fill
grestore
stroke
grestore
gsave
720.920312 154.051847 translate
0.000000 rotate
0.000000 0 m /d glyphshow
6.982422 0 m /e glyphshow
13.750000 0 m /m glyphshow
24.465332 0 m /o glyphshow
31.195312 0 m /g glyphshow
38.177734 0 m /r glyphshow
42.700195 0 m /a glyphshow
49.440918 0 m /p glyphshow
56.423340 0 m /h glyphshow
63.395020 0 m /i glyphshow
66.451172 0 m /c glyphshow
72.499023 0 m /space glyphshow
75.995605 0 m /d glyphshow
82.978027 0 m /e glyphshow
89.745605 0 m /n glyphshow
96.717285 0 m /s glyphshow
102.448242 0 m /i glyphshow
105.504395 0 m /t glyphshow
109.817383 0 m /y glyphshow
grestore
gsave
838.2 150.077922 m
956.4 150.077922 l
956.4 164.103896 l
838.2 164.103896 l
cl
gsave
1.000 setgray
fill
grestore
stroke
grestore
gsave
886.448437 154.051847 translate
0.000000 rotate
0.000000 0 m /z glyphshow
5.773926 0 m /i glyphshow
8.830078 0 m /k glyphshow
14.950195 0 m /a glyphshow
grestore
gsave
956.4 150.077922 m
1074.6 150.077922 l
1074.6 164.103896 l
956.4 164.103896 l
cl
gsave
1.000 setgray
fill
grestore
stroke
grestore
gsave
980.406250 154.051847 translate
0.000000 rotate
0.000000 0 m /c glyphshow
6.047852 0 m /h glyphshow
13.019531 0 m /i glyphshow
16.075684 0 m /k glyphshow
22.070801 0 m /u glyphshow
29.042480 0 m /n glyphshow
36.014160 0 m /g glyphshow
42.996582 0 m /u glyphshow
49.968262 0 m /n glyphshow
56.939941 0 m /y glyphshow
63.449707 0 m /a glyphshow
grestore
gsave
1074.6 150.077922 m
1192.8 150.077922 l
1192.8 164.103896 l
1074.6 164.103896 l
cl
gsave
1.000 setgray
fill
grestore
stroke
grestore
gsave
1079.785938 154.208097 translate
0.000000 rotate
0.000000 0 m /d glyphshow
6.982422 0 m /e glyphshow
13.750000 0 m /n glyphshow
20.721680 0 m /g glyphshow
27.704102 0 m /u glyphshow
34.675781 0 m /e glyphshow
41.443359 0 m /underscore glyphshow
46.943359 0 m /p glyphshow
53.925781 0 m /r glyphshow
58.198242 0 m /e glyphshow
64.965820 0 m /v glyphshow
71.475586 0 m /a glyphshow
78.216309 0 m /l glyphshow
81.272461 0 m /e glyphshow
88.040039 0 m /n glyphshow
95.011719 0 m /c glyphshow
101.059570 0 m /e glyphshow
grestore
gsave
1192.8 150.077922 m
1311 150.077922 l
1311 164.103896 l
1192.8 164.103896 l
cl
gsave
1.000 setgray
fill
grestore
stroke
grestore
gsave
1239.837500 154.051847 translate
0.000000 rotate
0.000000 0 m /l glyphshow
3.056152 0 m /i glyphshow
6.112305 0 m /r glyphshow
10.634766 0 m /a glyphshow
17.375488 0 m /a glyphshow
grestore
gsave
1311 150.077922 m
1429.2 150.077922 l
1429.2 164.103896 l
1311 164.103896 l
cl
gsave
1.000 setgray
fill
grestore
stroke
grestore
gsave
1331.123438 154.208097 translate
0.000000 rotate
0.000000 0 m /d glyphshow
6.982422 0 m /e glyphshow
13.750000 0 m /n glyphshow
20.721680 0 m /g glyphshow
27.704102 0 m /u glyphshow
34.675781 0 m /e glyphshow
41.443359 0 m /underscore glyphshow
46.943359 0 m /c glyphshow
52.991211 0 m /a glyphshow
59.731934 0 m /s glyphshow
65.462891 0 m /e glyphshow
72.230469 0 m /s glyphshow
grestore
gsave
10.8 136.051948 m
129 136.051948 l
129 150.077922 l
10.8 150.077922 l
cl
gsave
1.000 setgray
fill
grestore
stroke
grestore
gsave
85.992500 140.025873 translate
0.000000 rotate
0.000000 0 m /m glyphshow
10.715332 0 m /e glyphshow
17.482910 0 m /a glyphshow
24.223633 0 m /n glyphshow
grestore
gsave
129 136.051948 m
247.2 136.051948 l
247.2 150.077922 l
129 150.077922 l
cl
gsave
1.000 setgray
fill
grestore
stroke
grestore
gsave
228.380000 140.025873 translate
0.000000 rotate
0.000000 0 m /nine glyphshow
grestore
gsave
247.2 136.051948 m
365.4 136.051948 l
365.4 150.077922 l
247.2 150.077922 l
cl
gsave
1.000 setgray
fill
grestore
stroke
grestore
gsave
339.580000 140.025873 translate
0.000000 rotate
0.000000 0 m /nine glyphshow
6.998535 0 m /five glyphshow
grestore
gsave
365.4 136.051948 m
483.6 136.051948 l
483.6 150.077922 l
365.4 150.077922 l
cl
gsave
1.000 setgray
fill
grestore
stroke
grestore
gsave
457.780000 140.025873 translate
0.000000 rotate
0.000000 0 m /two glyphshow
6.998535 0 m /four glyphshow
grestore
gsave
483.6 136.051948 m
601.8 136.051948 l
601.8 150.077922 l
483.6 150.077922 l
cl
gsave
1.000 setgray
fill
grestore
stroke
grestore
gsave
575.980000 140.025873 translate
0.000000 rotate
0.000000 0 m /seven glyphshow
6.998535 0 m /three glyphshow
grestore
gsave
601.8 136.051948 m
720 136.051948 l
720 150.077922 l
601.8 150.077922 l
cl
gsave
1.000 setgray
fill
grestore
stroke
grestore
gsave
694.180000 140.025873 translate
0.000000 rotate
0.000000 0 m /three glyphshow
6.998535 0 m /four glyphshow
grestore
gsave
720 136.051948 m
838.2 136.051948 l
838.2 150.077922 l
720 150.077922 l
cl
gsave
1.000 setgray
fill
grestore
stroke
grestore
gsave
805.380000 140.025873 translate
0.000000 rotate
0.000000 0 m /one glyphshow
6.998535 0 m /two glyphshow
13.997070 0 m /seven glyphshow
grestore
gsave
838.2 136.051948 m
956.4 136.051948 l
956.4 150.077922 l
838.2 150.077922 l
cl
gsave
1.000 setgray
fill
grestore
stroke
grestore
gsave
937.580000 140.025873 translate
0.000000 rotate
0.000000 0 m /four glyphshow
grestore
gsave
956.4 136.051948 m
1074.6 136.051948 l
1074.6 150.077922 l
956.4 150.077922 l
cl
gsave
1.000 setgray
fill
grestore
stroke
grestore
gsave
1055.780000 140.025873 translate
0.000000 rotate
0.000000 0 m /seven glyphshow
grestore
gsave
1074.6 136.051948 m
1192.8 136.051948 l
1192.8 150.077922 l
1074.6 150.077922 l
cl
gsave
1.000 setgray
fill
grestore
stroke
grestore
gsave
1156.480000 140.025873 translate
0.000000 rotate
0.000000 0 m /zero glyphshow
6.998535 0 m /period glyphshow
10.495117 0 m /zero glyphshow
17.493652 0 m /seven glyphshow
grestore
gsave
1192.8 136.051948 m
1311 136.051948 l
1311 150.077922 l
1192.8 150.077922 l
cl
gsave
1.000 setgray
fill
grestore
stroke
grestore
gsave
1274.680000 140.025873 translate
0.000000 rotate
0.000000 0 m /zero glyphshow
6.998535 0 m /period glyphshow
10.495117 0 m /nine glyphshow
17.493652 0 m /four glyphshow
grestore
gsave
1311 136.051948 m
1429.2 136.051948 l
1429.2 150.077922 l
1311 150.077922 l
cl
gsave
1.000 setgray
fill
grestore
stroke
grestore
gsave
1410.380000 140.025873 translate
0.000000 rotate
0.000000 0 m /seven glyphshow
grestore
gsave
10.8 122.025974 m
129 122.025974 l
129 136.051948 l
10.8 136.051948 l
cl
gsave
1.000 setgray
fill
grestore
stroke
grestore
gsave
100.148750 125.999899 translate
0.000000 rotate
0.000000 0 m /s glyphshow
5.730957 0 m /t glyphshow
10.043945 0 m /d glyphshow
grestore
gsave
129 122.025974 m
247.2 122.025974 l
247.2 136.051948 l
129 136.051948 l
cl
gsave
1.000 setgray
fill
grestore
stroke
grestore
gsave
221.380000 125.999899 translate
0.000000 rotate
0.000000 0 m /two glyphshow
6.998535 0 m /three glyphshow
grestore
gsave
247.2 122.025974 m
365.4 122.025974 l
365.4 136.051948 l
247.2 136.051948 l
cl
gsave
1.000 setgray
fill
grestore
stroke
grestore
gsave
339.580000 125.999899 translate
0.000000 rotate
0.000000 0 m /seven glyphshow
6.998535 0 m /eight glyphshow
grestore
gsave
365.4 122.025974 m
483.6 122.025974 l
483.6 136.051948 l
365.4 136.051948 l
cl
gsave
1.000 setgray
fill
grestore
stroke
grestore
gsave
464.780000 125.999899 translate
0.000000 rotate
0.000000 0 m /three glyphshow
grestore
gsave
483.6 122.025974 m
601.8 122.025974 l
601.8 136.051948 l
483.6 136.051948 l
cl
gsave
1.000 setgray
fill
grestore
stroke
grestore
gsave
582.980000 125.999899 translate
0.000000 rotate
0.000000 0 m /five glyphshow
grestore
gsave
601.8 122.025974 m
720 122.025974 l
720 136.051948 l
601.8 136.051948 l
cl
gsave
1.000 setgray
fill
grestore
stroke
grestore
gsave
694.180000 125.999899 translate
0.000000 rotate
0.000000 0 m /nine glyphshow
6.998535 0 m /one glyphshow
grestore
gsave
720 122.025974 m
838.2 122.025974 l
838.2 136.051948 l
720 136.051948 l
cl
gsave
1.000 setgray
fill
grestore
stroke
grestore
gsave
812.380000 125.999899 translate
0.000000 rotate
0.000000 0 m /nine glyphshow
6.998535 0 m /eight glyphshow
grestore
gsave
838.2 122.025974 m
956.4 122.025974 l
956.4 136.051948 l
838.2 136.051948 l
cl
gsave
1.000 setgray
fill
grestore
stroke
grestore
gsave
930.580000 125.999899 translate
0.000000 rotate
0.000000 0 m /two glyphshow
6.998535 0 m /three glyphshow
grestore
gsave
956.4 122.025974 m
1074.6 122.025974 l
1074.6 136.051948 l
956.4 136.051948 l
cl
gsave
1.000 setgray
fill
grestore
stroke
grestore
gsave
1048.780000 125.999899 translate
0.000000 rotate
0.000000 0 m /two glyphshow
6.998535 0 m /eight glyphshow
grestore
gsave
1074.6 122.025974 m
1192.8 122.025974 l
1192.8 136.051948 l
1074.6 136.051948 l
cl
gsave
1.000 setgray
fill
grestore
stroke
grestore
gsave
1156.480000 125.999899 translate
0.000000 rotate
0.000000 0 m /zero glyphshow
6.998535 0 m /period glyphshow
10.495117 0 m /one glyphshow
17.493652 0 m /one glyphshow
grestore
gsave
1192.8 122.025974 m
1311 122.025974 l
1311 136.051948 l
1192.8 136.051948 l
cl
gsave
1.000 setgray
fill
grestore
stroke
grestore
gsave
1274.680000 125.999899 translate
0.000000 rotate
0.000000 0 m /zero glyphshow
6.998535 0 m /period glyphshow
10.495117 0 m /one glyphshow
17.493652 0 m /five glyphshow
grestore
gsave
1311 122.025974 m
1429.2 122.025974 l
1429.2 136.051948 l
1311 136.051948 l
cl
gsave
1.000 setgray
fill
grestore
stroke
grestore
gsave
1403.380000 125.999899 translate
0.000000 rotate
0.000000 0 m /two glyphshow
6.998535 0 m /eight glyphshow
grestore
gsave
10.8 108 m
129 108 l
129 122.025974 l
10.8 122.025974 l
cl
gsave
1.000 setgray
fill
grestore
stroke
grestore
gsave
96.430000 111.973925 translate
0.000000 rotate
0.000000 0 m /m glyphshow
10.715332 0 m /i glyphshow
13.771484 0 m /n glyphshow
grestore
gsave
129 108 m
247.2 108 l
247.2 122.025974 l
129 122.025974 l
cl
gsave
1.000 setgray
fill
grestore
stroke
grestore
gsave
228.380000 111.973925 translate
0.000000 rotate
0.000000 0 m /zero glyphshow
grestore
gsave
247.2 108 m
365.4 108 l
365.4 122.025974 l
247.2 122.025974 l
cl
gsave
1.000 setgray
fill
grestore
stroke
grestore
gsave
346.580000 111.973925 translate
0.000000 rotate
0.000000 0 m /one glyphshow
grestore
gsave
365.4 108 m
483.6 108 l
483.6 122.025974 l
365.4 122.025974 l
cl
gsave
1.000 setgray
fill
grestore
stroke
grestore
gsave
457.780000 111.973925 translate
0.000000 rotate
0.000000 0 m /two glyphshow
6.998535 0 m /zero glyphshow
grestore
gsave
483.6 108 m
601.8 108 l
601.8 122.025974 l
483.6 122.025974 l
cl
gsave
1.000 setgray
fill
grestore
stroke
grestore
gsave
575.980000 111.973925 translate
0.000000 rotate
0.000000 0 m /five glyphshow
6.998535 0 m /nine glyphshow
grestore
gsave
601.8 108 m
720 108 l
720 122.025974 l
601.8 122.025974 l
cl
gsave
1.000 setgray
fill
grestore
stroke
grestore
gsave
701.180000 111.973925 translate
0.000000 rotate
0.000000 0 m /zero glyphshow
grestore
gsave
720 108 m
838.2 108 l
838.2 122.025974 l
720 122.025974 l
cl
gsave
1.000 setgray
fill
grestore
stroke
grestore
gsave
819.380000 111.973925 translate
0.000000 rotate
0.000000 0 m /zero glyphshow
grestore
gsave
838.2 108 m
956.4 108 l
956.4 122.025974 l
838.2 122.025974 l
cl
gsave
1.000 setgray
fill
grestore
stroke
grestore
gsave
937.580000 111.973925 translate
0.000000 rotate
0.000000 0 m /zero glyphshow
grestore
gsave
956.4 108 m
1074.6 108 l
1074.6 122.025974 l
956.4 122.025974 l
cl
gsave
1.000 setgray
fill
grestore
stroke
grestore
gsave
1055.780000 111.973925 translate
0.000000 rotate
0.000000 0 m /zero glyphshow
grestore
gsave
1074.6 108 m
1192.8 108 l
1192.8 122.025974 l
1074.6 122.025974 l
cl
gsave
1.000 setgray
fill
grestore
stroke
grestore
gsave
1163.480000 111.973925 translate
0.000000 rotate
0.000000 0 m /zero glyphshow
6.998535 0 m /period glyphshow
10.495117 0 m /zero glyphshow
grestore
gsave
1192.8 108 m
1311 108 l
1311 122.025974 l
1192.8 122.025974 l
cl
gsave
1.000 setgray
fill
grestore
stroke
grestore
gsave
1281.680000 111.973925 translate
0.000000 rotate
0.000000 0 m /zero glyphshow
6.998535 0 m /period glyphshow
10.495117 0 m /six glyphshow
grestore
gsave
1311 108 m
1429.2 108 l
1429.2 122.025974 l
1311 122.025974 l
cl
gsave
1.000 setgray
fill
grestore
stroke
grestore
gsave
1410.380000 111.973925 translate
0.000000 rotate
0.000000 0 m /zero glyphshow
grestore
gsave
10.8 93.974026 m
129 93.974026 l
129 108 l
10.8 108 l
cl
gsave
1.000 setgray
fill
grestore
stroke
grestore
gsave
92.726875 97.947950 translate
0.000000 rotate
0.000000 0 m /two glyphshow
6.998535 0 m /five glyphshow
13.997070 0 m /percent glyphshow
grestore
gsave
129 93.974026 m
247.2 93.974026 l
247.2 108 l
129 108 l
cl
gsave
1.000 setgray
fill
grestore
stroke
grestore
gsave
228.380000 97.947950 translate
0.000000 rotate
0.000000 0 m /two glyphshow
grestore
gsave
247.2 93.974026 m
365.4 93.974026 l
365.4 108 l
247.2 108 l
cl
gsave
1.000 setgray
fill
grestore
stroke
grestore
gsave
339.580000 97.947950 translate
0.000000 rotate
0.000000 0 m /three glyphshow
6.998535 0 m /eight glyphshow
grestore
gsave
365.4 93.974026 m
483.6 93.974026 l
483.6 108 l
365.4 108 l
cl
gsave
1.000 setgray
fill
grestore
stroke
grestore
gsave
457.780000 97.947950 translate
0.000000 rotate
0.000000 0 m /two glyphshow
6.998535 0 m /two glyphshow
grestore
gsave
483.6 93.974026 m
601.8 93.974026 l
601.8 108 l
483.6 108 l
cl
gsave
1.000 setgray
fill
grestore
stroke
grestore
gsave
575.980000 97.947950 translate
0.000000 rotate
0.000000 0 m /seven glyphshow
6.998535 0 m /zero glyphshow
grestore
gsave
601.8 93.974026 m
720 93.974026 l
720 108 l
601.8 108 l
cl
gsave
1.000 setgray
fill
grestore
stroke
grestore
gsave
701.180000 97.947950 translate
0.000000 rotate
0.000000 0 m /two glyphshow
grestore
gsave
720 93.974026 m
838.2 93.974026 l
838.2 108 l
720 108 l
cl
gsave
1.000 setgray
fill
grestore
stroke
grestore
gsave
812.380000 97.947950 translate
0.000000 rotate
0.000000 0 m /six glyphshow
6.998535 0 m /nine glyphshow
grestore
gsave
838.2 93.974026 m
956.4 93.974026 l
956.4 108 l
838.2 108 l
cl
gsave
1.000 setgray
fill
grestore
stroke
grestore
gsave
937.580000 97.947950 translate
0.000000 rotate
0.000000 0 m /zero glyphshow
grestore
gsave
956.4 93.974026 m
1074.6 93.974026 l
1074.6 108 l
956.4 108 l
cl
gsave
1.000 setgray
fill
grestore
stroke
grestore
gsave
1055.780000 97.947950 translate
0.000000 rotate
0.000000 0 m /zero glyphshow
grestore
gsave
1074.6 93.974026 m
1192.8 93.974026 l
1192.8 108 l
1074.6 108 l
cl
gsave
1.000 setgray
fill
grestore
stroke
grestore
gsave
1156.480000 97.947950 translate
0.000000 rotate
0.000000 0 m /zero glyphshow
6.998535 0 m /period glyphshow
10.495117 0 m /zero glyphshow
17.493652 0 m /two glyphshow
grestore
gsave
1192.8 93.974026 m
1311 93.974026 l
1311 108 l
1192.8 108 l
cl
gsave
1.000 setgray
fill
grestore
stroke
grestore
gsave
1281.680000 97.947950 translate
0.000000 rotate
0.000000 0 m /zero glyphshow
6.998535 0 m /period glyphshow
10.495117 0 m /eight glyphshow
grestore
gsave
1311 93.974026 m
1429.2 93.974026 l
1429.2 108 l
1311 108 l
cl
gsave
1.000 setgray
fill
grestore
stroke
grestore
gsave
1410.380000 97.947950 translate
0.000000 rotate
0.000000 0 m /zero glyphshow
grestore
gsave
10.8 79.948052 m
129 79.948052 l
129 93.974026 l
10.8 93.974026 l
cl
gsave
1.000 setgray
fill
grestore
stroke
grestore
gsave
92.726875 83.921976 translate
0.000000 rotate
0.000000 0 m /five glyphshow
6.998535 0 m /zero glyphshow
13.997070 0 m /percent glyphshow
grestore
gsave
129 79.948052 m
247.2 79.948052 l
247.2 93.974026 l
129 93.974026 l
cl
gsave
1.000 setgray
fill
grestore
stroke
grestore
gsave
228.380000 83.921976 translate
0.000000 rotate
0.000000 0 m /three glyphshow
grestore
gsave
247.2 79.948052 m
365.4 79.948052 l
365.4 93.974026 l
247.2 93.974026 l
cl
gsave
1.000 setgray
fill
grestore
stroke
grestore
gsave
339.580000 83.921976 translate
0.000000 rotate
0.000000 0 m /six glyphshow
6.998535 0 m /five glyphshow
grestore
gsave
365.4 79.948052 m
483.6 79.948052 l
483.6 93.974026 l
365.4 93.974026 l
cl
gsave
1.000 setgray
fill
grestore
stroke
grestore
gsave
457.780000 83.921976 translate
0.000000 rotate
0.000000 0 m /two glyphshow
6.998535 0 m /four glyphshow
grestore
gsave
483.6 79.948052 m
601.8 79.948052 l
601.8 93.974026 l
483.6 93.974026 l
cl
gsave
1.000 setgray
fill
grestore
stroke
grestore
gsave
575.980000 83.921976 translate
0.000000 rotate
0.000000 0 m /seven glyphshow
6.998535 0 m /four glyphshow
grestore
gsave
601.8 79.948052 m
720 79.948052 l
720 93.974026 l
601.8 93.974026 l
cl
gsave
1.000 setgray
fill
grestore
stroke
grestore
gsave
701.180000 83.921976 translate
0.000000 rotate
0.000000 0 m /seven glyphshow
grestore
gsave
720 79.948052 m
838.2 79.948052 l
838.2 93.974026 l
720 93.974026 l
cl
gsave
1.000 setgray
fill
grestore
stroke
grestore
gsave
805.380000 83.921976 translate
0.000000 rotate
0.000000 0 m /one glyphshow
6.998535 0 m /two glyphshow
13.997070 0 m /four glyphshow
grestore
gsave
838.2 79.948052 m
956.4 79.948052 l
956.4 93.974026 l
838.2 93.974026 l
cl
gsave
1.000 setgray
fill
grestore
stroke
grestore
gsave
937.580000 83.921976 translate
0.000000 rotate
0.000000 0 m /zero glyphshow
grestore
gsave
956.4 79.948052 m
1074.6 79.948052 l
1074.6 93.974026 l
956.4 93.974026 l
cl
gsave
1.000 setgray
fill
grestore
stroke
grestore
gsave
1055.780000 83.921976 translate
0.000000 rotate
0.000000 0 m /zero glyphshow
grestore
gsave
1074.6 79.948052 m
1192.8 79.948052 l
1192.8 93.974026 l
1074.6 93.974026 l
cl
gsave
1.000 setgray
fill
grestore
stroke
grestore
gsave
1156.480000 83.921976 translate
0.000000 rotate
0.000000 0 m /zero glyphshow
6.998535 0 m /period glyphshow
10.495117 0 m /zero glyphshow
17.493652 0 m /four glyphshow
grestore
gsave
1192.8 79.948052 m
1311 79.948052 l
1311 93.974026 l
1192.8 93.974026 l
cl
gsave
1.000 setgray
fill
grestore
stroke
grestore
gsave
1281.680000 83.921976 translate
0.000000 rotate
0.000000 0 m /zero glyphshow
6.998535 0 m /period glyphshow
10.495117 0 m /nine glyphshow
grestore
gsave
1311 79.948052 m
1429.2 79.948052 l
1429.2 93.974026 l
1311 93.974026 l
cl
gsave
1.000 setgray
fill
grestore
stroke
grestore
gsave
1410.380000 83.921976 translate
0.000000 rotate
0.000000 0 m /one glyphshow
grestore
gsave
10.8 65.922078 m
129 65.922078 l
129 79.948052 l
10.8 79.948052 l
cl
gsave
1.000 setgray
fill
grestore
stroke
grestore
gsave
92.726875 69.896002 translate
0.000000 rotate
0.000000 0 m /seven glyphshow
6.998535 0 m /five glyphshow
13.997070 0 m /percent glyphshow
grestore
gsave
129 65.922078 m
247.2 65.922078 l
247.2 79.948052 l
129 79.948052 l
cl
gsave
1.000 setgray
fill
grestore
stroke
grestore
gsave
228.380000 69.896002 translate
0.000000 rotate
0.000000 0 m /eight glyphshow
grestore
gsave
247.2 65.922078 m
365.4 65.922078 l
365.4 79.948052 l
247.2 79.948052 l
cl
gsave
1.000 setgray
fill
grestore
stroke
grestore
gsave
332.580000 69.896002 translate
0.000000 rotate
0.000000 0 m /one glyphshow
6.998535 0 m /two glyphshow
13.997070 0 m /five glyphshow
grestore
gsave
365.4 65.922078 m
483.6 65.922078 l
483.6 79.948052 l
365.4 79.948052 l
cl
gsave
1.000 setgray
fill
grestore
stroke
grestore
gsave
457.780000 69.896002 translate
0.000000 rotate
0.000000 0 m /two glyphshow
6.998535 0 m /six glyphshow
grestore
gsave
483.6 65.922078 m
601.8 65.922078 l
601.8 79.948052 l
483.6 79.948052 l
cl
gsave
1.000 setgray
fill
grestore
stroke
grestore
gsave
575.980000 69.896002 translate
0.000000 rotate
0.000000 0 m /seven glyphshow
6.998535 0 m /six glyphshow
grestore
gsave
601.8 65.922078 m
720 65.922078 l
720 79.948052 l
601.8 79.948052 l
cl
gsave
1.000 setgray
fill
grestore
stroke
grestore
gsave
694.180000 69.896002 translate
0.000000 rotate
0.000000 0 m /two glyphshow
6.998535 0 m /six glyphshow
grestore
gsave
720 65.922078 m
838.2 65.922078 l
838.2 79.948052 l
720 79.948052 l
cl
gsave
1.000 setgray
fill
grestore
stroke
grestore
gsave
805.380000 69.896002 translate
0.000000 rotate
0.000000 0 m /one glyphshow
6.998535 0 m /five glyphshow
13.997070 0 m /seven glyphshow
grestore
gsave
838.2 65.922078 m
956.4 65.922078 l
956.4 79.948052 l
838.2 79.948052 l
cl
gsave
1.000 setgray
fill
grestore
stroke
grestore
gsave
937.580000 69.896002 translate
0.000000 rotate
0.000000 0 m /one glyphshow
grestore
gsave
956.4 65.922078 m
1074.6 65.922078 l
1074.6 79.948052 l
956.4 79.948052 l
cl
gsave
1.000 setgray
fill
grestore
stroke
grestore
gsave
1055.780000 69.896002 translate
0.000000 rotate
0.000000 0 m /three glyphshow
grestore
gsave
1074.6 65.922078 m
1192.8 65.922078 l
1192.8 79.948052 l
1074.6 79.948052 l
cl
gsave
1.000 setgray
fill
grestore
stroke
grestore
gsave
1156.480000 69.896002 translate
0.000000 rotate
0.000000 0 m /zero glyphshow
6.998535 0 m /period glyphshow
10.495117 0 m /zero glyphshow
17.493652 0 m /seven glyphshow
grestore
gsave
1192.8 65.922078 m
1311 65.922078 l
1311 79.948052 l
1192.8 79.948052 l
cl
gsave
1.000 setgray
fill
grestore
stroke
grestore
gsave
1281.680000 69.896002 translate
0.000000 rotate
0.000000 0 m /one glyphshow
6.998535 0 m /period glyphshow
10.495117 0 m /zero glyphshow
grestore
gsave
1311 65.922078 m
1429.2 65.922078 l
1429.2 79.948052 l
1311 79.948052 l
cl
gsave
1.000 setgray
fill
grestore
stroke
grestore
gsave
1410.380000 69.896002 translate
0.000000 rotate
0.000000 0 m /four glyphshow
grestore
gsave
10.8 51.896104 m
129 51.896104 l
129 65.922078 l
10.8 65.922078 l
cl
gsave
1.000 setgray
fill
grestore
stroke
grestore
gsave
93.211250 55.870028 translate
0.000000 rotate
0.000000 0 m /m glyphshow
10.715332 0 m /a glyphshow
17.456055 0 m /x glyphshow
grestore
gsave
129 51.896104 m
247.2 51.896104 l
247.2 65.922078 l
129 65.922078 l
cl
gsave
1.000 setgray
fill
grestore
stroke
grestore
gsave
214.380000 55.870028 translate
0.000000 rotate
0.000000 0 m /two glyphshow
6.998535 0 m /four glyphshow
13.997070 0 m /eight glyphshow
grestore
gsave
247.2 51.896104 m
365.4 51.896104 l
365.4 65.922078 l
247.2 65.922078 l
cl
gsave
1.000 setgray
fill
grestore
stroke
grestore
gsave
332.580000 55.870028 translate
0.000000 rotate
0.000000 0 m /three glyphshow
6.998535 0 m /nine glyphshow
13.997070 0 m /five glyphshow
grestore
gsave
365.4 51.896104 m
483.6 51.896104 l
483.6 65.922078 l
365.4 65.922078 l
cl
gsave
1.000 setgray
fill
grestore
stroke
grestore
gsave
457.780000 55.870028 translate
0.000000 rotate
0.000000 0 m /three glyphshow
6.998535 0 m /zero glyphshow
grestore
gsave
483.6 51.896104 m
601.8 51.896104 l
601.8 65.922078 l
483.6 65.922078 l
cl
gsave
1.000 setgray
fill
grestore
stroke
grestore
gsave
575.980000 55.870028 translate
0.000000 rotate
0.000000 0 m /eight glyphshow
6.998535 0 m /five glyphshow
grestore
gsave
601.8 51.896104 m
720 51.896104 l
720 65.922078 l
601.8 65.922078 l
cl
gsave
1.000 setgray
fill
grestore
stroke
grestore
gsave
680.180000 55.870028 translate
0.000000 rotate
0.000000 0 m /one glyphshow
6.998535 0 m /six glyphshow
13.997070 0 m /six glyphshow
20.995605 0 m /seven glyphshow
grestore
gsave
720 51.896104 m
838.2 51.896104 l
838.2 65.922078 l
720 65.922078 l
cl
gsave
1.000 setgray
fill
grestore
stroke
grestore
gsave
805.380000 55.870028 translate
0.000000 rotate
0.000000 0 m /six glyphshow
6.998535 0 m /seven glyphshow
13.997070 0 m /eight glyphshow
grestore
gsave
838.2 51.896104 m
956.4 51.896104 l
956.4 65.922078 l
838.2 65.922078 l
cl
gsave
1.000 setgray
fill
grestore
stroke
grestore
gsave
923.580000 55.870028 translate
0.000000 rotate
0.000000 0 m /five glyphshow
6.998535 0 m /two glyphshow
13.997070 0 m /eight glyphshow
grestore
gsave
956.4 51.896104 m
1074.6 51.896104 l
1074.6 65.922078 l
956.4 65.922078 l
cl
gsave
1.000 setgray
fill
grestore
stroke
grestore
gsave
1041.780000 55.870028 translate
0.000000 rotate
0.000000 0 m /seven glyphshow
6.998535 0 m /five glyphshow
13.997070 0 m /one glyphshow
grestore
gsave
1074.6 51.896104 m
1192.8 51.896104 l
1192.8 65.922078 l
1074.6 65.922078 l
cl
gsave
1.000 setgray
fill
grestore
stroke
grestore
gsave
1163.480000 55.870028 translate
0.000000 rotate
0.000000 0 m /one glyphshow
6.998535 0 m /period glyphshow
10.495117 0 m /zero glyphshow
grestore
gsave
1192.8 51.896104 m
1311 51.896104 l
1311 65.922078 l
1192.8 65.922078 l
cl
gsave
1.000 setgray
fill
grestore
stroke
grestore
gsave
1281.680000 55.870028 translate
0.000000 rotate
0.000000 0 m /one glyphshow
6.998535 0 m /period glyphshow
10.495117 0 m /five glyphshow
grestore
gsave
1311 51.896104 m
1429.2 51.896104 l
1429.2 65.922078 l
1311 65.922078 l
cl
gsave
1.000 setgray
fill
grestore
stroke
grestore
gsave
1396.380000 55.870028 translate
0.000000 rotate
0.000000 0 m /nine glyphshow
6.998535 0 m /six glyphshow
13.997070 0 m /nine glyphshow
grestore

end
showpage
